x,y,z
-0.00949996,0.0065000000000000014,0
-0.009000000000000003,0.0065000000000000014,0.000000050000000000000004
-0.008,0.0065000000000000014,0
-0.007499960000000001,0.002,0
-0.007499960000000001,0.002,0
-0.007499960000000001,0.006000000000000001,0.000000050000000000000004
-0.007499960000000001,0.0065000000000000014,0
-0.007499960000000001,0.0065000000000000014,0
-0.006999960000000001,0.0015000000000000002,0
-0.006999960000000001,0.0015000000000000002,0
-0.006999960000000001,0.0025,0
-0.006999960000000001,0.0025,0
-0.006999960000000001,0.0025,0
-0.006999960000000001,0.0025,0.000000050000000000000004
-0.006999960000000001,0.006000000000000001,0
-0.006999960000000001,0.006999960000000001,0
