0325dd604ca905d8a1a9b59f6435ce92
0325dd604ca905d8a1a9b59f6435ce92
0325dd604ca905d8a1a9b59f6435ce92
0325dd604ca905d8a1a9b59f6435ce92
0325dd604ca905d8a1a9b59f6435ce92
0325dd604ca905d8a1a9b59f6435ce92
0325dd604ca905d8a1a9b59f6435ce92
0325dd604ca905d8a1a9b59f6435ce92
0325dd604ca905d8a1a9b59f6435ce92
0325dd604ca905d8a1a9b59f6435ce92
0325dd604ca905d8a1a9b59f6435ce92
0325dd604ca905d8a1a9b59f6435ce92
0325dd604ca905d8a1a9b59f6435ce92
0325dd604ca905d8a1a9b59f6435ce92
0325dd604ca905d8a1a9b59f6435ce92
0325dd604ca905d8a1a9b59f6435ce92
0325dd604ca905d8a1a9b59f6435ce92
0325dd604ca905d8a1a9b59f6435ce92
0325dd604ca905d8a1a9b59f6435ce92
0325dd604ca905d8a1a9b59f6435ce92
0325dd604ca905d8a1a9b59f6435ce92
0325dd604ca905d8a1a9b59f6435ce92
0325dd604ca905d8a1a9b59f6435ce92
0325dd604ca905d8a1a9b59f6435ce92
0325dd604ca905d8a1a9b59f6435ce92
0325dd604ca905d8a1a9b59f6435ce92
0325dd604ca905d8a1a9b59f6435ce92
0325dd604ca905d8a1a9b59f6435ce92
0325dd604ca905d8a1a9b59f6435ce92
0325dd604ca905d8a1a9b59f6435ce92
0325dd604ca905d8a1a9b59f6435ce92
0325dd604ca905d8a1a9b59f6435ce92
0325dd604ca905d8a1a9b59f6435ce92
0325dd604ca905d8a1a9b59f6435ce92
0325dd604ca905d8a1a9b59f6435ce92
0325dd604ca905d8a1a9b59f6435ce92
0325dd604ca905d8a1a9b59f6435ce92
0325dd604ca905d8a1a9b59f6435ce92
0325dd604ca905d8a1a9b59f6435ce92
0325dd604ca905d8a1a9b59f6435ce92
0325dd604ca905d8a1a9b59f6435ce92
0325dd604ca905d8a1a9b59f6435ce92
0325dd604ca905d8a1a9b59f6435ce92
0325dd604ca905d8a1a9b59f6435ce92
0325dd604ca905d8a1a9b59f6435ce92
0325dd604ca905d8a1a9b59f6435ce92
0325dd604ca905d8a1a9b59f6435ce92
21ef797b48ed481a48873e3ebdeeb3ab
0325dd604ca905d8a1a9b59f6435ce92
0325dd604ca905d8a1a9b59f6435ce92
0325dd604ca905d8a1a9b59f6435ce92
0325dd604ca905d8a1a9b59f6435ce92
0325dd604ca905d8a1a9b59f6435ce92
0325dd604ca905d8a1a9b59f6435ce92
0325dd604ca905d8a1a9b59f6435ce92
0325dd604ca905d8a1a9b59f6435ce92
0325dd604ca905d8a1a9b59f6435ce92
0325dd604ca905d8a1a9b59f6435ce92
0325dd604ca905d8a1a9b59f6435ce92
0325dd604ca905d8a1a9b59f6435ce92
0325dd604ca905d8a1a9b59f6435ce92
0325dd604ca905d8a1a9b59f6435ce92
0325dd604ca905d8a1a9b59f6435ce92
0325dd604ca905d8a1a9b59f6435ce92
0325dd604ca905d8a1a9b59f6435ce92
0325dd604ca905d8a1a9b59f6435ce92
0325dd604ca905d8a1a9b59f6435ce92
0325dd604ca905d8a1a9b59f6435ce92
0325dd604ca905d8a1a9b59f6435ce92
0325dd604ca905d8a1a9b59f6435ce92
0325dd604ca905d8a1a9b59f6435ce92
0325dd604ca905d8a1a9b59f6435ce92
0325dd604ca905d8a1a9b59f6435ce92
21ef797b48ed481a48873e3ebdeeb3ab
0325dd604ca905d8a1a9b59f6435ce92
0325dd604ca905d8a1a9b59f6435ce92
0325dd604ca905d8a1a9b59f6435ce92
0325dd604ca905d8a1a9b59f6435ce92
0325dd604ca905d8a1a9b59f6435ce92
0325dd604ca905d8a1a9b59f6435ce92
0325dd604ca905d8a1a9b59f6435ce92
0325dd604ca905d8a1a9b59f6435ce92
0325dd604ca905d8a1a9b59f6435ce92
0325dd604ca905d8a1a9b59f6435ce92
0325dd604ca905d8a1a9b59f6435ce92
0325dd604ca905d8a1a9b59f6435ce92
0325dd604ca905d8a1a9b59f6435ce92
0325dd604ca905d8a1a9b59f6435ce92
0325dd604ca905d8a1a9b59f6435ce92
0325dd604ca905d8a1a9b59f6435ce92
0325dd604ca905d8a1a9b59f6435ce92
0325dd604ca905d8a1a9b59f6435ce92
0325dd604ca905d8a1a9b59f6435ce92
0325dd604ca905d8a1a9b59f6435ce92
0325dd604ca905d8a1a9b59f6435ce92
0325dd604ca905d8a1a9b59f6435ce92
0325dd604ca905d8a1a9b59f6435ce92
0325dd604ca905d8a1a9b59f6435ce92
0325dd604ca905d8a1a9b59f6435ce92
0325dd604ca905d8a1a9b59f6435ce92
0325dd604ca905d8a1a9b59f6435ce92
0325dd604ca905d8a1a9b59f6435ce92
0325dd604ca905d8a1a9b59f6435ce92
0325dd604ca905d8a1a9b59f6435ce92
0325dd604ca905d8a1a9b59f6435ce92
0325dd604ca905d8a1a9b59f6435ce92
0325dd604ca905d8a1a9b59f6435ce92
0325dd604ca905d8a1a9b59f6435ce92
0325dd604ca905d8a1a9b59f6435ce92
0325dd604ca905d8a1a9b59f6435ce92
0325dd604ca905d8a1a9b59f6435ce92
0325dd604ca905d8a1a9b59f6435ce92
0325dd604ca905d8a1a9b59f6435ce92
0325dd604ca905d8a1a9b59f6435ce92
0325dd604ca905d8a1a9b59f6435ce92
0325dd604ca905d8a1a9b59f6435ce92
0325dd604ca905d8a1a9b59f6435ce92
0325dd604ca905d8a1a9b59f6435ce92
0325dd604ca905d8a1a9b59f6435ce92
0325dd604ca905d8a1a9b59f6435ce92
0325dd604ca905d8a1a9b59f6435ce92
0325dd604ca905d8a1a9b59f6435ce92
0325dd604ca905d8a1a9b59f6435ce92
21ef797b48ed481a48873e3ebdeeb3ab
0325dd604ca905d8a1a9b59f6435ce92
0325dd604ca905d8a1a9b59f6435ce92
0325dd604ca905d8a1a9b59f6435ce92
0325dd604ca905d8a1a9b59f6435ce92
0325dd604ca905d8a1a9b59f6435ce92
0325dd604ca905d8a1a9b59f6435ce92
0325dd604ca905d8a1a9b59f6435ce92
0325dd604ca905d8a1a9b59f6435ce92
0325dd604ca905d8a1a9b59f6435ce92
0325dd604ca905d8a1a9b59f6435ce92
0325dd604ca905d8a1a9b59f6435ce92
0325dd604ca905d8a1a9b59f6435ce92
0325dd604ca905d8a1a9b59f6435ce92
0325dd604ca905d8a1a9b59f6435ce92
0325dd604ca905d8a1a9b59f6435ce92
0325dd604ca905d8a1a9b59f6435ce92
0325dd604ca905d8a1a9b59f6435ce92
0325dd604ca905d8a1a9b59f6435ce92
0325dd604ca905d8a1a9b59f6435ce92
0325dd604ca905d8a1a9b59f6435ce92
0325dd604ca905d8a1a9b59f6435ce92
0325dd604ca905d8a1a9b59f6435ce92
0325dd604ca905d8a1a9b59f6435ce92
0325dd604ca905d8a1a9b59f6435ce92
0325dd604ca905d8a1a9b59f6435ce92
0325dd604ca905d8a1a9b59f6435ce92
0325dd604ca905d8a1a9b59f6435ce92
0325dd604ca905d8a1a9b59f6435ce92
0325dd604ca905d8a1a9b59f6435ce92
0325dd604ca905d8a1a9b59f6435ce92
0325dd604ca905d8a1a9b59f6435ce92
0325dd604ca905d8a1a9b59f6435ce92
0325dd604ca905d8a1a9b59f6435ce92
21ef797b48ed481a48873e3ebdeeb3ab
0325dd604ca905d8a1a9b59f6435ce92
0325dd604ca905d8a1a9b59f6435ce92
0325dd604ca905d8a1a9b59f6435ce92
0325dd604ca905d8a1a9b59f6435ce92
0325dd604ca905d8a1a9b59f6435ce92
0325dd604ca905d8a1a9b59f6435ce92
0325dd604ca905d8a1a9b59f6435ce92
0325dd604ca905d8a1a9b59f6435ce92
0325dd604ca905d8a1a9b59f6435ce92
0325dd604ca905d8a1a9b59f6435ce92
0325dd604ca905d8a1a9b59f6435ce92
0325dd604ca905d8a1a9b59f6435ce92
0325dd604ca905d8a1a9b59f6435ce92
0325dd604ca905d8a1a9b59f6435ce92
0325dd604ca905d8a1a9b59f6435ce92
0325dd604ca905d8a1a9b59f6435ce92
0325dd604ca905d8a1a9b59f6435ce92
0325dd604ca905d8a1a9b59f6435ce92
0325dd604ca905d8a1a9b59f6435ce92
0325dd604ca905d8a1a9b59f6435ce92
0325dd604ca905d8a1a9b59f6435ce92
0325dd604ca905d8a1a9b59f6435ce92
0325dd604ca905d8a1a9b59f6435ce92
0325dd604ca905d8a1a9b59f6435ce92
0325dd604ca905d8a1a9b59f6435ce92
1552cb88eb07e31c98e3e47d67f790fb
4e801e40f94e77e06c595202d8c3a9f0
4e801e40f94e77e06c595202d8c3a9f0
4e801e40f94e77e06c595202d8c3a9f0
4e801e40f94e77e06c595202d8c3a9f0
4e801e40f94e77e06c595202d8c3a9f0
4e801e40f94e77e06c595202d8c3a9f0
4e801e40f94e77e06c595202d8c3a9f0
4e801e40f94e77e06c595202d8c3a9f0
4e801e40f94e77e06c595202d8c3a9f0
4e801e40f94e77e06c595202d8c3a9f0
4e801e40f94e77e06c595202d8c3a9f0
4e801e40f94e77e06c595202d8c3a9f0
4e801e40f94e77e06c595202d8c3a9f0
4e801e40f94e77e06c595202d8c3a9f0
4e801e40f94e77e06c595202d8c3a9f0
4e801e40f94e77e06c595202d8c3a9f0
4e801e40f94e77e06c595202d8c3a9f0
4e801e40f94e77e06c595202d8c3a9f0
21ef797b48ed481a48873e3ebdeeb3ab
0325dd604ca905d8a1a9b59f6435ce92
0325dd604ca905d8a1a9b59f6435ce92
0325dd604ca905d8a1a9b59f6435ce92
0325dd604ca905d8a1a9b59f6435ce92
0325dd604ca905d8a1a9b59f6435ce92
0325dd604ca905d8a1a9b59f6435ce92
0325dd604ca905d8a1a9b59f6435ce92
0325dd604ca905d8a1a9b59f6435ce92
0325dd604ca905d8a1a9b59f6435ce92
0325dd604ca905d8a1a9b59f6435ce92
0325dd604ca905d8a1a9b59f6435ce92
0325dd604ca905d8a1a9b59f6435ce92
0325dd604ca905d8a1a9b59f6435ce92
0325dd604ca905d8a1a9b59f6435ce92
0325dd604ca905d8a1a9b59f6435ce92
0325dd604ca905d8a1a9b59f6435ce92
0325dd604ca905d8a1a9b59f6435ce92
0325dd604ca905d8a1a9b59f6435ce92
0325dd604ca905d8a1a9b59f6435ce92
0325dd604ca905d8a1a9b59f6435ce92
0325dd604ca905d8a1a9b59f6435ce92
0325dd604ca905d8a1a9b59f6435ce92
0325dd604ca905d8a1a9b59f6435ce92
0325dd604ca905d8a1a9b59f6435ce92
21ef797b48ed481a48873e3ebdeeb3ab
0325dd604ca905d8a1a9b59f6435ce92
0325dd604ca905d8a1a9b59f6435ce92
0325dd604ca905d8a1a9b59f6435ce92
0325dd604ca905d8a1a9b59f6435ce92
0325dd604ca905d8a1a9b59f6435ce92
0325dd604ca905d8a1a9b59f6435ce92
0325dd604ca905d8a1a9b59f6435ce92
0325dd604ca905d8a1a9b59f6435ce92
0325dd604ca905d8a1a9b59f6435ce92
0325dd604ca905d8a1a9b59f6435ce92
0325dd604ca905d8a1a9b59f6435ce92
0325dd604ca905d8a1a9b59f6435ce92
0325dd604ca905d8a1a9b59f6435ce92
dc9817c49d3ed7a091a90fa769ab7ab9
6ce1f7ddcb04cd0f54f27a65fc1a78f8
6ce1f7ddcb04cd0f54f27a65fc1a78f8
6ce1f7ddcb04cd0f54f27a65fc1a78f8
6ce1f7ddcb04cd0f54f27a65fc1a78f8
21ef797b48ed481a48873e3ebdeeb3ab
0325dd604ca905d8a1a9b59f6435ce92
0325dd604ca905d8a1a9b59f6435ce92
0325dd604ca905d8a1a9b59f6435ce92
0325dd604ca905d8a1a9b59f6435ce92
0325dd604ca905d8a1a9b59f6435ce92
0325dd604ca905d8a1a9b59f6435ce92
0325dd604ca905d8a1a9b59f6435ce92
0325dd604ca905d8a1a9b59f6435ce92
0325dd604ca905d8a1a9b59f6435ce92
0325dd604ca905d8a1a9b59f6435ce92
0325dd604ca905d8a1a9b59f6435ce92
0325dd604ca905d8a1a9b59f6435ce92
0325dd604ca905d8a1a9b59f6435ce92
0325dd604ca905d8a1a9b59f6435ce92
0325dd604ca905d8a1a9b59f6435ce92
0325dd604ca905d8a1a9b59f6435ce92
0325dd604ca905d8a1a9b59f6435ce92
0325dd604ca905d8a1a9b59f6435ce92
0325dd604ca905d8a1a9b59f6435ce92
0325dd604ca905d8a1a9b59f6435ce92
0325dd604ca905d8a1a9b59f6435ce92
0325dd604ca905d8a1a9b59f6435ce92
0325dd604ca905d8a1a9b59f6435ce92
0325dd604ca905d8a1a9b59f6435ce92
0325dd604ca905d8a1a9b59f6435ce92
0325dd604ca905d8a1a9b59f6435ce92
0325dd604ca905d8a1a9b59f6435ce92
0325dd604ca905d8a1a9b59f6435ce92
0325dd604ca905d8a1a9b59f6435ce92
0325dd604ca905d8a1a9b59f6435ce92
0325dd604ca905d8a1a9b59f6435ce92
0325dd604ca905d8a1a9b59f6435ce92
0325dd604ca905d8a1a9b59f6435ce92
0325dd604ca905d8a1a9b59f6435ce92
0325dd604ca905d8a1a9b59f6435ce92
0325dd604ca905d8a1a9b59f6435ce92
0325dd604ca905d8a1a9b59f6435ce92
0325dd604ca905d8a1a9b59f6435ce92
0325dd604ca905d8a1a9b59f6435ce92
0325dd604ca905d8a1a9b59f6435ce92
0325dd604ca905d8a1a9b59f6435ce92
0325dd604ca905d8a1a9b59f6435ce92
0325dd604ca905d8a1a9b59f6435ce92
0325dd604ca905d8a1a9b59f6435ce92
0325dd604ca905d8a1a9b59f6435ce92
0325dd604ca905d8a1a9b59f6435ce92
0325dd604ca905d8a1a9b59f6435ce92
0325dd604ca905d8a1a9b59f6435ce92
0325dd604ca905d8a1a9b59f6435ce92
0325dd604ca905d8a1a9b59f6435ce92
0325dd604ca905d8a1a9b59f6435ce92
0325dd604ca905d8a1a9b59f6435ce92
0325dd604ca905d8a1a9b59f6435ce92
0325dd604ca905d8a1a9b59f6435ce92
0325dd604ca905d8a1a9b59f6435ce92
21ef797b48ed481a48873e3ebdeeb3ab
0325dd604ca905d8a1a9b59f6435ce92
0325dd604ca905d8a1a9b59f6435ce92
0325dd604ca905d8a1a9b59f6435ce92
0325dd604ca905d8a1a9b59f6435ce92
0325dd604ca905d8a1a9b59f6435ce92
0325dd604ca905d8a1a9b59f6435ce92
0325dd604ca905d8a1a9b59f6435ce92
0325dd604ca905d8a1a9b59f6435ce92
0325dd604ca905d8a1a9b59f6435ce92
0325dd604ca905d8a1a9b59f6435ce92
0325dd604ca905d8a1a9b59f6435ce92
0325dd604ca905d8a1a9b59f6435ce92
0325dd604ca905d8a1a9b59f6435ce92
0325dd604ca905d8a1a9b59f6435ce92
0325dd604ca905d8a1a9b59f6435ce92
0325dd604ca905d8a1a9b59f6435ce92
0325dd604ca905d8a1a9b59f6435ce92
0325dd604ca905d8a1a9b59f6435ce92
0325dd604ca905d8a1a9b59f6435ce92
0325dd604ca905d8a1a9b59f6435ce92
0325dd604ca905d8a1a9b59f6435ce92
0325dd604ca905d8a1a9b59f6435ce92
0325dd604ca905d8a1a9b59f6435ce92
0325dd604ca905d8a1a9b59f6435ce92
0325dd604ca905d8a1a9b59f6435ce92
0325dd604ca905d8a1a9b59f6435ce92
0325dd604ca905d8a1a9b59f6435ce92
0325dd604ca905d8a1a9b59f6435ce92
0325dd604ca905d8a1a9b59f6435ce92
0325dd604ca905d8a1a9b59f6435ce92
0325dd604ca905d8a1a9b59f6435ce92
0325dd604ca905d8a1a9b59f6435ce92
0325dd604ca905d8a1a9b59f6435ce92
0325dd604ca905d8a1a9b59f6435ce92
0325dd604ca905d8a1a9b59f6435ce92
0325dd604ca905d8a1a9b59f6435ce92
0325dd604ca905d8a1a9b59f6435ce92
0325dd604ca905d8a1a9b59f6435ce92
0325dd604ca905d8a1a9b59f6435ce92
0325dd604ca905d8a1a9b59f6435ce92
0325dd604ca905d8a1a9b59f6435ce92
0325dd604ca905d8a1a9b59f6435ce92
0325dd604ca905d8a1a9b59f6435ce92
0325dd604ca905d8a1a9b59f6435ce92
0325dd604ca905d8a1a9b59f6435ce92
0325dd604ca905d8a1a9b59f6435ce92
0325dd604ca905d8a1a9b59f6435ce92
0325dd604ca905d8a1a9b59f6435ce92
0325dd604ca905d8a1a9b59f6435ce92
0325dd604ca905d8a1a9b59f6435ce92
0325dd604ca905d8a1a9b59f6435ce92
0325dd604ca905d8a1a9b59f6435ce92
0325dd604ca905d8a1a9b59f6435ce92
0325dd604ca905d8a1a9b59f6435ce92
0325dd604ca905d8a1a9b59f6435ce92
0325dd604ca905d8a1a9b59f6435ce92
0325dd604ca905d8a1a9b59f6435ce92
0325dd604ca905d8a1a9b59f6435ce92
0325dd604ca905d8a1a9b59f6435ce92
0325dd604ca905d8a1a9b59f6435ce92
0325dd604ca905d8a1a9b59f6435ce92
0325dd604ca905d8a1a9b59f6435ce92
0325dd604ca905d8a1a9b59f6435ce92
0325dd604ca905d8a1a9b59f6435ce92
0325dd604ca905d8a1a9b59f6435ce92
0325dd604ca905d8a1a9b59f6435ce92
0325dd604ca905d8a1a9b59f6435ce92
0325dd604ca905d8a1a9b59f6435ce92
0325dd604ca905d8a1a9b59f6435ce92
0325dd604ca905d8a1a9b59f6435ce92
0325dd604ca905d8a1a9b59f6435ce92
0325dd604ca905d8a1a9b59f6435ce92
0325dd604ca905d8a1a9b59f6435ce92
0325dd604ca905d8a1a9b59f6435ce92
0325dd604ca905d8a1a9b59f6435ce92
0325dd604ca905d8a1a9b59f6435ce92
0325dd604ca905d8a1a9b59f6435ce92
0325dd604ca905d8a1a9b59f6435ce92
0325dd604ca905d8a1a9b59f6435ce92
0325dd604ca905d8a1a9b59f6435ce92
0325dd604ca905d8a1a9b59f6435ce92
0325dd604ca905d8a1a9b59f6435ce92
0325dd604ca905d8a1a9b59f6435ce92
0325dd604ca905d8a1a9b59f6435ce92
0325dd604ca905d8a1a9b59f6435ce92
0325dd604ca905d8a1a9b59f6435ce92
0325dd604ca905d8a1a9b59f6435ce92
0325dd604ca905d8a1a9b59f6435ce92
0325dd604ca905d8a1a9b59f6435ce92
0325dd604ca905d8a1a9b59f6435ce92
0325dd604ca905d8a1a9b59f6435ce92
0325dd604ca905d8a1a9b59f6435ce92
0325dd604ca905d8a1a9b59f6435ce92
0325dd604ca905d8a1a9b59f6435ce92
0325dd604ca905d8a1a9b59f6435ce92
0325dd604ca905d8a1a9b59f6435ce92
0325dd604ca905d8a1a9b59f6435ce92
0325dd604ca905d8a1a9b59f6435ce92
0325dd604ca905d8a1a9b59f6435ce92
0325dd604ca905d8a1a9b59f6435ce92
0325dd604ca905d8a1a9b59f6435ce92
0325dd604ca905d8a1a9b59f6435ce92
0325dd604ca905d8a1a9b59f6435ce92
5e01278420966b73bd3142c7877ca332
99ca7c5b311084cf5ade9b6eec5752ab
99ca7c5b311084cf5ade9b6eec5752ab
99ca7c5b311084cf5ade9b6eec5752ab
99ca7c5b311084cf5ade9b6eec5752ab
99ca7c5b311084cf5ade9b6eec5752ab
99ca7c5b311084cf5ade9b6eec5752ab
99ca7c5b311084cf5ade9b6eec5752ab
99ca7c5b311084cf5ade9b6eec5752ab
99ca7c5b311084cf5ade9b6eec5752ab
99ca7c5b311084cf5ade9b6eec5752ab
99ca7c5b311084cf5ade9b6eec5752ab
99ca7c5b311084cf5ade9b6eec5752ab
99ca7c5b311084cf5ade9b6eec5752ab
99ca7c5b311084cf5ade9b6eec5752ab
99ca7c5b311084cf5ade9b6eec5752ab
99ca7c5b311084cf5ade9b6eec5752ab
99ca7c5b311084cf5ade9b6eec5752ab
99ca7c5b311084cf5ade9b6eec5752ab
99ca7c5b311084cf5ade9b6eec5752ab
99ca7c5b311084cf5ade9b6eec5752ab
99ca7c5b311084cf5ade9b6eec5752ab
5e01278420966b73bd3142c7877ca332
99ca7c5b311084cf5ade9b6eec5752ab
99ca7c5b311084cf5ade9b6eec5752ab
99ca7c5b311084cf5ade9b6eec5752ab
99ca7c5b311084cf5ade9b6eec5752ab
99ca7c5b311084cf5ade9b6eec5752ab
99ca7c5b311084cf5ade9b6eec5752ab
99ca7c5b311084cf5ade9b6eec5752ab
99ca7c5b311084cf5ade9b6eec5752ab
99ca7c5b311084cf5ade9b6eec5752ab
99ca7c5b311084cf5ade9b6eec5752ab
99ca7c5b311084cf5ade9b6eec5752ab
99ca7c5b311084cf5ade9b6eec5752ab
99ca7c5b311084cf5ade9b6eec5752ab
99ca7c5b311084cf5ade9b6eec5752ab
99ca7c5b311084cf5ade9b6eec5752ab
99ca7c5b311084cf5ade9b6eec5752ab
99ca7c5b311084cf5ade9b6eec5752ab
5e01278420966b73bd3142c7877ca332
99ca7c5b311084cf5ade9b6eec5752ab
99ca7c5b311084cf5ade9b6eec5752ab
99ca7c5b311084cf5ade9b6eec5752ab
99ca7c5b311084cf5ade9b6eec5752ab
99ca7c5b311084cf5ade9b6eec5752ab
99ca7c5b311084cf5ade9b6eec5752ab
99ca7c5b311084cf5ade9b6eec5752ab
99ca7c5b311084cf5ade9b6eec5752ab
99ca7c5b311084cf5ade9b6eec5752ab
99ca7c5b311084cf5ade9b6eec5752ab
99ca7c5b311084cf5ade9b6eec5752ab
99ca7c5b311084cf5ade9b6eec5752ab
99ca7c5b311084cf5ade9b6eec5752ab
99ca7c5b311084cf5ade9b6eec5752ab
99ca7c5b311084cf5ade9b6eec5752ab
99ca7c5b311084cf5ade9b6eec5752ab
99ca7c5b311084cf5ade9b6eec5752ab
5e01278420966b73bd3142c7877ca332
99ca7c5b311084cf5ade9b6eec5752ab
99ca7c5b311084cf5ade9b6eec5752ab
99ca7c5b311084cf5ade9b6eec5752ab
99ca7c5b311084cf5ade9b6eec5752ab
99ca7c5b311084cf5ade9b6eec5752ab
99ca7c5b311084cf5ade9b6eec5752ab
99ca7c5b311084cf5ade9b6eec5752ab
99ca7c5b311084cf5ade9b6eec5752ab
99ca7c5b311084cf5ade9b6eec5752ab
99ca7c5b311084cf5ade9b6eec5752ab
99ca7c5b311084cf5ade9b6eec5752ab
99ca7c5b311084cf5ade9b6eec5752ab
99ca7c5b311084cf5ade9b6eec5752ab
99ca7c5b311084cf5ade9b6eec5752ab
99ca7c5b311084cf5ade9b6eec5752ab
99ca7c5b311084cf5ade9b6eec5752ab
99ca7c5b311084cf5ade9b6eec5752ab
99ca7c5b311084cf5ade9b6eec5752ab
99ca7c5b311084cf5ade9b6eec5752ab
99ca7c5b311084cf5ade9b6eec5752ab
99ca7c5b311084cf5ade9b6eec5752ab
99ca7c5b311084cf5ade9b6eec5752ab
99ca7c5b311084cf5ade9b6eec5752ab
99ca7c5b311084cf5ade9b6eec5752ab
99ca7c5b311084cf5ade9b6eec5752ab
99ca7c5b311084cf5ade9b6eec5752ab
99ca7c5b311084cf5ade9b6eec5752ab
99ca7c5b311084cf5ade9b6eec5752ab
99ca7c5b311084cf5ade9b6eec5752ab
5e01278420966b73bd3142c7877ca332
99ca7c5b311084cf5ade9b6eec5752ab
99ca7c5b311084cf5ade9b6eec5752ab
99ca7c5b311084cf5ade9b6eec5752ab
5e01278420966b73bd3142c7877ca332
99ca7c5b311084cf5ade9b6eec5752ab
99ca7c5b311084cf5ade9b6eec5752ab
99ca7c5b311084cf5ade9b6eec5752ab
99ca7c5b311084cf5ade9b6eec5752ab
99ca7c5b311084cf5ade9b6eec5752ab
99ca7c5b311084cf5ade9b6eec5752ab
99ca7c5b311084cf5ade9b6eec5752ab
5e01278420966b73bd3142c7877ca332
99ca7c5b311084cf5ade9b6eec5752ab
99ca7c5b311084cf5ade9b6eec5752ab
99ca7c5b311084cf5ade9b6eec5752ab
99ca7c5b311084cf5ade9b6eec5752ab
99ca7c5b311084cf5ade9b6eec5752ab
99ca7c5b311084cf5ade9b6eec5752ab
99ca7c5b311084cf5ade9b6eec5752ab
99ca7c5b311084cf5ade9b6eec5752ab
99ca7c5b311084cf5ade9b6eec5752ab
99ca7c5b311084cf5ade9b6eec5752ab
99ca7c5b311084cf5ade9b6eec5752ab
99ca7c5b311084cf5ade9b6eec5752ab
99ca7c5b311084cf5ade9b6eec5752ab
99ca7c5b311084cf5ade9b6eec5752ab
99ca7c5b311084cf5ade9b6eec5752ab
99ca7c5b311084cf5ade9b6eec5752ab
99ca7c5b311084cf5ade9b6eec5752ab
5e01278420966b73bd3142c7877ca332
99ca7c5b311084cf5ade9b6eec5752ab
99ca7c5b311084cf5ade9b6eec5752ab
99ca7c5b311084cf5ade9b6eec5752ab
99ca7c5b311084cf5ade9b6eec5752ab
99ca7c5b311084cf5ade9b6eec5752ab
99ca7c5b311084cf5ade9b6eec5752ab
99ca7c5b311084cf5ade9b6eec5752ab
5e01278420966b73bd3142c7877ca332
99ca7c5b311084cf5ade9b6eec5752ab
99ca7c5b311084cf5ade9b6eec5752ab
99ca7c5b311084cf5ade9b6eec5752ab
99ca7c5b311084cf5ade9b6eec5752ab
99ca7c5b311084cf5ade9b6eec5752ab
99ca7c5b311084cf5ade9b6eec5752ab
99ca7c5b311084cf5ade9b6eec5752ab
99ca7c5b311084cf5ade9b6eec5752ab
99ca7c5b311084cf5ade9b6eec5752ab
99ca7c5b311084cf5ade9b6eec5752ab
99ca7c5b311084cf5ade9b6eec5752ab
99ca7c5b311084cf5ade9b6eec5752ab
99ca7c5b311084cf5ade9b6eec5752ab
99ca7c5b311084cf5ade9b6eec5752ab
99ca7c5b311084cf5ade9b6eec5752ab
99ca7c5b311084cf5ade9b6eec5752ab
99ca7c5b311084cf5ade9b6eec5752ab
99ca7c5b311084cf5ade9b6eec5752ab
99ca7c5b311084cf5ade9b6eec5752ab
99ca7c5b311084cf5ade9b6eec5752ab
99ca7c5b311084cf5ade9b6eec5752ab
99ca7c5b311084cf5ade9b6eec5752ab
99ca7c5b311084cf5ade9b6eec5752ab
99ca7c5b311084cf5ade9b6eec5752ab
99ca7c5b311084cf5ade9b6eec5752ab
99ca7c5b311084cf5ade9b6eec5752ab
99ca7c5b311084cf5ade9b6eec5752ab
99ca7c5b311084cf5ade9b6eec5752ab
99ca7c5b311084cf5ade9b6eec5752ab
99ca7c5b311084cf5ade9b6eec5752ab
99ca7c5b311084cf5ade9b6eec5752ab
99ca7c5b311084cf5ade9b6eec5752ab
99ca7c5b311084cf5ade9b6eec5752ab
99ca7c5b311084cf5ade9b6eec5752ab
99ca7c5b311084cf5ade9b6eec5752ab
99ca7c5b311084cf5ade9b6eec5752ab
99ca7c5b311084cf5ade9b6eec5752ab
99ca7c5b311084cf5ade9b6eec5752ab
99ca7c5b311084cf5ade9b6eec5752ab
99ca7c5b311084cf5ade9b6eec5752ab
99ca7c5b311084cf5ade9b6eec5752ab
99ca7c5b311084cf5ade9b6eec5752ab
99ca7c5b311084cf5ade9b6eec5752ab
99ca7c5b311084cf5ade9b6eec5752ab
99ca7c5b311084cf5ade9b6eec5752ab
99ca7c5b311084cf5ade9b6eec5752ab
99ca7c5b311084cf5ade9b6eec5752ab
99ca7c5b311084cf5ade9b6eec5752ab
99ca7c5b311084cf5ade9b6eec5752ab
99ca7c5b311084cf5ade9b6eec5752ab
99ca7c5b311084cf5ade9b6eec5752ab
99ca7c5b311084cf5ade9b6eec5752ab
99ca7c5b311084cf5ade9b6eec5752ab
99ca7c5b311084cf5ade9b6eec5752ab
99ca7c5b311084cf5ade9b6eec5752ab
99ca7c5b311084cf5ade9b6eec5752ab
99ca7c5b311084cf5ade9b6eec5752ab
99ca7c5b311084cf5ade9b6eec5752ab
99ca7c5b311084cf5ade9b6eec5752ab
99ca7c5b311084cf5ade9b6eec5752ab
5e01278420966b73bd3142c7877ca332
99ca7c5b311084cf5ade9b6eec5752ab
99ca7c5b311084cf5ade9b6eec5752ab
99ca7c5b311084cf5ade9b6eec5752ab
99ca7c5b311084cf5ade9b6eec5752ab
99ca7c5b311084cf5ade9b6eec5752ab
99ca7c5b311084cf5ade9b6eec5752ab
99ca7c5b311084cf5ade9b6eec5752ab
99ca7c5b311084cf5ade9b6eec5752ab
99ca7c5b311084cf5ade9b6eec5752ab
99ca7c5b311084cf5ade9b6eec5752ab
99ca7c5b311084cf5ade9b6eec5752ab
99ca7c5b311084cf5ade9b6eec5752ab
99ca7c5b311084cf5ade9b6eec5752ab
99ca7c5b311084cf5ade9b6eec5752ab
99ca7c5b311084cf5ade9b6eec5752ab
99ca7c5b311084cf5ade9b6eec5752ab
99ca7c5b311084cf5ade9b6eec5752ab
99ca7c5b311084cf5ade9b6eec5752ab
99ca7c5b311084cf5ade9b6eec5752ab
99ca7c5b311084cf5ade9b6eec5752ab
99ca7c5b311084cf5ade9b6eec5752ab
99ca7c5b311084cf5ade9b6eec5752ab
99ca7c5b311084cf5ade9b6eec5752ab
99ca7c5b311084cf5ade9b6eec5752ab
99ca7c5b311084cf5ade9b6eec5752ab
99ca7c5b311084cf5ade9b6eec5752ab
99ca7c5b311084cf5ade9b6eec5752ab
99ca7c5b311084cf5ade9b6eec5752ab
99ca7c5b311084cf5ade9b6eec5752ab
99ca7c5b311084cf5ade9b6eec5752ab
99ca7c5b311084cf5ade9b6eec5752ab
99ca7c5b311084cf5ade9b6eec5752ab
99ca7c5b311084cf5ade9b6eec5752ab
99ca7c5b311084cf5ade9b6eec5752ab
99ca7c5b311084cf5ade9b6eec5752ab
99ca7c5b311084cf5ade9b6eec5752ab
99ca7c5b311084cf5ade9b6eec5752ab
99ca7c5b311084cf5ade9b6eec5752ab
99ca7c5b311084cf5ade9b6eec5752ab
99ca7c5b311084cf5ade9b6eec5752ab
99ca7c5b311084cf5ade9b6eec5752ab
99ca7c5b311084cf5ade9b6eec5752ab
5e01278420966b73bd3142c7877ca332
99ca7c5b311084cf5ade9b6eec5752ab
99ca7c5b311084cf5ade9b6eec5752ab
99ca7c5b311084cf5ade9b6eec5752ab
99ca7c5b311084cf5ade9b6eec5752ab
99ca7c5b311084cf5ade9b6eec5752ab
99ca7c5b311084cf5ade9b6eec5752ab
99ca7c5b311084cf5ade9b6eec5752ab
99ca7c5b311084cf5ade9b6eec5752ab
99ca7c5b311084cf5ade9b6eec5752ab
99ca7c5b311084cf5ade9b6eec5752ab
99ca7c5b311084cf5ade9b6eec5752ab
99ca7c5b311084cf5ade9b6eec5752ab
99ca7c5b311084cf5ade9b6eec5752ab
99ca7c5b311084cf5ade9b6eec5752ab
99ca7c5b311084cf5ade9b6eec5752ab
99ca7c5b311084cf5ade9b6eec5752ab
99ca7c5b311084cf5ade9b6eec5752ab
99ca7c5b311084cf5ade9b6eec5752ab
99ca7c5b311084cf5ade9b6eec5752ab
99ca7c5b311084cf5ade9b6eec5752ab
99ca7c5b311084cf5ade9b6eec5752ab
99ca7c5b311084cf5ade9b6eec5752ab
99ca7c5b311084cf5ade9b6eec5752ab
99ca7c5b311084cf5ade9b6eec5752ab
99ca7c5b311084cf5ade9b6eec5752ab
99ca7c5b311084cf5ade9b6eec5752ab
99ca7c5b311084cf5ade9b6eec5752ab
99ca7c5b311084cf5ade9b6eec5752ab
99ca7c5b311084cf5ade9b6eec5752ab
99ca7c5b311084cf5ade9b6eec5752ab
99ca7c5b311084cf5ade9b6eec5752ab
99ca7c5b311084cf5ade9b6eec5752ab
99ca7c5b311084cf5ade9b6eec5752ab
99ca7c5b311084cf5ade9b6eec5752ab
99ca7c5b311084cf5ade9b6eec5752ab
99ca7c5b311084cf5ade9b6eec5752ab
99ca7c5b311084cf5ade9b6eec5752ab
99ca7c5b311084cf5ade9b6eec5752ab
99ca7c5b311084cf5ade9b6eec5752ab
99ca7c5b311084cf5ade9b6eec5752ab
99ca7c5b311084cf5ade9b6eec5752ab
99ca7c5b311084cf5ade9b6eec5752ab
99ca7c5b311084cf5ade9b6eec5752ab
99ca7c5b311084cf5ade9b6eec5752ab
99ca7c5b311084cf5ade9b6eec5752ab
99ca7c5b311084cf5ade9b6eec5752ab
99ca7c5b311084cf5ade9b6eec5752ab
99ca7c5b311084cf5ade9b6eec5752ab
99ca7c5b311084cf5ade9b6eec5752ab
99ca7c5b311084cf5ade9b6eec5752ab
99ca7c5b311084cf5ade9b6eec5752ab
99ca7c5b311084cf5ade9b6eec5752ab
99ca7c5b311084cf5ade9b6eec5752ab
99ca7c5b311084cf5ade9b6eec5752ab
99ca7c5b311084cf5ade9b6eec5752ab
99ca7c5b311084cf5ade9b6eec5752ab
99ca7c5b311084cf5ade9b6eec5752ab
99ca7c5b311084cf5ade9b6eec5752ab
99ca7c5b311084cf5ade9b6eec5752ab
99ca7c5b311084cf5ade9b6eec5752ab
99ca7c5b311084cf5ade9b6eec5752ab
99ca7c5b311084cf5ade9b6eec5752ab
99ca7c5b311084cf5ade9b6eec5752ab
99ca7c5b311084cf5ade9b6eec5752ab
99ca7c5b311084cf5ade9b6eec5752ab
99ca7c5b311084cf5ade9b6eec5752ab
99ca7c5b311084cf5ade9b6eec5752ab
99ca7c5b311084cf5ade9b6eec5752ab
99ca7c5b311084cf5ade9b6eec5752ab
99ca7c5b311084cf5ade9b6eec5752ab
99ca7c5b311084cf5ade9b6eec5752ab
99ca7c5b311084cf5ade9b6eec5752ab
99ca7c5b311084cf5ade9b6eec5752ab
99ca7c5b311084cf5ade9b6eec5752ab
99ca7c5b311084cf5ade9b6eec5752ab
99ca7c5b311084cf5ade9b6eec5752ab
99ca7c5b311084cf5ade9b6eec5752ab
99ca7c5b311084cf5ade9b6eec5752ab
99ca7c5b311084cf5ade9b6eec5752ab
5e01278420966b73bd3142c7877ca332
99ca7c5b311084cf5ade9b6eec5752ab
99ca7c5b311084cf5ade9b6eec5752ab
99ca7c5b311084cf5ade9b6eec5752ab
99ca7c5b311084cf5ade9b6eec5752ab
99ca7c5b311084cf5ade9b6eec5752ab
99ca7c5b311084cf5ade9b6eec5752ab
99ca7c5b311084cf5ade9b6eec5752ab
99ca7c5b311084cf5ade9b6eec5752ab
99ca7c5b311084cf5ade9b6eec5752ab
99ca7c5b311084cf5ade9b6eec5752ab
99ca7c5b311084cf5ade9b6eec5752ab
99ca7c5b311084cf5ade9b6eec5752ab
99ca7c5b311084cf5ade9b6eec5752ab
5e01278420966b73bd3142c7877ca332
99ca7c5b311084cf5ade9b6eec5752ab
99ca7c5b311084cf5ade9b6eec5752ab
99ca7c5b311084cf5ade9b6eec5752ab
99ca7c5b311084cf5ade9b6eec5752ab
99ca7c5b311084cf5ade9b6eec5752ab
99ca7c5b311084cf5ade9b6eec5752ab
99ca7c5b311084cf5ade9b6eec5752ab
99ca7c5b311084cf5ade9b6eec5752ab
99ca7c5b311084cf5ade9b6eec5752ab
99ca7c5b311084cf5ade9b6eec5752ab
99ca7c5b311084cf5ade9b6eec5752ab
99ca7c5b311084cf5ade9b6eec5752ab
99ca7c5b311084cf5ade9b6eec5752ab
99ca7c5b311084cf5ade9b6eec5752ab
99ca7c5b311084cf5ade9b6eec5752ab
99ca7c5b311084cf5ade9b6eec5752ab
99ca7c5b311084cf5ade9b6eec5752ab
99ca7c5b311084cf5ade9b6eec5752ab
99ca7c5b311084cf5ade9b6eec5752ab
99ca7c5b311084cf5ade9b6eec5752ab
99ca7c5b311084cf5ade9b6eec5752ab
99ca7c5b311084cf5ade9b6eec5752ab
99ca7c5b311084cf5ade9b6eec5752ab
99ca7c5b311084cf5ade9b6eec5752ab
99ca7c5b311084cf5ade9b6eec5752ab
58650fa6b9693bc90b2a42129c5e98f1
f84a1b42e4b9dd3c15271311f7ffe3f7
f84a1b42e4b9dd3c15271311f7ffe3f7
f84a1b42e4b9dd3c15271311f7ffe3f7
f84a1b42e4b9dd3c15271311f7ffe3f7
f84a1b42e4b9dd3c15271311f7ffe3f7
f84a1b42e4b9dd3c15271311f7ffe3f7
f84a1b42e4b9dd3c15271311f7ffe3f7
f84a1b42e4b9dd3c15271311f7ffe3f7
f84a1b42e4b9dd3c15271311f7ffe3f7
f84a1b42e4b9dd3c15271311f7ffe3f7
f84a1b42e4b9dd3c15271311f7ffe3f7
f84a1b42e4b9dd3c15271311f7ffe3f7
f84a1b42e4b9dd3c15271311f7ffe3f7
f84a1b42e4b9dd3c15271311f7ffe3f7
f84a1b42e4b9dd3c15271311f7ffe3f7
f84a1b42e4b9dd3c15271311f7ffe3f7
f84a1b42e4b9dd3c15271311f7ffe3f7
5e01278420966b73bd3142c7877ca332
99ca7c5b311084cf5ade9b6eec5752ab
58650fa6b9693bc90b2a42129c5e98f1
f84a1b42e4b9dd3c15271311f7ffe3f7
f84a1b42e4b9dd3c15271311f7ffe3f7
f84a1b42e4b9dd3c15271311f7ffe3f7
f84a1b42e4b9dd3c15271311f7ffe3f7
f84a1b42e4b9dd3c15271311f7ffe3f7
58650fa6b9693bc90b2a42129c5e98f1
f84a1b42e4b9dd3c15271311f7ffe3f7
f84a1b42e4b9dd3c15271311f7ffe3f7
f84a1b42e4b9dd3c15271311f7ffe3f7
f84a1b42e4b9dd3c15271311f7ffe3f7
f84a1b42e4b9dd3c15271311f7ffe3f7
f84a1b42e4b9dd3c15271311f7ffe3f7
f84a1b42e4b9dd3c15271311f7ffe3f7
f84a1b42e4b9dd3c15271311f7ffe3f7
f84a1b42e4b9dd3c15271311f7ffe3f7
f84a1b42e4b9dd3c15271311f7ffe3f7
f84a1b42e4b9dd3c15271311f7ffe3f7
f84a1b42e4b9dd3c15271311f7ffe3f7
f84a1b42e4b9dd3c15271311f7ffe3f7
f84a1b42e4b9dd3c15271311f7ffe3f7
f84a1b42e4b9dd3c15271311f7ffe3f7
f84a1b42e4b9dd3c15271311f7ffe3f7
f84a1b42e4b9dd3c15271311f7ffe3f7
f84a1b42e4b9dd3c15271311f7ffe3f7
f84a1b42e4b9dd3c15271311f7ffe3f7
f84a1b42e4b9dd3c15271311f7ffe3f7
f84a1b42e4b9dd3c15271311f7ffe3f7
f84a1b42e4b9dd3c15271311f7ffe3f7
f84a1b42e4b9dd3c15271311f7ffe3f7
f84a1b42e4b9dd3c15271311f7ffe3f7
58650fa6b9693bc90b2a42129c5e98f1
f84a1b42e4b9dd3c15271311f7ffe3f7
f84a1b42e4b9dd3c15271311f7ffe3f7
f84a1b42e4b9dd3c15271311f7ffe3f7
f84a1b42e4b9dd3c15271311f7ffe3f7
f84a1b42e4b9dd3c15271311f7ffe3f7
f84a1b42e4b9dd3c15271311f7ffe3f7
f84a1b42e4b9dd3c15271311f7ffe3f7
f84a1b42e4b9dd3c15271311f7ffe3f7
f84a1b42e4b9dd3c15271311f7ffe3f7
f84a1b42e4b9dd3c15271311f7ffe3f7
f84a1b42e4b9dd3c15271311f7ffe3f7
f84a1b42e4b9dd3c15271311f7ffe3f7
f84a1b42e4b9dd3c15271311f7ffe3f7
f84a1b42e4b9dd3c15271311f7ffe3f7
f84a1b42e4b9dd3c15271311f7ffe3f7
f84a1b42e4b9dd3c15271311f7ffe3f7
f84a1b42e4b9dd3c15271311f7ffe3f7
f84a1b42e4b9dd3c15271311f7ffe3f7
f84a1b42e4b9dd3c15271311f7ffe3f7
f84a1b42e4b9dd3c15271311f7ffe3f7
f84a1b42e4b9dd3c15271311f7ffe3f7
f84a1b42e4b9dd3c15271311f7ffe3f7
f84a1b42e4b9dd3c15271311f7ffe3f7
f84a1b42e4b9dd3c15271311f7ffe3f7
f84a1b42e4b9dd3c15271311f7ffe3f7
f84a1b42e4b9dd3c15271311f7ffe3f7
f84a1b42e4b9dd3c15271311f7ffe3f7
f84a1b42e4b9dd3c15271311f7ffe3f7
f84a1b42e4b9dd3c15271311f7ffe3f7
5e01278420966b73bd3142c7877ca332
99ca7c5b311084cf5ade9b6eec5752ab
99ca7c5b311084cf5ade9b6eec5752ab
99ca7c5b311084cf5ade9b6eec5752ab
99ca7c5b311084cf5ade9b6eec5752ab
99ca7c5b311084cf5ade9b6eec5752ab
99ca7c5b311084cf5ade9b6eec5752ab
58650fa6b9693bc90b2a42129c5e98f1
f84a1b42e4b9dd3c15271311f7ffe3f7
f84a1b42e4b9dd3c15271311f7ffe3f7
f84a1b42e4b9dd3c15271311f7ffe3f7
f84a1b42e4b9dd3c15271311f7ffe3f7
f84a1b42e4b9dd3c15271311f7ffe3f7
f84a1b42e4b9dd3c15271311f7ffe3f7
f84a1b42e4b9dd3c15271311f7ffe3f7
f84a1b42e4b9dd3c15271311f7ffe3f7
f84a1b42e4b9dd3c15271311f7ffe3f7
f84a1b42e4b9dd3c15271311f7ffe3f7
5e01278420966b73bd3142c7877ca332
99ca7c5b311084cf5ade9b6eec5752ab
99ca7c5b311084cf5ade9b6eec5752ab
99ca7c5b311084cf5ade9b6eec5752ab
99ca7c5b311084cf5ade9b6eec5752ab
99ca7c5b311084cf5ade9b6eec5752ab
99ca7c5b311084cf5ade9b6eec5752ab
99ca7c5b311084cf5ade9b6eec5752ab
99ca7c5b311084cf5ade9b6eec5752ab
99ca7c5b311084cf5ade9b6eec5752ab
99ca7c5b311084cf5ade9b6eec5752ab
99ca7c5b311084cf5ade9b6eec5752ab
99ca7c5b311084cf5ade9b6eec5752ab
99ca7c5b311084cf5ade9b6eec5752ab
99ca7c5b311084cf5ade9b6eec5752ab
99ca7c5b311084cf5ade9b6eec5752ab
99ca7c5b311084cf5ade9b6eec5752ab
99ca7c5b311084cf5ade9b6eec5752ab
99ca7c5b311084cf5ade9b6eec5752ab
5e01278420966b73bd3142c7877ca332
99ca7c5b311084cf5ade9b6eec5752ab
99ca7c5b311084cf5ade9b6eec5752ab
99ca7c5b311084cf5ade9b6eec5752ab
99ca7c5b311084cf5ade9b6eec5752ab
99ca7c5b311084cf5ade9b6eec5752ab
99ca7c5b311084cf5ade9b6eec5752ab
99ca7c5b311084cf5ade9b6eec5752ab
99ca7c5b311084cf5ade9b6eec5752ab
99ca7c5b311084cf5ade9b6eec5752ab
99ca7c5b311084cf5ade9b6eec5752ab
99ca7c5b311084cf5ade9b6eec5752ab
99ca7c5b311084cf5ade9b6eec5752ab
99ca7c5b311084cf5ade9b6eec5752ab
99ca7c5b311084cf5ade9b6eec5752ab
99ca7c5b311084cf5ade9b6eec5752ab
99ca7c5b311084cf5ade9b6eec5752ab
99ca7c5b311084cf5ade9b6eec5752ab
99ca7c5b311084cf5ade9b6eec5752ab
99ca7c5b311084cf5ade9b6eec5752ab
99ca7c5b311084cf5ade9b6eec5752ab
99ca7c5b311084cf5ade9b6eec5752ab
99ca7c5b311084cf5ade9b6eec5752ab
99ca7c5b311084cf5ade9b6eec5752ab
99ca7c5b311084cf5ade9b6eec5752ab
99ca7c5b311084cf5ade9b6eec5752ab
99ca7c5b311084cf5ade9b6eec5752ab
99ca7c5b311084cf5ade9b6eec5752ab
99ca7c5b311084cf5ade9b6eec5752ab
99ca7c5b311084cf5ade9b6eec5752ab
99ca7c5b311084cf5ade9b6eec5752ab
99ca7c5b311084cf5ade9b6eec5752ab
99ca7c5b311084cf5ade9b6eec5752ab
99ca7c5b311084cf5ade9b6eec5752ab
99ca7c5b311084cf5ade9b6eec5752ab
99ca7c5b311084cf5ade9b6eec5752ab
99ca7c5b311084cf5ade9b6eec5752ab
99ca7c5b311084cf5ade9b6eec5752ab
99ca7c5b311084cf5ade9b6eec5752ab
99ca7c5b311084cf5ade9b6eec5752ab
99ca7c5b311084cf5ade9b6eec5752ab
99ca7c5b311084cf5ade9b6eec5752ab
99ca7c5b311084cf5ade9b6eec5752ab
99ca7c5b311084cf5ade9b6eec5752ab
5e01278420966b73bd3142c7877ca332
99ca7c5b311084cf5ade9b6eec5752ab
99ca7c5b311084cf5ade9b6eec5752ab
99ca7c5b311084cf5ade9b6eec5752ab
99ca7c5b311084cf5ade9b6eec5752ab
99ca7c5b311084cf5ade9b6eec5752ab
99ca7c5b311084cf5ade9b6eec5752ab
99ca7c5b311084cf5ade9b6eec5752ab
99ca7c5b311084cf5ade9b6eec5752ab
99ca7c5b311084cf5ade9b6eec5752ab
99ca7c5b311084cf5ade9b6eec5752ab
99ca7c5b311084cf5ade9b6eec5752ab
99ca7c5b311084cf5ade9b6eec5752ab
99ca7c5b311084cf5ade9b6eec5752ab
99ca7c5b311084cf5ade9b6eec5752ab
99ca7c5b311084cf5ade9b6eec5752ab
5e01278420966b73bd3142c7877ca332
99ca7c5b311084cf5ade9b6eec5752ab
99ca7c5b311084cf5ade9b6eec5752ab
99ca7c5b311084cf5ade9b6eec5752ab
99ca7c5b311084cf5ade9b6eec5752ab
99ca7c5b311084cf5ade9b6eec5752ab
99ca7c5b311084cf5ade9b6eec5752ab
99ca7c5b311084cf5ade9b6eec5752ab
99ca7c5b311084cf5ade9b6eec5752ab
99ca7c5b311084cf5ade9b6eec5752ab
99ca7c5b311084cf5ade9b6eec5752ab
5e01278420966b73bd3142c7877ca332
99ca7c5b311084cf5ade9b6eec5752ab
99ca7c5b311084cf5ade9b6eec5752ab
58650fa6b9693bc90b2a42129c5e98f1
f84a1b42e4b9dd3c15271311f7ffe3f7
f84a1b42e4b9dd3c15271311f7ffe3f7
f84a1b42e4b9dd3c15271311f7ffe3f7
f84a1b42e4b9dd3c15271311f7ffe3f7
f84a1b42e4b9dd3c15271311f7ffe3f7
f84a1b42e4b9dd3c15271311f7ffe3f7
5e01278420966b73bd3142c7877ca332
99ca7c5b311084cf5ade9b6eec5752ab
5e01278420966b73bd3142c7877ca332
99ca7c5b311084cf5ade9b6eec5752ab
99ca7c5b311084cf5ade9b6eec5752ab
99ca7c5b311084cf5ade9b6eec5752ab
99ca7c5b311084cf5ade9b6eec5752ab
99ca7c5b311084cf5ade9b6eec5752ab
99ca7c5b311084cf5ade9b6eec5752ab
99ca7c5b311084cf5ade9b6eec5752ab
99ca7c5b311084cf5ade9b6eec5752ab
99ca7c5b311084cf5ade9b6eec5752ab
99ca7c5b311084cf5ade9b6eec5752ab
99ca7c5b311084cf5ade9b6eec5752ab
99ca7c5b311084cf5ade9b6eec5752ab
99ca7c5b311084cf5ade9b6eec5752ab
99ca7c5b311084cf5ade9b6eec5752ab
99ca7c5b311084cf5ade9b6eec5752ab
99ca7c5b311084cf5ade9b6eec5752ab
99ca7c5b311084cf5ade9b6eec5752ab
99ca7c5b311084cf5ade9b6eec5752ab
99ca7c5b311084cf5ade9b6eec5752ab
99ca7c5b311084cf5ade9b6eec5752ab
99ca7c5b311084cf5ade9b6eec5752ab
99ca7c5b311084cf5ade9b6eec5752ab
99ca7c5b311084cf5ade9b6eec5752ab
99ca7c5b311084cf5ade9b6eec5752ab
99ca7c5b311084cf5ade9b6eec5752ab
99ca7c5b311084cf5ade9b6eec5752ab
99ca7c5b311084cf5ade9b6eec5752ab
99ca7c5b311084cf5ade9b6eec5752ab
99ca7c5b311084cf5ade9b6eec5752ab
99ca7c5b311084cf5ade9b6eec5752ab
99ca7c5b311084cf5ade9b6eec5752ab
99ca7c5b311084cf5ade9b6eec5752ab
99ca7c5b311084cf5ade9b6eec5752ab
99ca7c5b311084cf5ade9b6eec5752ab
99ca7c5b311084cf5ade9b6eec5752ab
99ca7c5b311084cf5ade9b6eec5752ab
99ca7c5b311084cf5ade9b6eec5752ab
99ca7c5b311084cf5ade9b6eec5752ab
5e01278420966b73bd3142c7877ca332
99ca7c5b311084cf5ade9b6eec5752ab
99ca7c5b311084cf5ade9b6eec5752ab
99ca7c5b311084cf5ade9b6eec5752ab
99ca7c5b311084cf5ade9b6eec5752ab
99ca7c5b311084cf5ade9b6eec5752ab
99ca7c5b311084cf5ade9b6eec5752ab
99ca7c5b311084cf5ade9b6eec5752ab
99ca7c5b311084cf5ade9b6eec5752ab
99ca7c5b311084cf5ade9b6eec5752ab
99ca7c5b311084cf5ade9b6eec5752ab
99ca7c5b311084cf5ade9b6eec5752ab
99ca7c5b311084cf5ade9b6eec5752ab
99ca7c5b311084cf5ade9b6eec5752ab
99ca7c5b311084cf5ade9b6eec5752ab
99ca7c5b311084cf5ade9b6eec5752ab
99ca7c5b311084cf5ade9b6eec5752ab
99ca7c5b311084cf5ade9b6eec5752ab
99ca7c5b311084cf5ade9b6eec5752ab
99ca7c5b311084cf5ade9b6eec5752ab
99ca7c5b311084cf5ade9b6eec5752ab
99ca7c5b311084cf5ade9b6eec5752ab
99ca7c5b311084cf5ade9b6eec5752ab
99ca7c5b311084cf5ade9b6eec5752ab
99ca7c5b311084cf5ade9b6eec5752ab
99ca7c5b311084cf5ade9b6eec5752ab
99ca7c5b311084cf5ade9b6eec5752ab
99ca7c5b311084cf5ade9b6eec5752ab
99ca7c5b311084cf5ade9b6eec5752ab
99ca7c5b311084cf5ade9b6eec5752ab
99ca7c5b311084cf5ade9b6eec5752ab
5e01278420966b73bd3142c7877ca332
99ca7c5b311084cf5ade9b6eec5752ab
99ca7c5b311084cf5ade9b6eec5752ab
99ca7c5b311084cf5ade9b6eec5752ab
99ca7c5b311084cf5ade9b6eec5752ab
99ca7c5b311084cf5ade9b6eec5752ab
99ca7c5b311084cf5ade9b6eec5752ab
99ca7c5b311084cf5ade9b6eec5752ab
99ca7c5b311084cf5ade9b6eec5752ab
99ca7c5b311084cf5ade9b6eec5752ab
99ca7c5b311084cf5ade9b6eec5752ab
99ca7c5b311084cf5ade9b6eec5752ab
99ca7c5b311084cf5ade9b6eec5752ab
99ca7c5b311084cf5ade9b6eec5752ab
99ca7c5b311084cf5ade9b6eec5752ab
99ca7c5b311084cf5ade9b6eec5752ab
99ca7c5b311084cf5ade9b6eec5752ab
99ca7c5b311084cf5ade9b6eec5752ab
99ca7c5b311084cf5ade9b6eec5752ab
99ca7c5b311084cf5ade9b6eec5752ab
99ca7c5b311084cf5ade9b6eec5752ab
99ca7c5b311084cf5ade9b6eec5752ab
99ca7c5b311084cf5ade9b6eec5752ab
99ca7c5b311084cf5ade9b6eec5752ab
99ca7c5b311084cf5ade9b6eec5752ab
99ca7c5b311084cf5ade9b6eec5752ab
99ca7c5b311084cf5ade9b6eec5752ab
99ca7c5b311084cf5ade9b6eec5752ab
99ca7c5b311084cf5ade9b6eec5752ab
99ca7c5b311084cf5ade9b6eec5752ab
99ca7c5b311084cf5ade9b6eec5752ab
99ca7c5b311084cf5ade9b6eec5752ab
99ca7c5b311084cf5ade9b6eec5752ab
99ca7c5b311084cf5ade9b6eec5752ab
99ca7c5b311084cf5ade9b6eec5752ab
99ca7c5b311084cf5ade9b6eec5752ab
99ca7c5b311084cf5ade9b6eec5752ab
99ca7c5b311084cf5ade9b6eec5752ab
99ca7c5b311084cf5ade9b6eec5752ab
99ca7c5b311084cf5ade9b6eec5752ab
99ca7c5b311084cf5ade9b6eec5752ab
99ca7c5b311084cf5ade9b6eec5752ab
99ca7c5b311084cf5ade9b6eec5752ab
99ca7c5b311084cf5ade9b6eec5752ab
99ca7c5b311084cf5ade9b6eec5752ab
99ca7c5b311084cf5ade9b6eec5752ab
99ca7c5b311084cf5ade9b6eec5752ab
99ca7c5b311084cf5ade9b6eec5752ab
99ca7c5b311084cf5ade9b6eec5752ab
99ca7c5b311084cf5ade9b6eec5752ab
99ca7c5b311084cf5ade9b6eec5752ab
99ca7c5b311084cf5ade9b6eec5752ab
99ca7c5b311084cf5ade9b6eec5752ab
99ca7c5b311084cf5ade9b6eec5752ab
99ca7c5b311084cf5ade9b6eec5752ab
99ca7c5b311084cf5ade9b6eec5752ab
99ca7c5b311084cf5ade9b6eec5752ab
99ca7c5b311084cf5ade9b6eec5752ab
99ca7c5b311084cf5ade9b6eec5752ab
99ca7c5b311084cf5ade9b6eec5752ab
99ca7c5b311084cf5ade9b6eec5752ab
99ca7c5b311084cf5ade9b6eec5752ab
99ca7c5b311084cf5ade9b6eec5752ab
99ca7c5b311084cf5ade9b6eec5752ab
99ca7c5b311084cf5ade9b6eec5752ab
99ca7c5b311084cf5ade9b6eec5752ab
99ca7c5b311084cf5ade9b6eec5752ab
99ca7c5b311084cf5ade9b6eec5752ab
99ca7c5b311084cf5ade9b6eec5752ab
5e01278420966b73bd3142c7877ca332
99ca7c5b311084cf5ade9b6eec5752ab
99ca7c5b311084cf5ade9b6eec5752ab
99ca7c5b311084cf5ade9b6eec5752ab
99ca7c5b311084cf5ade9b6eec5752ab
99ca7c5b311084cf5ade9b6eec5752ab
99ca7c5b311084cf5ade9b6eec5752ab
99ca7c5b311084cf5ade9b6eec5752ab
99ca7c5b311084cf5ade9b6eec5752ab
99ca7c5b311084cf5ade9b6eec5752ab
99ca7c5b311084cf5ade9b6eec5752ab
99ca7c5b311084cf5ade9b6eec5752ab
99ca7c5b311084cf5ade9b6eec5752ab
99ca7c5b311084cf5ade9b6eec5752ab
99ca7c5b311084cf5ade9b6eec5752ab
5e01278420966b73bd3142c7877ca332
99ca7c5b311084cf5ade9b6eec5752ab
99ca7c5b311084cf5ade9b6eec5752ab
99ca7c5b311084cf5ade9b6eec5752ab
99ca7c5b311084cf5ade9b6eec5752ab
99ca7c5b311084cf5ade9b6eec5752ab
99ca7c5b311084cf5ade9b6eec5752ab
99ca7c5b311084cf5ade9b6eec5752ab
99ca7c5b311084cf5ade9b6eec5752ab
99ca7c5b311084cf5ade9b6eec5752ab
99ca7c5b311084cf5ade9b6eec5752ab
99ca7c5b311084cf5ade9b6eec5752ab
99ca7c5b311084cf5ade9b6eec5752ab
99ca7c5b311084cf5ade9b6eec5752ab
5e01278420966b73bd3142c7877ca332
99ca7c5b311084cf5ade9b6eec5752ab
99ca7c5b311084cf5ade9b6eec5752ab
99ca7c5b311084cf5ade9b6eec5752ab
99ca7c5b311084cf5ade9b6eec5752ab
99ca7c5b311084cf5ade9b6eec5752ab
99ca7c5b311084cf5ade9b6eec5752ab
99ca7c5b311084cf5ade9b6eec5752ab
99ca7c5b311084cf5ade9b6eec5752ab
99ca7c5b311084cf5ade9b6eec5752ab
99ca7c5b311084cf5ade9b6eec5752ab
99ca7c5b311084cf5ade9b6eec5752ab
99ca7c5b311084cf5ade9b6eec5752ab
99ca7c5b311084cf5ade9b6eec5752ab
99ca7c5b311084cf5ade9b6eec5752ab
99ca7c5b311084cf5ade9b6eec5752ab
99ca7c5b311084cf5ade9b6eec5752ab
99ca7c5b311084cf5ade9b6eec5752ab
99ca7c5b311084cf5ade9b6eec5752ab
99ca7c5b311084cf5ade9b6eec5752ab
99ca7c5b311084cf5ade9b6eec5752ab
99ca7c5b311084cf5ade9b6eec5752ab
99ca7c5b311084cf5ade9b6eec5752ab
99ca7c5b311084cf5ade9b6eec5752ab
99ca7c5b311084cf5ade9b6eec5752ab
99ca7c5b311084cf5ade9b6eec5752ab
99ca7c5b311084cf5ade9b6eec5752ab
99ca7c5b311084cf5ade9b6eec5752ab
99ca7c5b311084cf5ade9b6eec5752ab
99ca7c5b311084cf5ade9b6eec5752ab
99ca7c5b311084cf5ade9b6eec5752ab
99ca7c5b311084cf5ade9b6eec5752ab
99ca7c5b311084cf5ade9b6eec5752ab
99ca7c5b311084cf5ade9b6eec5752ab
99ca7c5b311084cf5ade9b6eec5752ab
99ca7c5b311084cf5ade9b6eec5752ab
99ca7c5b311084cf5ade9b6eec5752ab
99ca7c5b311084cf5ade9b6eec5752ab
99ca7c5b311084cf5ade9b6eec5752ab
99ca7c5b311084cf5ade9b6eec5752ab
99ca7c5b311084cf5ade9b6eec5752ab
99ca7c5b311084cf5ade9b6eec5752ab
99ca7c5b311084cf5ade9b6eec5752ab
99ca7c5b311084cf5ade9b6eec5752ab
99ca7c5b311084cf5ade9b6eec5752ab
99ca7c5b311084cf5ade9b6eec5752ab
99ca7c5b311084cf5ade9b6eec5752ab
99ca7c5b311084cf5ade9b6eec5752ab
99ca7c5b311084cf5ade9b6eec5752ab
99ca7c5b311084cf5ade9b6eec5752ab
99ca7c5b311084cf5ade9b6eec5752ab
99ca7c5b311084cf5ade9b6eec5752ab
99ca7c5b311084cf5ade9b6eec5752ab
99ca7c5b311084cf5ade9b6eec5752ab
99ca7c5b311084cf5ade9b6eec5752ab
99ca7c5b311084cf5ade9b6eec5752ab
99ca7c5b311084cf5ade9b6eec5752ab
99ca7c5b311084cf5ade9b6eec5752ab
99ca7c5b311084cf5ade9b6eec5752ab
99ca7c5b311084cf5ade9b6eec5752ab
99ca7c5b311084cf5ade9b6eec5752ab
99ca7c5b311084cf5ade9b6eec5752ab
99ca7c5b311084cf5ade9b6eec5752ab
99ca7c5b311084cf5ade9b6eec5752ab
99ca7c5b311084cf5ade9b6eec5752ab
99ca7c5b311084cf5ade9b6eec5752ab
99ca7c5b311084cf5ade9b6eec5752ab
99ca7c5b311084cf5ade9b6eec5752ab
5e01278420966b73bd3142c7877ca332
99ca7c5b311084cf5ade9b6eec5752ab
99ca7c5b311084cf5ade9b6eec5752ab
99ca7c5b311084cf5ade9b6eec5752ab
99ca7c5b311084cf5ade9b6eec5752ab
99ca7c5b311084cf5ade9b6eec5752ab
99ca7c5b311084cf5ade9b6eec5752ab
5e01278420966b73bd3142c7877ca332
99ca7c5b311084cf5ade9b6eec5752ab
99ca7c5b311084cf5ade9b6eec5752ab
99ca7c5b311084cf5ade9b6eec5752ab
99ca7c5b311084cf5ade9b6eec5752ab
99ca7c5b311084cf5ade9b6eec5752ab
99ca7c5b311084cf5ade9b6eec5752ab
99ca7c5b311084cf5ade9b6eec5752ab
99ca7c5b311084cf5ade9b6eec5752ab
99ca7c5b311084cf5ade9b6eec5752ab
99ca7c5b311084cf5ade9b6eec5752ab
99ca7c5b311084cf5ade9b6eec5752ab
5e01278420966b73bd3142c7877ca332
99ca7c5b311084cf5ade9b6eec5752ab
99ca7c5b311084cf5ade9b6eec5752ab
99ca7c5b311084cf5ade9b6eec5752ab
99ca7c5b311084cf5ade9b6eec5752ab
99ca7c5b311084cf5ade9b6eec5752ab
99ca7c5b311084cf5ade9b6eec5752ab
99ca7c5b311084cf5ade9b6eec5752ab
5e01278420966b73bd3142c7877ca332
99ca7c5b311084cf5ade9b6eec5752ab
99ca7c5b311084cf5ade9b6eec5752ab
99ca7c5b311084cf5ade9b6eec5752ab
99ca7c5b311084cf5ade9b6eec5752ab
99ca7c5b311084cf5ade9b6eec5752ab
99ca7c5b311084cf5ade9b6eec5752ab
99ca7c5b311084cf5ade9b6eec5752ab
99ca7c5b311084cf5ade9b6eec5752ab
99ca7c5b311084cf5ade9b6eec5752ab
99ca7c5b311084cf5ade9b6eec5752ab
99ca7c5b311084cf5ade9b6eec5752ab
99ca7c5b311084cf5ade9b6eec5752ab
99ca7c5b311084cf5ade9b6eec5752ab
99ca7c5b311084cf5ade9b6eec5752ab
99ca7c5b311084cf5ade9b6eec5752ab
99ca7c5b311084cf5ade9b6eec5752ab
99ca7c5b311084cf5ade9b6eec5752ab
99ca7c5b311084cf5ade9b6eec5752ab
99ca7c5b311084cf5ade9b6eec5752ab
99ca7c5b311084cf5ade9b6eec5752ab
99ca7c5b311084cf5ade9b6eec5752ab
99ca7c5b311084cf5ade9b6eec5752ab
99ca7c5b311084cf5ade9b6eec5752ab
99ca7c5b311084cf5ade9b6eec5752ab
99ca7c5b311084cf5ade9b6eec5752ab
99ca7c5b311084cf5ade9b6eec5752ab
99ca7c5b311084cf5ade9b6eec5752ab
99ca7c5b311084cf5ade9b6eec5752ab
99ca7c5b311084cf5ade9b6eec5752ab
99ca7c5b311084cf5ade9b6eec5752ab
99ca7c5b311084cf5ade9b6eec5752ab
99ca7c5b311084cf5ade9b6eec5752ab
99ca7c5b311084cf5ade9b6eec5752ab
99ca7c5b311084cf5ade9b6eec5752ab
99ca7c5b311084cf5ade9b6eec5752ab
99ca7c5b311084cf5ade9b6eec5752ab
99ca7c5b311084cf5ade9b6eec5752ab
99ca7c5b311084cf5ade9b6eec5752ab
99ca7c5b311084cf5ade9b6eec5752ab
99ca7c5b311084cf5ade9b6eec5752ab
99ca7c5b311084cf5ade9b6eec5752ab
99ca7c5b311084cf5ade9b6eec5752ab
99ca7c5b311084cf5ade9b6eec5752ab
99ca7c5b311084cf5ade9b6eec5752ab
99ca7c5b311084cf5ade9b6eec5752ab
99ca7c5b311084cf5ade9b6eec5752ab
99ca7c5b311084cf5ade9b6eec5752ab
99ca7c5b311084cf5ade9b6eec5752ab
99ca7c5b311084cf5ade9b6eec5752ab
99ca7c5b311084cf5ade9b6eec5752ab
5e01278420966b73bd3142c7877ca332
99ca7c5b311084cf5ade9b6eec5752ab
99ca7c5b311084cf5ade9b6eec5752ab
1665515d74e08e51843146780b8bbfdc
e0f68dfff209b24d659cd855da4f1072
e0f68dfff209b24d659cd855da4f1072
e0f68dfff209b24d659cd855da4f1072
e0f68dfff209b24d659cd855da4f1072
e0f68dfff209b24d659cd855da4f1072
e0f68dfff209b24d659cd855da4f1072
e0f68dfff209b24d659cd855da4f1072
e0f68dfff209b24d659cd855da4f1072
e0f68dfff209b24d659cd855da4f1072
e0f68dfff209b24d659cd855da4f1072
e0f68dfff209b24d659cd855da4f1072
e0f68dfff209b24d659cd855da4f1072
e0f68dfff209b24d659cd855da4f1072
e0f68dfff209b24d659cd855da4f1072
e0f68dfff209b24d659cd855da4f1072
e0f68dfff209b24d659cd855da4f1072
e0f68dfff209b24d659cd855da4f1072
e0f68dfff209b24d659cd855da4f1072
5e01278420966b73bd3142c7877ca332
99ca7c5b311084cf5ade9b6eec5752ab
99ca7c5b311084cf5ade9b6eec5752ab
99ca7c5b311084cf5ade9b6eec5752ab
99ca7c5b311084cf5ade9b6eec5752ab
99ca7c5b311084cf5ade9b6eec5752ab
99ca7c5b311084cf5ade9b6eec5752ab
99ca7c5b311084cf5ade9b6eec5752ab
99ca7c5b311084cf5ade9b6eec5752ab
99ca7c5b311084cf5ade9b6eec5752ab
99ca7c5b311084cf5ade9b6eec5752ab
99ca7c5b311084cf5ade9b6eec5752ab
99ca7c5b311084cf5ade9b6eec5752ab
99ca7c5b311084cf5ade9b6eec5752ab
99ca7c5b311084cf5ade9b6eec5752ab
99ca7c5b311084cf5ade9b6eec5752ab
99ca7c5b311084cf5ade9b6eec5752ab
99ca7c5b311084cf5ade9b6eec5752ab
99ca7c5b311084cf5ade9b6eec5752ab
99ca7c5b311084cf5ade9b6eec5752ab
99ca7c5b311084cf5ade9b6eec5752ab
99ca7c5b311084cf5ade9b6eec5752ab
99ca7c5b311084cf5ade9b6eec5752ab
99ca7c5b311084cf5ade9b6eec5752ab
99ca7c5b311084cf5ade9b6eec5752ab
99ca7c5b311084cf5ade9b6eec5752ab
99ca7c5b311084cf5ade9b6eec5752ab
5e01278420966b73bd3142c7877ca332
99ca7c5b311084cf5ade9b6eec5752ab
99ca7c5b311084cf5ade9b6eec5752ab
99ca7c5b311084cf5ade9b6eec5752ab
99ca7c5b311084cf5ade9b6eec5752ab
99ca7c5b311084cf5ade9b6eec5752ab
99ca7c5b311084cf5ade9b6eec5752ab
99ca7c5b311084cf5ade9b6eec5752ab
99ca7c5b311084cf5ade9b6eec5752ab
99ca7c5b311084cf5ade9b6eec5752ab
99ca7c5b311084cf5ade9b6eec5752ab
99ca7c5b311084cf5ade9b6eec5752ab
99ca7c5b311084cf5ade9b6eec5752ab
99ca7c5b311084cf5ade9b6eec5752ab
99ca7c5b311084cf5ade9b6eec5752ab
99ca7c5b311084cf5ade9b6eec5752ab
99ca7c5b311084cf5ade9b6eec5752ab
99ca7c5b311084cf5ade9b6eec5752ab
99ca7c5b311084cf5ade9b6eec5752ab
99ca7c5b311084cf5ade9b6eec5752ab
99ca7c5b311084cf5ade9b6eec5752ab
99ca7c5b311084cf5ade9b6eec5752ab
99ca7c5b311084cf5ade9b6eec5752ab
99ca7c5b311084cf5ade9b6eec5752ab
99ca7c5b311084cf5ade9b6eec5752ab
99ca7c5b311084cf5ade9b6eec5752ab
99ca7c5b311084cf5ade9b6eec5752ab
99ca7c5b311084cf5ade9b6eec5752ab
99ca7c5b311084cf5ade9b6eec5752ab
99ca7c5b311084cf5ade9b6eec5752ab
99ca7c5b311084cf5ade9b6eec5752ab
99ca7c5b311084cf5ade9b6eec5752ab
99ca7c5b311084cf5ade9b6eec5752ab
99ca7c5b311084cf5ade9b6eec5752ab
99ca7c5b311084cf5ade9b6eec5752ab
99ca7c5b311084cf5ade9b6eec5752ab
99ca7c5b311084cf5ade9b6eec5752ab
99ca7c5b311084cf5ade9b6eec5752ab
99ca7c5b311084cf5ade9b6eec5752ab
99ca7c5b311084cf5ade9b6eec5752ab
99ca7c5b311084cf5ade9b6eec5752ab
99ca7c5b311084cf5ade9b6eec5752ab
99ca7c5b311084cf5ade9b6eec5752ab
99ca7c5b311084cf5ade9b6eec5752ab
99ca7c5b311084cf5ade9b6eec5752ab
99ca7c5b311084cf5ade9b6eec5752ab
99ca7c5b311084cf5ade9b6eec5752ab
99ca7c5b311084cf5ade9b6eec5752ab
99ca7c5b311084cf5ade9b6eec5752ab
99ca7c5b311084cf5ade9b6eec5752ab
99ca7c5b311084cf5ade9b6eec5752ab
99ca7c5b311084cf5ade9b6eec5752ab
99ca7c5b311084cf5ade9b6eec5752ab
99ca7c5b311084cf5ade9b6eec5752ab
99ca7c5b311084cf5ade9b6eec5752ab
99ca7c5b311084cf5ade9b6eec5752ab
99ca7c5b311084cf5ade9b6eec5752ab
99ca7c5b311084cf5ade9b6eec5752ab
99ca7c5b311084cf5ade9b6eec5752ab
99ca7c5b311084cf5ade9b6eec5752ab
99ca7c5b311084cf5ade9b6eec5752ab
99ca7c5b311084cf5ade9b6eec5752ab
99ca7c5b311084cf5ade9b6eec5752ab
99ca7c5b311084cf5ade9b6eec5752ab
99ca7c5b311084cf5ade9b6eec5752ab
99ca7c5b311084cf5ade9b6eec5752ab
99ca7c5b311084cf5ade9b6eec5752ab
99ca7c5b311084cf5ade9b6eec5752ab
99ca7c5b311084cf5ade9b6eec5752ab
99ca7c5b311084cf5ade9b6eec5752ab
99ca7c5b311084cf5ade9b6eec5752ab
99ca7c5b311084cf5ade9b6eec5752ab
99ca7c5b311084cf5ade9b6eec5752ab
99ca7c5b311084cf5ade9b6eec5752ab
99ca7c5b311084cf5ade9b6eec5752ab
99ca7c5b311084cf5ade9b6eec5752ab
99ca7c5b311084cf5ade9b6eec5752ab
99ca7c5b311084cf5ade9b6eec5752ab
99ca7c5b311084cf5ade9b6eec5752ab
99ca7c5b311084cf5ade9b6eec5752ab
99ca7c5b311084cf5ade9b6eec5752ab
99ca7c5b311084cf5ade9b6eec5752ab
99ca7c5b311084cf5ade9b6eec5752ab
99ca7c5b311084cf5ade9b6eec5752ab
99ca7c5b311084cf5ade9b6eec5752ab
99ca7c5b311084cf5ade9b6eec5752ab
99ca7c5b311084cf5ade9b6eec5752ab
99ca7c5b311084cf5ade9b6eec5752ab
99ca7c5b311084cf5ade9b6eec5752ab
99ca7c5b311084cf5ade9b6eec5752ab
99ca7c5b311084cf5ade9b6eec5752ab
99ca7c5b311084cf5ade9b6eec5752ab
99ca7c5b311084cf5ade9b6eec5752ab
99ca7c5b311084cf5ade9b6eec5752ab
99ca7c5b311084cf5ade9b6eec5752ab
99ca7c5b311084cf5ade9b6eec5752ab
99ca7c5b311084cf5ade9b6eec5752ab
99ca7c5b311084cf5ade9b6eec5752ab
99ca7c5b311084cf5ade9b6eec5752ab
99ca7c5b311084cf5ade9b6eec5752ab
99ca7c5b311084cf5ade9b6eec5752ab
99ca7c5b311084cf5ade9b6eec5752ab
99ca7c5b311084cf5ade9b6eec5752ab
99ca7c5b311084cf5ade9b6eec5752ab
99ca7c5b311084cf5ade9b6eec5752ab
99ca7c5b311084cf5ade9b6eec5752ab
99ca7c5b311084cf5ade9b6eec5752ab
99ca7c5b311084cf5ade9b6eec5752ab
99ca7c5b311084cf5ade9b6eec5752ab
99ca7c5b311084cf5ade9b6eec5752ab
99ca7c5b311084cf5ade9b6eec5752ab
c353342d060eb9d5b66b1e169c061551
d33151452b55bb09994e381adf3abdc9
d33151452b55bb09994e381adf3abdc9
d33151452b55bb09994e381adf3abdc9
d33151452b55bb09994e381adf3abdc9
c353342d060eb9d5b66b1e169c061551
d33151452b55bb09994e381adf3abdc9
d33151452b55bb09994e381adf3abdc9
d33151452b55bb09994e381adf3abdc9
d33151452b55bb09994e381adf3abdc9
d33151452b55bb09994e381adf3abdc9
d33151452b55bb09994e381adf3abdc9
d33151452b55bb09994e381adf3abdc9
d33151452b55bb09994e381adf3abdc9
d33151452b55bb09994e381adf3abdc9
d33151452b55bb09994e381adf3abdc9
d33151452b55bb09994e381adf3abdc9
d33151452b55bb09994e381adf3abdc9
d33151452b55bb09994e381adf3abdc9
d33151452b55bb09994e381adf3abdc9
d33151452b55bb09994e381adf3abdc9
d33151452b55bb09994e381adf3abdc9
d33151452b55bb09994e381adf3abdc9
d33151452b55bb09994e381adf3abdc9
d33151452b55bb09994e381adf3abdc9
d33151452b55bb09994e381adf3abdc9
d33151452b55bb09994e381adf3abdc9
d33151452b55bb09994e381adf3abdc9
d33151452b55bb09994e381adf3abdc9
d33151452b55bb09994e381adf3abdc9
d33151452b55bb09994e381adf3abdc9
d33151452b55bb09994e381adf3abdc9
d33151452b55bb09994e381adf3abdc9
d33151452b55bb09994e381adf3abdc9
d33151452b55bb09994e381adf3abdc9
d33151452b55bb09994e381adf3abdc9
c353342d060eb9d5b66b1e169c061551
d33151452b55bb09994e381adf3abdc9
d33151452b55bb09994e381adf3abdc9
d33151452b55bb09994e381adf3abdc9
d33151452b55bb09994e381adf3abdc9
d33151452b55bb09994e381adf3abdc9
d33151452b55bb09994e381adf3abdc9
d33151452b55bb09994e381adf3abdc9
d33151452b55bb09994e381adf3abdc9
d33151452b55bb09994e381adf3abdc9
d33151452b55bb09994e381adf3abdc9
d33151452b55bb09994e381adf3abdc9
d33151452b55bb09994e381adf3abdc9
d33151452b55bb09994e381adf3abdc9
d33151452b55bb09994e381adf3abdc9
d33151452b55bb09994e381adf3abdc9
d33151452b55bb09994e381adf3abdc9
d33151452b55bb09994e381adf3abdc9
d33151452b55bb09994e381adf3abdc9
d33151452b55bb09994e381adf3abdc9
d33151452b55bb09994e381adf3abdc9
c353342d060eb9d5b66b1e169c061551
d33151452b55bb09994e381adf3abdc9
c353342d060eb9d5b66b1e169c061551
d33151452b55bb09994e381adf3abdc9
c353342d060eb9d5b66b1e169c061551
d33151452b55bb09994e381adf3abdc9
c353342d060eb9d5b66b1e169c061551
d33151452b55bb09994e381adf3abdc9
d33151452b55bb09994e381adf3abdc9
d33151452b55bb09994e381adf3abdc9
d33151452b55bb09994e381adf3abdc9
d33151452b55bb09994e381adf3abdc9
d33151452b55bb09994e381adf3abdc9
d33151452b55bb09994e381adf3abdc9
d33151452b55bb09994e381adf3abdc9
d33151452b55bb09994e381adf3abdc9
d33151452b55bb09994e381adf3abdc9
d33151452b55bb09994e381adf3abdc9
d33151452b55bb09994e381adf3abdc9
d33151452b55bb09994e381adf3abdc9
d33151452b55bb09994e381adf3abdc9
d33151452b55bb09994e381adf3abdc9
d33151452b55bb09994e381adf3abdc9
d33151452b55bb09994e381adf3abdc9
d33151452b55bb09994e381adf3abdc9
d33151452b55bb09994e381adf3abdc9
d33151452b55bb09994e381adf3abdc9
d33151452b55bb09994e381adf3abdc9
d33151452b55bb09994e381adf3abdc9
d33151452b55bb09994e381adf3abdc9
d33151452b55bb09994e381adf3abdc9
d33151452b55bb09994e381adf3abdc9
d33151452b55bb09994e381adf3abdc9
d33151452b55bb09994e381adf3abdc9
d33151452b55bb09994e381adf3abdc9
d33151452b55bb09994e381adf3abdc9
d33151452b55bb09994e381adf3abdc9
d33151452b55bb09994e381adf3abdc9
d33151452b55bb09994e381adf3abdc9
d33151452b55bb09994e381adf3abdc9
d33151452b55bb09994e381adf3abdc9
d33151452b55bb09994e381adf3abdc9
c353342d060eb9d5b66b1e169c061551
d33151452b55bb09994e381adf3abdc9
d33151452b55bb09994e381adf3abdc9
d33151452b55bb09994e381adf3abdc9
d33151452b55bb09994e381adf3abdc9
d33151452b55bb09994e381adf3abdc9
d33151452b55bb09994e381adf3abdc9
d33151452b55bb09994e381adf3abdc9
d33151452b55bb09994e381adf3abdc9
d33151452b55bb09994e381adf3abdc9
d33151452b55bb09994e381adf3abdc9
d33151452b55bb09994e381adf3abdc9
d33151452b55bb09994e381adf3abdc9
d33151452b55bb09994e381adf3abdc9
d33151452b55bb09994e381adf3abdc9
d33151452b55bb09994e381adf3abdc9
d33151452b55bb09994e381adf3abdc9
c353342d060eb9d5b66b1e169c061551
d33151452b55bb09994e381adf3abdc9
d33151452b55bb09994e381adf3abdc9
c353342d060eb9d5b66b1e169c061551
d33151452b55bb09994e381adf3abdc9
d33151452b55bb09994e381adf3abdc9
d33151452b55bb09994e381adf3abdc9
d33151452b55bb09994e381adf3abdc9
d33151452b55bb09994e381adf3abdc9
d33151452b55bb09994e381adf3abdc9
d33151452b55bb09994e381adf3abdc9
d33151452b55bb09994e381adf3abdc9
d33151452b55bb09994e381adf3abdc9
d33151452b55bb09994e381adf3abdc9
d33151452b55bb09994e381adf3abdc9
c353342d060eb9d5b66b1e169c061551
d33151452b55bb09994e381adf3abdc9
d33151452b55bb09994e381adf3abdc9
d33151452b55bb09994e381adf3abdc9
d33151452b55bb09994e381adf3abdc9
d33151452b55bb09994e381adf3abdc9
d33151452b55bb09994e381adf3abdc9
d33151452b55bb09994e381adf3abdc9
d33151452b55bb09994e381adf3abdc9
d33151452b55bb09994e381adf3abdc9
d33151452b55bb09994e381adf3abdc9
d33151452b55bb09994e381adf3abdc9
d33151452b55bb09994e381adf3abdc9
c353342d060eb9d5b66b1e169c061551
d33151452b55bb09994e381adf3abdc9
d33151452b55bb09994e381adf3abdc9
d33151452b55bb09994e381adf3abdc9
d33151452b55bb09994e381adf3abdc9
d33151452b55bb09994e381adf3abdc9
d33151452b55bb09994e381adf3abdc9
d33151452b55bb09994e381adf3abdc9
d33151452b55bb09994e381adf3abdc9
d33151452b55bb09994e381adf3abdc9
d33151452b55bb09994e381adf3abdc9
d33151452b55bb09994e381adf3abdc9
d33151452b55bb09994e381adf3abdc9
d33151452b55bb09994e381adf3abdc9
d33151452b55bb09994e381adf3abdc9
d33151452b55bb09994e381adf3abdc9
d33151452b55bb09994e381adf3abdc9
d33151452b55bb09994e381adf3abdc9
d33151452b55bb09994e381adf3abdc9
d33151452b55bb09994e381adf3abdc9
d33151452b55bb09994e381adf3abdc9
d33151452b55bb09994e381adf3abdc9
d33151452b55bb09994e381adf3abdc9
d33151452b55bb09994e381adf3abdc9
d33151452b55bb09994e381adf3abdc9
d33151452b55bb09994e381adf3abdc9
d33151452b55bb09994e381adf3abdc9
d33151452b55bb09994e381adf3abdc9
c353342d060eb9d5b66b1e169c061551
d33151452b55bb09994e381adf3abdc9
d33151452b55bb09994e381adf3abdc9
d33151452b55bb09994e381adf3abdc9
d33151452b55bb09994e381adf3abdc9
d33151452b55bb09994e381adf3abdc9
d33151452b55bb09994e381adf3abdc9
d33151452b55bb09994e381adf3abdc9
d33151452b55bb09994e381adf3abdc9
d33151452b55bb09994e381adf3abdc9
d33151452b55bb09994e381adf3abdc9
d33151452b55bb09994e381adf3abdc9
d33151452b55bb09994e381adf3abdc9
c353342d060eb9d5b66b1e169c061551
d33151452b55bb09994e381adf3abdc9
d33151452b55bb09994e381adf3abdc9
d33151452b55bb09994e381adf3abdc9
d33151452b55bb09994e381adf3abdc9
c353342d060eb9d5b66b1e169c061551
d33151452b55bb09994e381adf3abdc9
d33151452b55bb09994e381adf3abdc9
d33151452b55bb09994e381adf3abdc9
d33151452b55bb09994e381adf3abdc9
d33151452b55bb09994e381adf3abdc9
d33151452b55bb09994e381adf3abdc9
d33151452b55bb09994e381adf3abdc9
d33151452b55bb09994e381adf3abdc9
d33151452b55bb09994e381adf3abdc9
d33151452b55bb09994e381adf3abdc9
c353342d060eb9d5b66b1e169c061551
c353342d060eb9d5b66b1e169c061551
d33151452b55bb09994e381adf3abdc9
d33151452b55bb09994e381adf3abdc9
d33151452b55bb09994e381adf3abdc9
d33151452b55bb09994e381adf3abdc9
d33151452b55bb09994e381adf3abdc9
d33151452b55bb09994e381adf3abdc9
d33151452b55bb09994e381adf3abdc9
d33151452b55bb09994e381adf3abdc9
d33151452b55bb09994e381adf3abdc9
d33151452b55bb09994e381adf3abdc9
d33151452b55bb09994e381adf3abdc9
d33151452b55bb09994e381adf3abdc9
d33151452b55bb09994e381adf3abdc9
d33151452b55bb09994e381adf3abdc9
d33151452b55bb09994e381adf3abdc9
d33151452b55bb09994e381adf3abdc9
d33151452b55bb09994e381adf3abdc9
c353342d060eb9d5b66b1e169c061551
d33151452b55bb09994e381adf3abdc9
d33151452b55bb09994e381adf3abdc9
d33151452b55bb09994e381adf3abdc9
c353342d060eb9d5b66b1e169c061551
d33151452b55bb09994e381adf3abdc9
d33151452b55bb09994e381adf3abdc9
c353342d060eb9d5b66b1e169c061551
d33151452b55bb09994e381adf3abdc9
d33151452b55bb09994e381adf3abdc9
d33151452b55bb09994e381adf3abdc9
c353342d060eb9d5b66b1e169c061551
d33151452b55bb09994e381adf3abdc9
d33151452b55bb09994e381adf3abdc9
d33151452b55bb09994e381adf3abdc9
d33151452b55bb09994e381adf3abdc9
d33151452b55bb09994e381adf3abdc9
d33151452b55bb09994e381adf3abdc9
d33151452b55bb09994e381adf3abdc9
d33151452b55bb09994e381adf3abdc9
d33151452b55bb09994e381adf3abdc9
d33151452b55bb09994e381adf3abdc9
d33151452b55bb09994e381adf3abdc9
c353342d060eb9d5b66b1e169c061551
d33151452b55bb09994e381adf3abdc9
d33151452b55bb09994e381adf3abdc9
d33151452b55bb09994e381adf3abdc9
c353342d060eb9d5b66b1e169c061551
d33151452b55bb09994e381adf3abdc9
d33151452b55bb09994e381adf3abdc9
d33151452b55bb09994e381adf3abdc9
d33151452b55bb09994e381adf3abdc9
d33151452b55bb09994e381adf3abdc9
d33151452b55bb09994e381adf3abdc9
d33151452b55bb09994e381adf3abdc9
d33151452b55bb09994e381adf3abdc9
d33151452b55bb09994e381adf3abdc9
d33151452b55bb09994e381adf3abdc9
d33151452b55bb09994e381adf3abdc9
d33151452b55bb09994e381adf3abdc9
d33151452b55bb09994e381adf3abdc9
d33151452b55bb09994e381adf3abdc9
d33151452b55bb09994e381adf3abdc9
d33151452b55bb09994e381adf3abdc9
d33151452b55bb09994e381adf3abdc9
d33151452b55bb09994e381adf3abdc9
d33151452b55bb09994e381adf3abdc9
d33151452b55bb09994e381adf3abdc9
d33151452b55bb09994e381adf3abdc9
d33151452b55bb09994e381adf3abdc9
c353342d060eb9d5b66b1e169c061551
d33151452b55bb09994e381adf3abdc9
d33151452b55bb09994e381adf3abdc9
d33151452b55bb09994e381adf3abdc9
c353342d060eb9d5b66b1e169c061551
d33151452b55bb09994e381adf3abdc9
d33151452b55bb09994e381adf3abdc9
d33151452b55bb09994e381adf3abdc9
d33151452b55bb09994e381adf3abdc9
d33151452b55bb09994e381adf3abdc9
d33151452b55bb09994e381adf3abdc9
d33151452b55bb09994e381adf3abdc9
d33151452b55bb09994e381adf3abdc9
d33151452b55bb09994e381adf3abdc9
d33151452b55bb09994e381adf3abdc9
d33151452b55bb09994e381adf3abdc9
d33151452b55bb09994e381adf3abdc9
d33151452b55bb09994e381adf3abdc9
d33151452b55bb09994e381adf3abdc9
d33151452b55bb09994e381adf3abdc9
d33151452b55bb09994e381adf3abdc9
d33151452b55bb09994e381adf3abdc9
d33151452b55bb09994e381adf3abdc9
d33151452b55bb09994e381adf3abdc9
d33151452b55bb09994e381adf3abdc9
d33151452b55bb09994e381adf3abdc9
d33151452b55bb09994e381adf3abdc9
d33151452b55bb09994e381adf3abdc9
d33151452b55bb09994e381adf3abdc9
d33151452b55bb09994e381adf3abdc9
d33151452b55bb09994e381adf3abdc9
d33151452b55bb09994e381adf3abdc9
d33151452b55bb09994e381adf3abdc9
d33151452b55bb09994e381adf3abdc9
c353342d060eb9d5b66b1e169c061551
d33151452b55bb09994e381adf3abdc9
d33151452b55bb09994e381adf3abdc9
d33151452b55bb09994e381adf3abdc9
d33151452b55bb09994e381adf3abdc9
d33151452b55bb09994e381adf3abdc9
d33151452b55bb09994e381adf3abdc9
d33151452b55bb09994e381adf3abdc9
d33151452b55bb09994e381adf3abdc9
d33151452b55bb09994e381adf3abdc9
d33151452b55bb09994e381adf3abdc9
d33151452b55bb09994e381adf3abdc9
d33151452b55bb09994e381adf3abdc9
d33151452b55bb09994e381adf3abdc9
d33151452b55bb09994e381adf3abdc9
d33151452b55bb09994e381adf3abdc9
d33151452b55bb09994e381adf3abdc9
d33151452b55bb09994e381adf3abdc9
d33151452b55bb09994e381adf3abdc9
d33151452b55bb09994e381adf3abdc9
d33151452b55bb09994e381adf3abdc9
d33151452b55bb09994e381adf3abdc9
d33151452b55bb09994e381adf3abdc9
d33151452b55bb09994e381adf3abdc9
d33151452b55bb09994e381adf3abdc9
d33151452b55bb09994e381adf3abdc9
d33151452b55bb09994e381adf3abdc9
d33151452b55bb09994e381adf3abdc9
d33151452b55bb09994e381adf3abdc9
d33151452b55bb09994e381adf3abdc9
d33151452b55bb09994e381adf3abdc9
d33151452b55bb09994e381adf3abdc9
d33151452b55bb09994e381adf3abdc9
d33151452b55bb09994e381adf3abdc9
d33151452b55bb09994e381adf3abdc9
d33151452b55bb09994e381adf3abdc9
c353342d060eb9d5b66b1e169c061551
d33151452b55bb09994e381adf3abdc9
d33151452b55bb09994e381adf3abdc9
d33151452b55bb09994e381adf3abdc9
d33151452b55bb09994e381adf3abdc9
d33151452b55bb09994e381adf3abdc9
d33151452b55bb09994e381adf3abdc9
d33151452b55bb09994e381adf3abdc9
d33151452b55bb09994e381adf3abdc9
d33151452b55bb09994e381adf3abdc9
d33151452b55bb09994e381adf3abdc9
d33151452b55bb09994e381adf3abdc9
d33151452b55bb09994e381adf3abdc9
d33151452b55bb09994e381adf3abdc9
d33151452b55bb09994e381adf3abdc9
d33151452b55bb09994e381adf3abdc9
d33151452b55bb09994e381adf3abdc9
d33151452b55bb09994e381adf3abdc9
d33151452b55bb09994e381adf3abdc9
d33151452b55bb09994e381adf3abdc9
d33151452b55bb09994e381adf3abdc9
d33151452b55bb09994e381adf3abdc9
d33151452b55bb09994e381adf3abdc9
d33151452b55bb09994e381adf3abdc9
d33151452b55bb09994e381adf3abdc9
d33151452b55bb09994e381adf3abdc9
d33151452b55bb09994e381adf3abdc9
d33151452b55bb09994e381adf3abdc9
d33151452b55bb09994e381adf3abdc9
d33151452b55bb09994e381adf3abdc9
d33151452b55bb09994e381adf3abdc9
d33151452b55bb09994e381adf3abdc9
d33151452b55bb09994e381adf3abdc9
d33151452b55bb09994e381adf3abdc9
00d33151452b55bb09994e381adf3abd
c9d33151452b55bb09994e381adf3abd
c9d33151452b55bb09994e381adf3abd
c9d33151452b55bb09994e381adf3a00
bdc9d33151452b55bb09994e381adf3a
bdc9d33151452b55bb09994e381adf3a
bdc9d33151452b55bb09994e381adf3a
bdc9c353342d060eb9d5b66b1e16009c
061551d33151452b55bb09994e381adf
3abdc9d33151452b55bb09994e381adf
3abdc9d33151452b55bb09994e381adf
3abdc9d33151452b55bb09994e00381a
df3abdc9d33151452b55bb09994e381a
df3abdc9d33151452b55bb09994e381a
df3abdc9d33151452b55bb09994e381a
df3abdc9d33151452b55bb09994e381a
df3abdc9c9d33151452b55bb09994e38
1adf3abdc9d33151452b55bb09994e38
1adf3abdc9d33151452b55bb09994e38
1adf3abdc9d33151452b55bb09994e38
1adf3abdc9d33151452b55bb09994e38
1adf3abdc9d33151452b55bb09994e38
1adf3abdc9d33151452b55bb09994e38
1adf3abdc9d33151452b55bb09994e38
1adf3abdc9d33151452b55bb09994e38
1adf3abdc9d33151452b55bb09994e38
1adf3abdc9d33151452b55bb09994e38
1adf3abdc9d33151452b55bb09994e38
1adf3abdc9d33151452b55bb09994e38
1adf3abdc9d33151452b55bb09994e38
1adf3abdc9d33151452b55bb09994e38
1adf3abdc9d33151452b55bb09994e38
1adf3abdc9d33151452b55bb09994e38
1adf3abdc9d33151452b55bb09994e38
1adf3abdc9d33151452b55bb09994e38
1adf3abdc9d33151452b55bb09994e38
1adf3abdc9d33151452b55bb09994e38
1adf3abdc9d33151452b55bb09994e38
1adf3abdc9d33151452b55bb09994e38
1adf3abdc9d33151452b55bb09994e38
1adf3abdc9d33151452b55bb09994e38
1adf3abdc9d33151452b55bb09994e38
1adf3abdc9d33151452b55bb09994e38
1adf3abdc9d33151452b55bb09994e38
1adf3abdc9d33151452b55bb09994e38
1adf3abdc9d33151452b55bb09994e38
1adf3abdc9d33151452b55bb09994e38
1adf3abdc9d33151452b55bb09994e38
1adf3abdc9d33151452b55bb09994e38
1adf3abdc9d33151452b55bb09994e38
1adf3abdc9d33151452b55bb09994e38
1adf3abdc9d33151452b55bb09994e38
1adf3abdc9d33151452b55bb09994e38
1adf3abdc9d33151452b55bb09994e38
1adf3abdc9d33151452b55bb09994e38
1adf3abdc9d33151452b55bb09994e38
1adf3abdc9d33151452b55bb09994e38
1adf3abdc9d33151452b55bb09994e38
1adf3abdc9d33151452b55bb09994e38
1adf3abdc9d33151452b55bb09994e38
1adf3abdc9d33151452b55bb09994e38
1adf3abdc9d33151452b55bb09994e38
1adf3abdc9d33151452b55bb09994e38
1adf3abdc9d33151452b55bb09994e38
1adf3abdc9d33151452b55bb09994e38
1adf3abdc9d33151452b55bb09994e38
1adf3abdc9d33151452b55bb09994e38
1adf3abdc9d33151452b55bb09994e38
1adf3abdc9d33151452b55bb09994e38
1adf3abdc9d33151452b55bb09994e38
1adf3abdc9d33151452b55bb09994e38
1adf3abdc9d33151452b55bb09994e38
1adf3abdc9d33151452b55bb09994e38
1adf3abdc9d33151452b55bb09994e38
1adf3abdc9d33151452b55bb09994e38
1adf3abdc9d33151452b55bb09994e38
1adf3abdc9d33151452b55bb09994e38
1adf3abdc9d33151452b55bb09994e38
1adf3abdc9d33151452b55bb09994e38
1adf3abdc9d33151452b55bb09994e38
1adf3abdc9d33151452b55bb09994e38
1adf3abdc9d33151452b55bb09994e38
1adf3abdc9d33151452b55bb09994e38
1adf3abdc9d33151452b55bb09994e38
1adf3abdc9d33151452b55bb09994e38
1adf3abdc9d33151452b55bb09994e38
1adf3abdc9d33151452b55bb09994e38
1adf3abdc9d33151452b55bb09994e38
1adf3abdc9d33151452b55bb09994e38
1adf3abdc9d33151452b55bb09994e38
1adf3abdc9d33151452b55bb09994e38
1adf3abdc9d33151452b55bb09994e38
1adf3abdc9d33151452b55bb09994e38
1adf3abdc9d33151452b55bb09994e38
1adf3abdc9d33151452b55bb09994e38
1adf3abdc9d33151452b55bb09994e38
1adf3abdc9d33151452b55bb09994e38
1adf3abdc9d33151452b55bb09994e38
1adf3abdc9d33151452b55bb09994e38
1adf3abdc9d33151452b55bb09994e38
1adf3abdc9d33151452b55bb09994e38
1adf3abdc9d33151452b55bb09994e38
1adf3abdc9d33151452b55bb09994e38
1adf3abdc9d33151452b55bb09994e38
1adf3abdc9d33151452b55bb09994e38
1adf3abdc9d33151452b55bb09994e38
1adf3abdc9d33151452b55bb09994e38
1adf3abdc9d33151452b55bb09994e38
1adf3abdc9d33151452b55bb09994e38
1adf3abdc9d33151452b55bb09994e38
1adf3abdc9d33151452b55bb09994e38
1adf3abdc9d33151452b55bb09994e38
1adf3abdc9d33151452b55bb09994e38
1adf3abdc9d33151452b55bb09994e38
1adf3abdc9d33151452b55bb09994e38
1adf3abdc9d33151452b55bb09994e38
1adf3abdc9d33151452b55bb09994e38
1adf3abdc9d33151452b55bb09994e38
1adf3abdc9d33151452b55bb09994e38
1adf3abdc9d33151452b55bb09994e38
1adf3abdc9d33151452b55bb09994e38
1adf3abdc9d33151452b55bb09994e38
1adf3abdc9d33151452b55bb09994e38
1adf3abdc9d33151452b55bb09994e38
1adf3abdc9d33151452b55bb09994e38
1adf3abdc9d33151452b55bb09994e38
1adf3abdc9d33151452b55bb09994e38
1adf3abdc9d33151452b55bb09994e38
1adf3abdc9d33151452b55bb09994e38
1adf3abdc9d33151452b55bb09994e38
1adf3abdc9d33151452b55bb09994e38
1adf3abdc9d33151452b55bb09994e38
1adf3abdc9d33151452b55bb09994e38
1adf3abdc9d33151452b55bb09994e38
1adf3abdc9d33151452b55bb09994e38
1adf3abdc9c353342d060eb9d5b66b1e
169c061551d33151452b55bb09994e38
1adf3abdc9d33151452b55bb09994e38
1adf3abdc9d33151452b55bb09994e38
1adf3abdc9d33151452b55bb09994e38
1adf3abdc9d33151452b55bb09994e38
1adf3abdc9d33151452b55bb09994e38
1adf3abdc9d33151452b55bb09994e38
1adf3abdc9d33151452b55bb09994e38
1adf3abdc9d33151452b55bb09994e38
1adf3abdc9d33151452b55bb09994e38
1adf3abdc9d33151452b55bb09994e38
1adf3abdc9d33151452b55bb09994e38
1adf3abdc9d33151452b55bb09994e38
1adf3abdc9d33151452b55bb09994e38
1adf3abdc9d33151452b55bb09994e38
1adf3abdc9d33151452b55bb09994e38
1adf3abdc9d33151452b55bb09994e38
1adf3abdc9d33151452b55bb09994e38
1adf3abdc9d33151452b55bb09994e38
1adf3abdc9d33151452b55bb09994e38
1adf3abdc9d33151452b55bb09994e38
1adf3abdc9d33151452b55bb09994e38
1adf3abdc9c353342d060eb9d5b66b1e
169c061551d33151452b55bb09994e38
1adf3abdc9d33151452b55bb09994e38
1adf3abdc9d33151452b55bb09994e38
1adf3abdc9d33151452b55bb09994e38
1adf3abdc9d33151452b55bb09994e38
1adf3abdc9c353342d060eb9d5b66b1e
169c061551d33151452b55bb09994e38
1adf3abdc9d33151452b55bb09994e38
1adf3abdc9d33151452b55bb09994e38
1adf3abdc9d33151452b55bb09994e38
1adf3abdc9d33151452b55bb09994e38
1adf3abdc9d33151452b55bb09994e38
1adf3abdc9d33151452b55bb09994e38
1adf3abdc9c353342d060eb9d5b66b1e
169c061551d33151452b55bb09994e38
1adf3abdc9d33151452b55bb09994e38
1adf3abdc9d33151452b55bb09994e38
1adf3abdc9d33151452b55bb09994e38
1adf3abdc9d33151452b55bb09994e38
1adf3abdc9d33151452b55bb09994e38
1adf3abdc9d33151452b55bb09994e38
1adf3abdc9d33151452b55bb09994e38
1adf3abdc9d33151452b55bb09994e38
1adf3abdc9d33151452b55bb09994e38
1adf3abdc9d33151452b55bb09994e38
1adf3abdc9d33151452b55bb09994e38
1adf3abdc9d33151452b55bb09994e38
1adf3abdc9d33151452b55bb09994e38
1adf3abdc9d33151452b55bb09994e38
1adf3abdc9d33151452b55bb09994e38
1adf3abdc9d33151452b55bb09994e38
1adf3abdc9d33151452b55bb09994e38
1adf3abdc9d33151452b55bb09994e38
1adf3abdc9d33151452b55bb09994e38
1adf3abdc9d33151452b55bb09994e38
1adf3abdc9d33151452b55bb09994e38
1adf3abdc9d33151452b55bb09994e38
1adf3abdc9d33151452b55bb09994e38
1adf3abdc9d33151452b55bb09994e38
1adf3abdc9d33151452b55bb09994e38
1adf3abdc9d33151452b55bb09994e38
1adf3abdc9c353342d060eb9d5b66b1e
169c061551d33151452b55bb09994e38
1adf3abdc9d33151452b55bb09994e38
1adf3abdc9d33151452b55bb09994e38
1adf3abdc9d33151452b55bb09994e38
1adf3abdc9d33151452b55bb09994e38
1adf3abdc9d33151452b55bb09994e38
1adf3abdc9d33151452b55bb09994e38
1adf3abdc9d33151452b55bb09994e38
1adf3abdc9d33151452b55bb09994e38
1adf3abdc9d33151452b55bb09994e38
1adf3abdc9d33151452b55bb09994e38
1adf3abdc9d33151452b55bb09994e38
1adf3abdc9d33151452b55bb09994e38
1adf3abdc9d33151452b55bb09994e38
1adf3abdc9d33151452b55bb09994e38
1adf3abdc9d33151452b55bb09994e38
1adf3abdc9d33151452b55bb09994e38
1adf3abdc9d33151452b55bb09994e38
1adf3abdc9d33151452b55bb09994e38
1adf3abdc9d33151452b55bb09994e38
1adf3abdc9d33151452b55bb09994e38
1adf3abdc9d33151452b55bb09994e38
1adf3abdc9d33151452b55bb09994e38
1adf3abdc9d33151452b55bb09994e38
1adf3abdc9d33151452b55bb09994e38
1adf3abdc9d33151452b55bb09994e38
1adf3abdc9d33151452b55bb09994e38
1adf3abdc9d33151452b55bb09994e38
1adf3abdc9d33151452b55bb09994e38
1adf3abdc9d33151452b55bb09994e38
1adf3abdc9d33151452b55bb09994e38
1adf3abdc9d33151452b55bb09994e38
1adf3abdc9d33151452b55bb09994e38
1adf3abdc9d33151452b55bb09994e38
1adf3abdc9d33151452b55bb09994e38
1adf3abdc9d33151452b55bb09994e38
1adf3abdc9c353342d060eb9d5b66b1e
169c061551d33151452b55bb09994e38
1adf3abdc9d33151452b55bb09994e38
1adf3abdc9d33151452b55bb09994e38
1adf3abdc9d33151452b55bb09994e38
1adf3abdc9d33151452b55bb09994e38
1adf3abdc9d33151452b55bb09994e38
1adf3abdc9d33151452b55bb09994e38
1adf3abdc9c353342d060eb9d5b66b1e
169c061551d33151452b55bb09994e38
1adf3abdc9d33151452b55bb09994e38
1adf3abdc9d33151452b55bb09994e38
1adf3abdc9d33151452b55bb09994e38
1adf3abdc9d33151452b55bb09994e38
1adf3abdc9d33151452b55bb09994e38
1adf3abdc9d33151452b55bb09994e38
1adf3abdc9d33151452b55bb09994e38
1adf3abdc9d33151452b55bb09994e38
1adf3abdc9d33151452b55bb09994e38
1adf3abdc9d33151452b55bb09994e38
1adf3abdc9d33151452b55bb09994e38
1adf3abdc9d33151452b55bb09994e38
1adf3abdc9d33151452b55bb09994e38
1adf3abdc9d33151452b55bb09994e38
1adf3abdc9d33151452b55bb09994e38
1adf3abdc9d33151452b55bb09994e38
1adf3abdc9c353342d060eb9d5b66b1e
169c061551d33151452b55bb09994e38
1adf3abdc9d33151452b55bb09994e38
1adf3abdc9d33151452b55bb09994e38
1adf3abdc9d33151452b55bb09994e38
1adf3abdc9d33151452b55bb09994e38
1adf3abdc9d33151452b55bb09994e38
1adf3abdc9d33151452b55bb09994e38
1adf3abdc9d33151452b55bb09994e38
1adf3abdc9d33151452b55bb09994e38
1adf3abdc9d33151452b55bb09994e38
1adf3abdc9d33151452b55bb09994e38
1adf3abdc9d33151452b55bb09994e38
1adf3abdc9d33151452b55bb09994e38
1adf3abdc9d33151452b55bb09994e38
1adf3abdc9d33151452b55bb09994e38
1adf3abdc9d33151452b55bb09994e38
1adf3abdc9c353342d060eb9d5b66b1e
169c061551d33151452b55bb09994e38
1adf3abdc9d33151452b55bb09994e38
1adf3abdc9d33151452b55bb09994e38
1adf3abdc9d33151452b55bb09994e38
1adf3abdc9d33151452b55bb09994e38
1adf3abdc9c353342d060eb9d5b66b1e
169c061551d33151452b55bb09994e38
1adf3abdc9d33151452b55bb09994e38
1adf3abdc9c353342d060eb9d5b66b1e
169c061551d33151452b55bb09994e38
1adf3abdc9d33151452b55bb09994e38
1adf3abdc9d33151452b55bb09994e38
1adf3abdc9d33151452b55bb09994e38
1adf3abdc9d33151452b55bb09994e38
1adf3abdc9d33151452b55bb09994e38
1adf3abdc9d33151452b55bb09994e38
1adf3abdc9d33151452b55bb09994e38
1adf3abdc9d33151452b55bb09994e38
1adf3abdc9d33151452b55bb09994e38
1adf3abdc9c353342d060eb9d5b66b1e
169c061551d33151452b55bb09994e38
1adf3abdc9d33151452b55bb09994e38
1adf3abdc9d33151452b55bb09994e38
1adf3abdc9d33151452b55bb09994e38
1adf3abdc9d33151452b55bb09994e38
1adf3abdc9d33151452b55bb09994e38
1adf3abdc9d33151452b55bb09994e38
1adf3abdc9d33151452b55bb09994e38
1adf3abdc9d33151452b55bb09994e38
1adf3abdc9d33151452b55bb09994e38
1adf3abdc9c353342d060eb9d5b66b1e
169c061551d33151452b55bb09994e38
1adf3abdc9f0702e1149a2f751781235
a5a91d405b7be981c784c7ef9abe07c8
4ed9a91d787be981c784c7ef9abe07c8
4ed9a91d787be981c784c7ef9abe07c8
4ed9a91d787be981c784c7ef9abe07c8
4ed9a91d787be981c784c7ef9abe07c8
4ed9a91d787be981c784c7ef9abe07c8
4ed9a91d787be981c784c7ef9abe07c8
4ed9a91d787be981c784c7ef9abe07c8
4ed9a91d787be981c784c7ef9abe07c8
4ed9a91d787be981c784c7ef9abe07c8
4ed9a91d787fc24527066651f0d17063
c4c0cffbb98b50303fb2c780ce9132cc
b59513391d8b50303fb2c780ce9132cc
b59513391d8b50303fb2c780ce9132cc
b59513391d8b50303fb2c780ce9132cc
b59513391d8b50303fb2c780ce9132cc
b59513391d8b50303fb2c780ce9132cc
b59513391d8b50303fb2c780ce9132cc
