<?xml version="1.0" encoding="UTF-8" standalone="no"?>
<!-- Created with Inkscape (http://www.inkscape.org/) -->

<svg
   xmlns:dc="http://purl.org/dc/elements/1.1/"
   xmlns:cc="http://creativecommons.org/ns#"
   xmlns:rdf="http://www.w3.org/1999/02/22-rdf-syntax-ns#"
   xmlns:svg="http://www.w3.org/2000/svg"
   xmlns="http://www.w3.org/2000/svg"
   xmlns:sodipodi="http://sodipodi.sourceforge.net/DTD/sodipodi-0.dtd"
   xmlns:inkscape="http://www.inkscape.org/namespaces/inkscape"
   width="134.44818mm"
   height="110.41642mm"
   viewBox="0 0 134.44818 110.41642"
   version="1.1"
   id="svg9293"
   inkscape:version="0.92.4 (5da689c313, 2019-01-14)"
   sodipodi:docname="mem_L2.svg"
   inkscape:export-filename="/home/ronan/Documents/git-inria/rpi3_fault_analysis/presentations/long45/Figures/mem_L2.png"
   inkscape:export-xdpi="500"
   inkscape:export-ydpi="500">
  <defs
     id="defs9287">
    <marker
       inkscape:isstock="true"
       style="overflow:visible"
       id="marker12214"
       refX="0"
       refY="0"
       orient="auto"
       inkscape:stockid="Arrow1Mend">
      <path
         transform="matrix(-0.4,0,0,-0.4,-4,0)"
         style="fill:#000000;fill-opacity:1;fill-rule:evenodd;stroke:#000000;stroke-width:1.00000003pt;stroke-opacity:1"
         d="M 0,0 5,-5 -12.5,0 5,5 Z"
         id="path12212"
         inkscape:connector-curvature="0" />
    </marker>
    <marker
       inkscape:stockid="Arrow1Mstart"
       orient="auto"
       refY="0"
       refX="0"
       id="Arrow1Mstart"
       style="overflow:visible"
       inkscape:isstock="true">
      <path
         id="path4584"
         d="M 0,0 5,-5 -12.5,0 5,5 Z"
         style="fill:#000000;fill-opacity:1;fill-rule:evenodd;stroke:#000000;stroke-width:1.00000003pt;stroke-opacity:1"
         transform="matrix(0.4,0,0,0.4,4,0)"
         inkscape:connector-curvature="0" />
    </marker>
    <marker
       inkscape:stockid="Arrow1Mend"
       orient="auto"
       refY="0"
       refX="0"
       id="Arrow1Mend"
       style="overflow:visible"
       inkscape:isstock="true"
       inkscape:collect="always">
      <path
         id="path4587"
         d="M 0,0 5,-5 -12.5,0 5,5 Z"
         style="fill:#000000;fill-opacity:1;fill-rule:evenodd;stroke:#000000;stroke-width:1.00000003pt;stroke-opacity:1"
         transform="matrix(-0.4,0,0,-0.4,-4,0)"
         inkscape:connector-curvature="0" />
    </marker>
    <marker
       inkscape:stockid="Arrow1Mend"
       orient="auto"
       refY="0"
       refX="0"
       id="Arrow1Mend-3"
       style="overflow:visible"
       inkscape:isstock="true">
      <path
         inkscape:connector-curvature="0"
         id="path4587-7"
         d="M 0,0 5,-5 -12.5,0 5,5 Z"
         style="fill:#000000;fill-opacity:1;fill-rule:evenodd;stroke:#000000;stroke-width:1.00000003pt;stroke-opacity:1"
         transform="matrix(-0.4,0,0,-0.4,-4,0)" />
    </marker>
    <marker
       inkscape:stockid="Arrow1Mend"
       orient="auto"
       refY="0"
       refX="0"
       id="Arrow1Mend-52"
       style="overflow:visible"
       inkscape:isstock="true">
      <path
         inkscape:connector-curvature="0"
         id="path4587-5"
         d="M 0,0 5,-5 -12.5,0 5,5 Z"
         style="fill:#000000;fill-opacity:1;fill-rule:evenodd;stroke:#000000;stroke-width:1.00000003pt;stroke-opacity:1"
         transform="matrix(-0.4,0,0,-0.4,-4,0)" />
    </marker>
    <marker
       inkscape:stockid="Arrow1Mstart"
       orient="auto"
       refY="0"
       refX="0"
       id="Arrow1Mstart-4"
       style="overflow:visible"
       inkscape:isstock="true">
      <path
         inkscape:connector-curvature="0"
         id="path4584-4"
         d="M 0,0 5,-5 -12.5,0 5,5 Z"
         style="fill:#000000;fill-opacity:1;fill-rule:evenodd;stroke:#000000;stroke-width:1.00000003pt;stroke-opacity:1"
         transform="matrix(0.4,0,0,0.4,4,0)" />
    </marker>
    <marker
       inkscape:stockid="Arrow1Mend"
       orient="auto"
       refY="0"
       refX="0"
       id="Arrow1Mend-52-3"
       style="overflow:visible"
       inkscape:isstock="true">
      <path
         inkscape:connector-curvature="0"
         id="path4587-5-0"
         d="M 0,0 5,-5 -12.5,0 5,5 Z"
         style="fill:#000000;fill-opacity:1;fill-rule:evenodd;stroke:#000000;stroke-width:1.00000003pt;stroke-opacity:1"
         transform="matrix(-0.4,0,0,-0.4,-4,0)" />
    </marker>
    <marker
       inkscape:stockid="Arrow1Mstart"
       orient="auto"
       refY="0"
       refX="0"
       id="Arrow1Mstart-43"
       style="overflow:visible"
       inkscape:isstock="true">
      <path
         inkscape:connector-curvature="0"
         id="path4584-1"
         d="M 0,0 5,-5 -12.5,0 5,5 Z"
         style="fill:#000000;fill-opacity:1;fill-rule:evenodd;stroke:#000000;stroke-width:1.00000003pt;stroke-opacity:1"
         transform="matrix(0.4,0,0,0.4,4,0)" />
    </marker>
    <marker
       inkscape:stockid="Arrow1Mend"
       orient="auto"
       refY="0"
       refX="0"
       id="Arrow1Mend-52-4"
       style="overflow:visible"
       inkscape:isstock="true">
      <path
         inkscape:connector-curvature="0"
         id="path4587-5-9"
         d="M 0,0 5,-5 -12.5,0 5,5 Z"
         style="fill:#000000;fill-opacity:1;fill-rule:evenodd;stroke:#000000;stroke-width:1.00000003pt;stroke-opacity:1"
         transform="matrix(-0.4,0,0,-0.4,-4,0)" />
    </marker>
    <marker
       inkscape:isstock="true"
       style="overflow:visible"
       id="marker12214-4"
       refX="0"
       refY="0"
       orient="auto"
       inkscape:stockid="Arrow1Mend">
      <path
         transform="matrix(-0.4,0,0,-0.4,-4,0)"
         style="fill:#000000;fill-opacity:1;fill-rule:evenodd;stroke:#000000;stroke-width:1.00000003pt;stroke-opacity:1"
         d="M 0,0 5,-5 -12.5,0 5,5 Z"
         id="path12212-9"
         inkscape:connector-curvature="0" />
    </marker>
    <marker
       inkscape:isstock="true"
       style="overflow:visible"
       id="marker12214-2"
       refX="0"
       refY="0"
       orient="auto"
       inkscape:stockid="Arrow1Mend">
      <path
         transform="matrix(-0.4,0,0,-0.4,-4,0)"
         style="fill:#000000;fill-opacity:1;fill-rule:evenodd;stroke:#000000;stroke-width:1.00000003pt;stroke-opacity:1"
         d="M 0,0 5,-5 -12.5,0 5,5 Z"
         id="path12212-6"
         inkscape:connector-curvature="0" />
    </marker>
  </defs>
  <sodipodi:namedview
     id="base"
     pagecolor="#ffffff"
     bordercolor="#666666"
     borderopacity="1.0"
     inkscape:pageopacity="0.0"
     inkscape:pageshadow="2"
     inkscape:zoom="1.4"
     inkscape:cx="218.38312"
     inkscape:cy="96.949922"
     inkscape:document-units="mm"
     inkscape:current-layer="layer1"
     showgrid="false"
     inkscape:window-width="2560"
     inkscape:window-height="1376"
     inkscape:window-x="0"
     inkscape:window-y="27"
     inkscape:window-maximized="1"
     fit-margin-top="0"
     fit-margin-left="0"
     fit-margin-right="0"
     fit-margin-bottom="0"
     showguides="false" />
  <metadata
     id="metadata9290">
    <rdf:RDF>
      <cc:Work
         rdf:about="">
        <dc:format>image/svg+xml</dc:format>
        <dc:type
           rdf:resource="http://purl.org/dc/dcmitype/StillImage" />
        <dc:title></dc:title>
      </cc:Work>
    </rdf:RDF>
  </metadata>
  <g
     inkscape:label="Calque 1"
     inkscape:groupmode="layer"
     id="layer1"
     transform="translate(-6.6523786,26.632793)">
    <g
       id="g9864"
       transform="translate(-18.709821,16.063982)">
      <rect
         ry="3.0000045"
         rx="3.0000045"
         y="50.9375"
         x="25.891367"
         height="16.252975"
         width="99.029755"
         id="rect9838"
         style="fill:none;fill-opacity:1;stroke:#000000;stroke-width:1.05833328;stroke-miterlimit:4;stroke-dasharray:none;stroke-dashoffset:0;stroke-opacity:1" />
      <text
         id="text9842"
         y="61.205116"
         x="60.043186"
         style="font-style:normal;font-weight:normal;font-size:7.76111126px;line-height:1.25;font-family:sans-serif;letter-spacing:0px;word-spacing:0px;fill:#000000;fill-opacity:1;stroke:none;stroke-width:0.26458332"
         xml:space="preserve"><tspan
           style="stroke-width:0.26458332"
           y="61.205116"
           x="60.043186"
           id="tspan9840"
           sodipodi:role="line">Pipeline</tspan></text>
    </g>
    <g
       id="g9882"
       transform="translate(-13.465408,10.677826)">
      <rect
         ry="3.0000045"
         rx="3.0000045"
         y="18.431545"
         x="25.513393"
         height="29.860117"
         width="33.072918"
         id="rect9844"
         style="fill:none;fill-opacity:1;stroke:#000000;stroke-width:1.05833328;stroke-miterlimit:4;stroke-dasharray:none;stroke-dashoffset:0;stroke-opacity:1" />
      <text
         id="text9868"
         y="36.190544"
         x="36.274494"
         style="font-style:normal;font-weight:normal;font-size:7.76111126px;line-height:1.25;font-family:sans-serif;letter-spacing:0px;word-spacing:0px;fill:#000000;fill-opacity:1;stroke:none;stroke-width:0.26458332"
         xml:space="preserve"><tspan
           style="stroke-width:0.26458332"
           y="36.190544"
           x="36.274494"
           id="tspan9866"
           sodipodi:role="line">L1I</tspan></text>
    </g>
    <g
       id="g9877"
       transform="translate(-13.465408,10.299848)">
      <rect
         ry="3.0000045"
         rx="3.0000045"
         y="18.809523"
         x="81.73735"
         height="29.860119"
         width="33.072918"
         id="rect9844-5"
         style="fill:none;fill-opacity:1;stroke:#000000;stroke-width:1.05833328;stroke-miterlimit:4;stroke-dasharray:none;stroke-dashoffset:0;stroke-opacity:1" />
      <text
         id="text9872"
         y="36.568523"
         x="90.503227"
         style="font-style:normal;font-weight:normal;font-size:7.76111126px;line-height:1.25;font-family:sans-serif;letter-spacing:0px;word-spacing:0px;fill:#000000;fill-opacity:1;stroke:none;stroke-width:0.26458332"
         xml:space="preserve"><tspan
           style="stroke-width:0.26458332"
           y="36.568523"
           x="90.503227"
           id="tspan9870"
           sodipodi:role="line">L1D</tspan></text>
    </g>
    <g
       id="g12184">
      <rect
         ry="3.0000045"
         rx="3.0000045"
         y="4.8243818"
         x="7.1815453"
         height="16.252975"
         width="99.029755"
         id="rect9838-4"
         style="fill:none;fill-opacity:1;stroke:#000000;stroke-width:1.05833328;stroke-miterlimit:4;stroke-dasharray:none;stroke-dashoffset:0;stroke-opacity:1" />
      <text
         id="text9842-7"
         y="15.387586"
         x="34.451443"
         style="font-style:normal;font-weight:normal;font-size:7.76111126px;line-height:1.25;font-family:sans-serif;letter-spacing:0px;word-spacing:0px;fill:#000000;fill-opacity:1;stroke:none;stroke-width:0.26458332"
         xml:space="preserve"><tspan
           style="stroke-width:0.26458332"
           y="15.387586"
           x="34.451443"
           id="tspan9840-6"
           sodipodi:role="line">L2 (unified)</tspan></text>
    </g>
    <path
       style="fill:none;stroke:#000000;stroke-width:0.35277778;stroke-linecap:butt;stroke-linejoin:miter;stroke-miterlimit:4;stroke-dasharray:none;stroke-opacity:1;marker-end:url(#Arrow1Mend)"
       d="m 28.584444,59.347469 v 6.496466"
       id="path9945"
       inkscape:connector-curvature="0"
       sodipodi:nodetypes="cc" />
    <path
       style="fill:none;stroke:#000000;stroke-width:0.35277778;stroke-linecap:butt;stroke-linejoin:miter;stroke-miterlimit:4;stroke-dasharray:none;stroke-opacity:1;marker-end:url(#Arrow1Mend-3)"
       d="m 28.584444,21.424007 v 6.496466"
       id="path9945-4"
       inkscape:connector-curvature="0"
       sodipodi:nodetypes="cc" />
    <path
       style="fill:none;stroke:#000000;stroke-width:0.35277778;stroke-linecap:butt;stroke-linejoin:miter;stroke-miterlimit:4;stroke-dasharray:none;stroke-opacity:1;marker-start:url(#Arrow1Mstart);marker-end:url(#Arrow1Mend-52)"
       d="m 84.808401,22.30213 v 5.568231"
       id="path9945-47"
       inkscape:connector-curvature="0"
       sodipodi:nodetypes="cc" />
    <path
       style="fill:none;stroke:#000000;stroke-width:0.35277778;stroke-linecap:butt;stroke-linejoin:miter;stroke-miterlimit:4;stroke-dasharray:none;stroke-opacity:1;marker-start:url(#Arrow1Mstart-4);marker-end:url(#Arrow1Mend-52-3)"
       d="m 84.808401,60.201375 v 5.568231"
       id="path9945-47-7"
       inkscape:connector-curvature="0"
       sodipodi:nodetypes="cc" />
    <g
       id="g11423">
      <g
         id="g11428"
         transform="translate(14.467837,3.7417734)">
        <rect
           style="fill:none;fill-opacity:1;stroke:#000000;stroke-width:1.05833328;stroke-miterlimit:4;stroke-dasharray:none;stroke-dashoffset:0;stroke-opacity:1"
           id="rect9838-4-6"
           width="99.029755"
           height="16.252975"
           x="-7.2862916"
           y="-29.8454"
           rx="3.0000045"
           ry="3.0000045" />
        <text
           xml:space="preserve"
           style="font-style:normal;font-weight:normal;font-size:7.76111126px;line-height:1.25;font-family:sans-serif;letter-spacing:0px;word-spacing:0px;fill:#000000;fill-opacity:1;stroke:none;stroke-width:0.26458332"
           x="8.8270073"
           y="-19.577785"
           id="text9842-7-8"><tspan
             sodipodi:role="line"
             id="tspan9840-6-8"
             x="8.8270073"
             y="-19.577785"
             style="stroke-width:0.26458332">External Memory</tspan></text>
      </g>
    </g>
    <path
       style="fill:none;stroke:#000000;stroke-width:0.35277778;stroke-linecap:butt;stroke-linejoin:miter;stroke-miterlimit:4;stroke-dasharray:none;stroke-opacity:1;marker-start:url(#Arrow1Mstart-43);marker-end:url(#Arrow1Mend-52-4)"
       d="M 56.696423,-8.6776198 V 3.5524417"
       id="path9945-47-2"
       inkscape:connector-curvature="0"
       sodipodi:nodetypes="cc" />
    <path
       style="fill:#ffc200;fill-opacity:1;stroke:#000000;stroke-width:0.26458332px;stroke-linecap:butt;stroke-linejoin:miter;stroke-opacity:1"
       d="m 64.875352,-9.4624553 -5.238633,7.401091 5.175517,-0.822344 -5.61733,8.79275 10.919079,-10.563951 -6.059142,-0.189773 z"
       id="path13115"
       inkscape:connector-curvature="0" />
    <g
       transform="translate(-0.15341256,-1.5406419)"
       id="g14003">
      <path
         sodipodi:nodetypes="cc"
         inkscape:connector-curvature="0"
         id="path12392-5"
         d="m 101.4956,51.593861 19.44386,4.791857"
         style="fill:none;stroke:#000000;stroke-width:0.70555556;stroke-linecap:butt;stroke-linejoin:miter;stroke-miterlimit:4;stroke-dasharray:none;stroke-opacity:1;marker-end:url(#marker12214-4)" />
      <text
         id="text12408-0"
         y="62.116085"
         x="124.28033"
         style="font-style:normal;font-weight:normal;font-size:7.76111126px;line-height:1.25;font-family:sans-serif;letter-spacing:0px;word-spacing:0px;fill:#000000;fill-opacity:1;stroke:none;stroke-width:0.26458332"
         xml:space="preserve"><tspan
           style="stroke-width:0.26458332"
           y="62.116085"
           x="124.28033"
           id="tspan12406-4"
           sodipodi:role="line">JTAG</tspan></text>
      <path
         sodipodi:nodetypes="cc"
         inkscape:connector-curvature="0"
         id="path12392-6"
         d="m 106.57219,70.500752 14.38843,-5.88597"
         style="fill:none;stroke:#000000;stroke-width:0.70555556;stroke-linecap:butt;stroke-linejoin:miter;stroke-miterlimit:4;stroke-dasharray:none;stroke-opacity:1;marker-end:url(#marker12214-2)" />
    </g>
    <path
       style="fill:#ffc200;fill-opacity:1;stroke:#000000;stroke-width:0.26458332px;stroke-linecap:butt;stroke-linejoin:miter;stroke-opacity:1"
       d="M 32.782384,6.9529617 30.58278,10.088715 32.755883,9.7402976 30.397271,13.46568 34.98199,8.989861 32.437868,8.909456 Z"
       id="path13115-8"
       inkscape:connector-curvature="0" />
    <path
       style="fill:#ffc200;fill-opacity:1;stroke:#000000;stroke-width:0.26458332px;stroke-linecap:butt;stroke-linejoin:miter;stroke-opacity:1"
       d="m 78.48439,29.999652 -1.783158,2.550402 1.761674,-0.283379 -1.912061,3.029963 3.716704,-3.640315 -2.062449,-0.0654 z"
       id="path13115-8-7"
       inkscape:connector-curvature="0" />
    <path
       style="fill:#ffc200;fill-opacity:1;stroke:#000000;stroke-width:0.26458332px;stroke-linecap:butt;stroke-linejoin:miter;stroke-opacity:1"
       d="m 19.872802,37.9956 -2.199604,3.135754 2.173103,-0.348418 -2.358612,3.725382 4.584719,-4.475818 -2.544122,-0.08041 z"
       id="path13115-8-1"
       inkscape:connector-curvature="0" />
    <g
       id="g12390"
       transform="matrix(0.31609261,0.31609261,-0.31609261,0.31609261,77.042524,49.824139)"
       style="stroke-width:2.23702407">
      <rect
         y="-52.713024"
         x="-7.8094249"
         height="3.8742559"
         width="25.324404"
         id="rect12365"
         style="fill:#ff0000;fill-opacity:1;stroke:#ff0000;stroke-width:2.36751699;stroke-miterlimit:4;stroke-dasharray:none;stroke-dashoffset:0;stroke-opacity:1" />
      <rect
         transform="rotate(90)"
         y="-6.7899051"
         x="-63.438099"
         height="3.8742561"
         width="25.324404"
         id="rect12365-9"
         style="fill:#ff0000;fill-opacity:1;stroke:#ff0000;stroke-width:2.36751699;stroke-miterlimit:4;stroke-dasharray:none;stroke-dashoffset:0;stroke-opacity:1" />
    </g>
    <g
       id="g12390-2"
       transform="matrix(0.3160926,0.3160926,-0.3160926,0.3160926,20.818566,50.202115)"
       style="stroke-width:2.23702407">
      <rect
         y="-52.713024"
         x="-7.8094249"
         height="3.8742559"
         width="25.324404"
         id="rect12365-2"
         style="fill:#ff0000;fill-opacity:1;stroke:#ff0000;stroke-width:2.36751699;stroke-miterlimit:4;stroke-dasharray:none;stroke-dashoffset:0;stroke-opacity:1" />
      <rect
         transform="rotate(90)"
         y="-6.7899051"
         x="-63.438099"
         height="3.8742561"
         width="25.324404"
         id="rect12365-9-6"
         style="fill:#ff0000;fill-opacity:1;stroke:#ff0000;stroke-width:2.36751699;stroke-miterlimit:4;stroke-dasharray:none;stroke-dashoffset:0;stroke-opacity:1" />
    </g>
    <text
       xml:space="preserve"
       style="font-style:normal;font-weight:normal;font-size:4.23333311px;line-height:1.25;font-family:sans-serif;letter-spacing:0px;word-spacing:0px;fill:#ff0000;fill-opacity:1;stroke:none;stroke-width:0.26458332"
       x="34.339138"
       y="27.748657"
       id="text14247"><tspan
         sodipodi:role="line"
         id="tspan14245"
         x="34.339138"
         y="27.748657"
         style="font-size:4.23333311px;fill:#ff0000;fill-opacity:1;stroke-width:0.26458332">Do nothing</tspan></text>
    <text
       xml:space="preserve"
       style="font-style:normal;font-weight:normal;font-size:4.23333311px;line-height:1.25;font-family:sans-serif;letter-spacing:0px;word-spacing:0px;fill:#ff0000;fill-opacity:1;stroke:none;stroke-width:0.26458332"
       x="103.811"
       y="27.121159"
       id="text14247-1"><tspan
         sodipodi:role="line"
         id="tspan14245-0"
         x="103.811"
         y="27.121159"
         style="font-size:4.23333311px;fill:#ff0000;fill-opacity:1;stroke-width:0.26458332">Make F1 and F2</tspan><tspan
         sodipodi:role="line"
         x="103.811"
         y="32.412827"
         style="font-size:4.23333311px;fill:#ff0000;fill-opacity:1;stroke-width:0.26458332"
         id="tspan14267">coherent</tspan></text>
    <text
       xml:space="preserve"
       style="font-style:normal;font-weight:normal;font-size:4.93888903px;line-height:1.25;font-family:sans-serif;letter-spacing:0px;word-spacing:0px;fill:#ffc200;fill-opacity:1;stroke:none;stroke-width:0.26458332"
       x="69.396423"
       y="34.457733"
       id="text14286"><tspan
         sodipodi:role="line"
         id="tspan14284"
         x="69.396423"
         y="34.457733"
         style="font-size:4.93888903px;fill:#ffc200;fill-opacity:1;stroke-width:0.26458332">F1</tspan></text>
    <text
       xml:space="preserve"
       style="font-style:normal;font-weight:normal;font-size:4.93888903px;line-height:1.25;font-family:sans-serif;letter-spacing:0px;word-spacing:0px;fill:#ff6f00;fill-opacity:1;stroke:none;stroke-width:0.26458332"
       x="69.415718"
       y="40.557449"
       id="text14286-1"><tspan
         sodipodi:role="line"
         id="tspan14284-5"
         x="69.415718"
         y="40.557449"
         style="font-size:4.93888903px;fill:#ff6f00;fill-opacity:1;stroke-width:0.26458332">F2</tspan></text>
    <path
       style="fill:#ff6f00;fill-opacity:1;stroke:#000000;stroke-width:0.26458332px;stroke-linecap:butt;stroke-linejoin:miter;stroke-opacity:1"
       d="m 78.48439,36.066812 -1.783158,2.550402 1.761674,-0.283379 -1.912061,3.029963 3.716704,-3.640315 -2.062449,-0.0654 z"
       id="path13115-8-7-9"
       inkscape:connector-curvature="0" />
  </g>
</svg>
