0x00390000: 00000703 00000000 00010703 00000000
0x00390010: 00020703 00000000 00030703 00000000 
0x00390020: 00040703 00000000 00050703 00000000 
0x00390030: 00060703 00000000 00070703 00000000 
0x00390040: 00080703 00000000 00090703 00000000