CNT,CNT1,CNT2,CNT3
1,1,254,254
1,1,254,254
1,1,254,254
1,1,254,254
1,1,254,254
1,1,254,254
1,1,254,254
1,1,254,254
1,1,254,254
1,1,254,254
1,1,254,254
1,1,254,254
1,1,254,254
1,1,254,254
1,1,254,254
1,1,254,254
1,1,254,254
1,1,254,254
1,1,254,254
1,1,254,254
1,1,254,254
1,1,254,254
1,1,254,254
1,1,254,254
1,1,254,254
1,1,254,254
1,1,254,254
1,1,254,254
1,1,254,254
1,1,254,254
1,1,254,254
1,1,254,254
1,1,254,254
1,1,254,254
1,1,254,254
1,1,254,254
1,1,254,254
1,1,254,254
1,1,254,254
1,1,254,254
1,1,254,254
1,1,254,254
1,1,254,254
1,1,254,254
1,1,254,254
1,1,254,254
1,1,254,254
1,1,254,254
1,1,254,254
1,1,254,254
1,1,254,254
1,1,254,254
1,1,254,254
1,1,254,254
1,1,254,254
1,1,254,254
1,1,254,254
1,1,254,254
1,1,254,254
1,1,254,254
1,1,254,254
1,1,254,254
1,1,254,254
1,1,254,254
1,1,254,254
1,1,254,254
1,1,254,254
1,1,254,254
1,1,254,254
1,1,254,254
1,1,254,254
1,1,254,254
1,1,254,254
1,1,254,254
1,1,254,254
1,1,254,254
1,1,254,254
1,1,254,254
1,1,254,254
1,1,254,254
1,1,254,254
1,1,254,254
1,1,254,254
1,1,254,254
1,1,254,254
1,1,254,254
1,1,254,254
1,1,254,254
1,1,254,254
1,1,254,254
1,1,254,254
1,1,254,254
1,1,254,254
1,1,254,254
1,1,254,254
1,1,254,254
1,1,254,254
1,1,254,254
1,1,254,254
1,1,254,254
1,1,254,254
1,1,254,254
1,1,254,254
1,1,254,254
1,1,254,254
1,1,254,254
1,1,254,254
1,1,254,254
1,1,254,254
1,1,254,254
1,1,254,254
1,1,254,254
1,1,254,254
1,1,254,254
1,1,254,254
1,1,254,254
1,1,254,254
1,1,254,254
1,1,254,254
1,1,254,254
1,1,254,254
1,1,254,254
1,1,254,254
1,1,254,254
1,1,254,254
1,1,254,254
1,1,254,254
1,1,254,254
1,1,254,254
1,1,254,254
1,1,254,254
1,1,254,254
1,1,254,254
1,1,254,254
1,1,254,254
1,1,254,254
1,1,254,254
1,1,254,254
1,1,254,254
1,1,254,254
1,1,254,254
1,1,254,254
1,1,254,254
1,1,254,254
1,1,254,254
1,1,254,254
1,1,254,254
1,1,254,254
1,1,254,254
1,1,254,254
1,1,254,254
1,1,254,254
1,1,254,254
1,1,254,254
1,1,254,254
1,1,254,254
1,1,254,254
1,1,254,254
1,1,254,254
1,1,254,254
1,1,254,254
1,1,254,254
1,1,254,254
1,1,254,254
1,1,254,254
1,1,254,254
1,1,254,254
1,1,254,254
1,1,254,254
1,1,254,254
1,1,254,254
1,1,254,254
1,1,254,254
1,1,254,254
1,1,254,254
1,1,254,254
1,1,254,254
1,1,254,254
1,1,254,254
1,1,254,254
1,1,254,254
1,1,254,254
1,1,254,254
1,1,254,254
1,1,254,254
1,1,254,254
1,1,254,254
1,1,254,254
1,1,254,254
1,1,254,254
1,1,254,254
1,1,254,254
1,1,254,254
1,1,254,254
1,1,254,254
1,1,254,254
1,1,254,254
1,1,254,254
1,1,254,254
1,1,254,254
1,1,254,254
1,1,254,254
1,1,254,254
1,1,254,254
1,1,254,254
1,1,254,254
1,1,254,254
1,1,254,254
1,1,254,254
1,1,254,254
1,1,254,254
1,1,254,254
1,1,254,254
1,1,254,254
1,1,254,254
1,1,254,254
1,1,254,254
1,1,254,254
1,1,254,254
1,1,254,254
1,1,254,254
1,1,254,254
1,1,254,254
1,1,254,254
1,1,254,254
1,1,254,254
1,1,254,254
1,1,254,254
1,1,254,254
1,1,254,254
1,1,254,254
1,1,254,254
1,1,254,254
1,1,254,254
1,1,254,254
1,1,254,254
1,1,254,254
1,1,254,254
1,1,254,254
1,1,254,254
1,1,254,254
1,1,254,254
1,1,254,254
1,1,254,254
1,1,254,254
1,1,254,254
1,1,254,254
1,1,254,254
1,1,254,254
1,1,254,254
1,1,254,254
1,1,254,254
1,1,254,254
1,1,254,254
1,1,254,254
1,1,254,254
1,1,254,254
1,1,254,254
1,1,254,254
1,1,254,254
1,1,254,254
1,1,254,254
1,1,254,254
1,1,254,254
1,1,254,254
1,1,254,254
1,1,254,254
1,1,254,254
1,1,254,254
1,1,254,254
1,1,254,254
1,1,254,254
1,1,254,254
1,1,254,254
1,1,254,254
1,1,254,254
1,1,254,254
1,1,254,254
1,1,254,254
1,1,254,254
1,1,254,254
1,1,254,254
1,1,254,254
1,1,254,254
1,1,254,254
1,1,254,254
1,1,254,254
1,1,254,254
1,1,254,254
1,1,254,254
1,1,254,254
1,1,254,254
1,1,254,254
1,1,254,254
1,1,254,254
1,1,254,254
1,1,254,254
1,1,254,254
1,1,254,254
1,1,254,254
1,1,254,254
1,1,254,254
1,1,254,254
1,1,254,254
1,1,254,254
1,1,254,254
1,1,254,254
1,1,254,254
1,1,254,254
1,1,254,254
1,1,254,254
1,1,254,254
1,1,254,254
1,1,254,254
1,1,254,254
1,1,254,254
1,1,254,254
1,1,254,254
1,1,254,254
1,1,254,254
1,1,254,254
1,1,254,254
1,1,254,254
1,1,254,254
1,1,254,254
1,1,254,254
1,1,254,254
1,1,254,254
1,1,254,254
1,1,254,254
1,1,254,254
1,1,254,254
1,1,254,254
1,1,254,254
1,1,254,254
1,1,254,254
1,1,254,254
1,1,254,254
1,1,254,254
1,1,254,254
1,1,254,254
1,1,254,254
1,1,254,254
1,1,254,254
1,1,254,254
1,1,254,254
1,1,254,254
1,1,254,254
1,1,254,254
1,1,254,254
1,1,254,254
1,1,254,254
1,1,254,254
1,1,254,254
1,1,254,254
1,1,254,254
1,1,254,254
1,1,254,254
1,1,254,254
1,1,254,254
1,1,254,254
1,1,254,254
1,1,254,254
1,1,254,254
1,1,254,254
1,1,254,254
1,1,254,254
1,1,254,254
1,1,254,254
1,1,254,254
1,1,254,254
1,1,254,254
1,1,254,254
1,1,254,254
1,1,254,254
1,1,254,254
1,1,254,254
1,1,254,254
1,1,254,254
1,1,254,254
1,1,254,254
1,1,254,254
1,1,254,254
1,1,254,254
1,1,254,254
1,1,254,254
1,1,254,254
1,1,254,254
1,1,254,254
1,1,254,254
1,1,254,254
1,1,254,254
1,1,254,254
1,1,254,254
1,1,254,254
1,1,254,254
1,1,254,254
1,1,254,254
1,1,254,254
1,1,254,254
1,1,254,254
1,1,254,254
1,1,254,254
1,1,254,254
1,1,254,254
1,1,254,254
1,1,254,254
1,1,254,254
1,1,254,254
1,1,254,254
1,1,254,254
1,1,254,254
1,1,254,254
1,1,254,254
1,1,254,254
1,1,254,254
1,1,254,254
1,1,254,254
1,1,254,254
1,1,254,254
1,1,254,254
1,1,254,254
1,1,254,254
1,1,254,254
1,1,254,254
1,1,254,254
1,1,254,254
1,1,254,254
1,1,254,254
1,1,254,254
1,1,254,254
1,1,254,254
1,1,254,254
1,1,254,254
1,1,254,254
1,1,254,254
1,1,254,254
1,1,254,254
1,1,254,254
1,1,254,254
1,1,254,254
1,1,254,254
1,1,254,254
1,1,254,254
1,1,254,254
1,1,254,254
1,1,254,254
1,1,254,254
1,1,254,254
1,1,254,254
1,1,254,254
1,1,254,254
1,1,254,254
1,1,254,254
1,1,254,254
1,1,254,254
1,1,254,254
1,1,254,254
1,1,254,254
1,1,254,254
1,1,254,254
1,1,254,254
1,1,254,254
1,1,254,254
1,1,254,254
1,1,254,254
1,1,254,254
1,1,254,254
1,1,254,254
1,1,254,254
1,1,254,254
1,1,254,254
1,1,254,254
1,1,254,254
1,1,254,254
1,1,254,254
1,1,254,254
1,1,254,254
1,1,254,254
1,1,254,254
1,1,254,254
1,1,254,254
1,1,254,254
1,1,254,254
1,1,254,254
1,1,254,254
1,1,254,254
1,1,254,254
1,1,254,254
1,1,254,254
1,1,254,254
1,1,254,254
1,1,254,254
1,1,254,254
1,1,254,254
1,1,254,254
1,1,254,254
1,1,254,254
1,1,254,254
1,1,254,254
1,1,254,254
1,1,254,254
1,1,254,254
1,1,254,254
1,1,254,254
1,1,254,254
1,1,254,254
1,1,254,254
1,1,254,254
1,1,254,254
1,1,254,254
1,1,254,254
1,1,254,254
1,1,254,254
1,1,254,254
1,1,254,254
1,1,254,254
1,1,254,254
1,1,254,254
1,1,254,254
1,1,254,254
1,1,254,254
1,1,254,254
1,1,254,254
1,1,254,254
1,1,254,254
1,1,254,254
1,1,254,254
1,1,254,254
1,1,254,254
1,1,254,254
1,1,254,254
1,1,254,254
1,1,254,254
1,1,254,254
1,1,254,254
1,1,254,254
1,1,254,254
1,1,254,254
1,1,254,254
1,1,254,254
1,1,254,254
1,1,254,254
1,1,254,254
1,1,254,254
1,1,254,254
1,1,254,254
1,1,254,254
1,1,254,254
1,1,254,254
1,1,254,254
1,1,254,254
1,1,254,254
1,1,254,254
1,1,254,254
1,1,254,254
1,1,254,254
254,1,254,254
1,1,254,254
1,1,254,254
1,1,254,254
1,1,254,254
1,1,254,254
1,1,254,254
0,0,254,254
1,1,254,254
1,1,254,254
1,1,254,254
1,1,254,254
1,1,254,254
1,1,254,254
1,1,254,254
1,1,254,254
1,1,254,254
1,1,254,254
1,1,254,254
1,1,254,254
1,1,254,254
1,1,254,254
1,1,254,254
1,1,254,254
1,1,254,254
1,1,254,254
1,1,254,254
1,1,254,254
1,1,254,254
1,1,254,254
1,1,254,254
1,1,254,254
1,1,254,254
1,1,254,254
1,1,254,254
1,1,254,254
1,1,254,254
1,1,254,254
1,1,254,254
1,1,254,254
1,1,254,254
1,1,254,254
1,1,254,254
1,1,254,254
1,1,254,254
1,1,254,254
1,1,254,254
1,1,254,254
1,1,254,254
1,1,254,254
1,1,254,254
1,1,254,254
1,1,254,254
1,1,254,254
1,1,254,254
1,1,254,254
1,1,254,254
1,1,254,254
1,1,254,254
1,1,254,254
1,1,254,254
1,1,254,254
1,1,254,254
1,1,254,254
1,1,254,254
1,1,254,254
1,1,254,254
1,1,254,254
1,1,254,254
1,1,254,254
1,1,254,254
1,1,254,254
1,1,254,254
1,1,254,254
1,1,254,254
1,1,254,254
1,1,254,254
1,1,254,254
1,1,254,254
1,1,254,254
1,1,254,254
1,1,254,254
1,1,254,254
1,1,254,254
1,1,254,254
1,1,254,254
1,1,254,254
1,1,254,254
1,1,254,254
1,1,254,254
1,1,254,254
1,1,254,254
1,1,254,254
1,1,254,254
1,1,254,254
1,1,254,254
1,1,254,254
1,1,254,254
1,1,254,254
1,1,254,254
1,1,254,254
1,1,254,254
1,1,254,254
1,1,254,254
1,1,254,254
1,1,254,254
1,1,254,254
1,1,254,254
1,1,254,254
1,1,254,254
1,1,254,254
1,1,254,254
1,1,254,254
1,1,254,254
1,1,254,254
1,1,254,254
1,1,254,254
1,1,254,254
1,1,254,254
1,1,254,254
1,1,254,254
1,1,254,254
1,1,254,254
1,1,254,254
1,1,254,254
1,1,254,254
1,1,254,254
1,1,254,254
1,1,254,254
1,1,254,254
1,1,254,254
1,1,254,254
1,1,254,254
1,1,254,254
1,1,254,254
1,1,254,254
1,1,254,254
1,1,254,254
1,1,254,254
1,1,254,254
1,1,254,254
1,1,254,254
1,1,254,254
1,1,254,254
1,1,254,254
1,1,254,254
1,1,254,254
1,1,254,254
1,1,254,254
1,1,254,254
1,1,254,254
1,1,254,254
1,1,254,254
1,1,254,254
1,1,254,254
1,1,254,254
1,1,254,254
1,1,254,254
1,1,254,254
1,1,254,254
1,1,254,254
1,1,254,254
1,1,254,254
1,1,254,254
1,1,254,254
1,1,254,254
1,1,254,254
1,1,254,254
1,1,254,254
1,1,254,254
1,1,254,254
1,1,254,254
1,1,254,254
1,1,254,254
1,1,254,254
1,1,254,254
1,1,254,254
1,1,254,254
1,1,254,254
1,1,254,254
1,1,254,254
1,1,254,254
1,1,254,254
1,1,254,254
1,1,254,254
1,1,254,254
1,1,254,254
1,1,254,254
1,1,254,254
1,1,254,254
1,1,254,254
1,1,254,254
1,1,254,254
1,1,254,254
1,1,254,254
1,1,254,254
1,1,254,254
1,1,254,254
1,1,254,254
1,1,254,254
1,1,254,254
1,1,254,254
1,1,254,254
1,1,254,254
1,1,254,254
1,1,254,254
1,1,254,254
1,1,254,254
1,1,254,254
1,1,254,254
1,1,254,254
1,1,254,254
1,1,254,254
1,1,254,254
1,1,254,254
1,1,254,254
1,1,254,254
1,1,254,254
1,1,254,254
1,1,254,254
1,1,254,254
1,1,254,254
1,1,254,254
1,1,254,254
1,1,254,254
1,1,254,254
1,1,254,254
1,1,254,254
1,1,254,254
1,1,254,254
1,1,254,254
1,1,254,254
1,1,254,254
1,1,254,254
1,1,254,254
1,1,254,254
1,1,254,254
1,1,254,254
1,1,254,254
1,1,254,254
1,1,254,254
1,1,254,254
1,1,254,254
1,1,254,254
1,1,254,254
1,1,254,254
1,1,254,254
1,1,254,254
1,1,254,254
1,1,254,254
1,1,254,254
1,1,254,254
1,1,254,254
1,1,254,254
1,1,254,254
1,1,254,254
1,1,254,254
1,1,254,254
1,1,254,254
1,1,254,254
1,1,254,254
1,1,254,254
1,1,254,254
1,1,254,254
1,1,254,254
1,1,254,254
1,1,254,254
1,1,254,254
1,1,254,254
1,1,254,254
1,1,254,254
1,1,254,254
1,1,254,254
1,1,254,254
1,1,254,254
1,1,254,254
1,1,254,254
1,1,254,254
1,1,254,254
1,1,254,254
1,1,254,254
1,1,254,254
1,1,254,254
1,1,254,254
1,1,254,254
1,1,254,254
1,1,254,254
1,1,254,254
1,1,254,254
1,1,254,254
1,1,254,254
1,1,254,254
1,1,254,254
1,1,254,254
1,1,254,254
1,1,254,254
1,1,254,254
1,1,254,254
1,1,254,254
1,1,254,254
1,1,254,254
1,1,254,254
1,1,254,254
1,1,254,254
1,1,254,254
1,1,254,254
1,1,254,254
1,1,254,254
1,1,254,254
1,1,254,254
1,1,254,254
1,1,254,254
1,1,254,254
1,1,254,254
1,1,254,254
1,1,254,254
1,1,254,254
1,1,254,254
1,1,254,254
1,1,254,254
1,1,254,254
1,1,254,254
1,1,254,254
1,1,254,254
1,1,254,254
1,1,254,254
1,1,254,254
254,1,254,254
1,1,254,254
1,1,254,254
1,1,254,254
1,1,254,254
1,1,254,254
1,1,254,254
1,1,254,254
1,1,254,254
1,1,254,254
1,1,254,254
1,1,254,254
1,1,254,254
1,1,254,254
1,1,254,254
1,1,254,254
1,1,254,254
1,1,254,254
1,1,254,254
1,1,254,254
1,1,254,254
1,1,254,254
1,1,254,254
1,1,254,254
1,1,254,254
1,1,254,254
