0x000489b8: d65f03c0 a9be7bfd \textcolor{red}{910003fd b9001fbf}
0x000489c8: \textcolor{red}{b9001bbf b90017bf} 900001a0 912d2000
0x000489d8: d2802002 52800001 94000b28 97fefe67 
0x000489e8: d2800040 97feffe2 94008765 940087ad
0x000489f8: b9001fbf 14000010 \textcolor{brown}{b9001bbf 14000008} 
0x00048a08: \textcolor{brown}{940087c1 b94017a0} \textcolor{blue}{11000400 b90017a0} 
0x00048a18: \textcolor{blue}{b9401ba0 11000400} \textcolor{darkgreen}{b9001ba0 b9401ba0} 
0x00048a28: \textcolor{darkgreen}{7100c41f 54fffeed} b9401fa0 11000400