0x000489f8: \underline{\textcolor{brown}{940087c1 b94017a0} \textcolor{blue}{11000400 b90017a0}} 
0x00048a08: \underline{\textcolor{blue}{b9401ba0 11000400} \textcolor{darkgreen}{b9001ba0 b9401ba0}} 
0x00048a18: \underline{\textcolor{darkgreen}{7100c41f 54fffeed}} b9401fa0 11000400 
0x00048a28: b9001fa0 b9401fa0 7100c41f 54fffded