0x00390000: 00000703 00000000 00010703 00000000 00020703 00000000 00030703 00000000 
0x00390020: 00040703 00000000 00050703 00000000 00060703 00000000 00070703 00000000 
0x00390040: 00080703 00000000 00090703 00000000 000a0703 00000000 000b0703 00000000 
0x00390060: 000c0703 00000000 000d0703 00000000 000e0703 00000000 000f0703 00000000 
0x00390080: 00100703 00000000 00110703 00000000 00120703 00000000 00130703 00000000 
0x003900a0: 00140703 00000000 00150703 00000000 00160703 00000000 00170703 00000000 
0x003900c0: 00180703 00000000 00190703 00000000 001a0703 00000000 001b0703 00000000 
0x003900e0: 001c0703 00000000 001d0703 00000000 001e0703 00000000 001f0703 00000000