0x00390000: 40020607 00000000 40030607 00000000 
0x00390010: 40040607 00000000 40050607 00000000 
0x00390020: 40060607 00000000 40070607 00000000 
0x00390030: 40000000 8a210002 40000000 8a210002 
0x00390040: 400a0607 00000000 400b0607 00000000 
0x00390050: 400c0607 00000000 400d0607 00000000 
0x00390060: 400e0607 00000000 400f0607 00000000 
0x00390070: 40000000 8a210002 40000000 8a210002 
0x00390080: 40120607 00000000 40130607 00000000 
0x00390090: 40140607 00000000 40150607 00000000 
0x003900a0: 40160607 00000000 40170607 00000000 
0x003900b0: d2b82001 8a210000 40000000 8a210006 
0x003900c0: 401a0607 00000000 401b0607 00000000 
0x003900d0: 401c0607 00000000 401d0607 00000000 
0x003900e0: 401e0607 00000000 401f0607 00000000 
0x003900f0: 40000000 8a210002 40000000 8a210002