0x0 -> 0x0, cc, 980
0x10000 -> 0x10000, cc, 980
0x20000 -> 0x20000, cc, 980
0x30000 -> 0x30000, cc, 980
0x40000 -> 0x40000, cc, 980
0x50000 -> 0x50000, cc, 980
0x60000 -> 0x60000, cc, 980
0x70000 -> 0x70000, cc, 980
0x80000 -> 0xa0000, cc, 980
0x90000 -> 0xb0000, cc, 980
0xa0000 -> 0xc0000, cc, 980
0xb0000 -> 0xd0000, cc, 980
0xc0000 -> 0xe0000, cc, 980
0xd0000 -> 0xf0000, cc, 980
0xe0000 -> 0x0, 0, 80f
0xf0000 -> 0x0, 0, 80f
0x100000 -> 0x120000, cc, 980
0x110000 -> 0x130000, cc, 980
0x120000 -> 0x140000, cc, 980
0x130000 -> 0x150000, cc, 980
0x140000 -> 0x160000, cc, 980
0x150000 -> 0x170000, cc, 980
0x160000 -> 0x0, 0, 817
0x170000 -> 0x0, 0, 80f
0x180000 -> 0x1a0000, cc, 980
0x190000 -> 0x1b0000, cc, 980
0x1a0000 -> 0x1c0000, cc, 980
0x1b0000 -> 0x1d0000, cc, 980
0x1c0000 -> 0x1e0000, cc, 980
0x1d0000 -> 0x1f0000, cc, 980
0x1e0000 -> 0x0, 0, 80f
0x1f0000 -> 0x0, 0, 80f
0x200000 -> 0x220000, cc, 980
0x210000 -> 0x230000, cc, 980
0x220000 -> 0x240000, cc, 980
0x230000 -> 0x250000, cc, 980
0x240000 -> 0x260000, cc, 980
0x250000 -> 0x270000, cc, 980
0x260000 -> 0x0, 0, 817
0x270000 -> 0x0, 0, 80f
0x280000 -> 0x2a0000, cc, 980
0x290000 -> 0x2b0000, cc, 980
0x2a0000 -> 0x2c0000, cc, 980
0x2b0000 -> 0x2d0000, cc, 980
0x2c0000 -> 0x2e0000, cc, 980
0x2d0000 -> 0x2f0000, cc, 980
0x2e0000 -> 0x0, 0, 80f
0x2f0000 -> 0x0, 0, 80f
0x300000 -> 0x300000, cc, 980
0x310000 -> 0x310000, cc, 980
0x320000 -> 0x320000, cc, 980
0x330000 -> 0x330000, cc, 980
0x340000 -> 0x340000, cc, 980
0x350000 -> 0x350000, cc, 980
0x360000 -> 0x360000, cc, 980
0x370000 -> 0x370000, cc, 980
0x380000 -> 0x3a0000, cc, 980
0x390000 -> 0x3b0000, cc, 980
0x3a0000 -> 0x3c0000, cc, 980
0x3b0000 -> 0x3d0000, cc, 980
0x3c0000 -> 0x3e0000, cc, 980
0x3d0000 -> 0x3f0000, cc, 980
0x3e0000 -> 0x0, 0, 80f
0x3f0000 -> 0x0, 0, 80f
0x400000 -> 0x420000, cc, 980
0x410000 -> 0x430000, cc, 980
0x420000 -> 0x440000, cc, 980
0x430000 -> 0x450000, cc, 980
0x440000 -> 0x460000, cc, 980
0x450000 -> 0x470000, cc, 980
0x460000 -> 0x0, 0, 817
0x470000 -> 0x0, 0, 80f
0x480000 -> 0x4a0000, cc, 980
0x490000 -> 0x4b0000, cc, 980
0x4a0000 -> 0x4c0000, cc, 980
0x4b0000 -> 0x4d0000, cc, 980
0x4c0000 -> 0x4e0000, cc, 980
0x4d0000 -> 0x4f0000, cc, 980
0x4e0000 -> 0x0, 0, 80f
0x4f0000 -> 0x0, 0, 80f
0x500000 -> 0x520000, cc, 980
0x510000 -> 0x530000, cc, 980
0x520000 -> 0x540000, cc, 980
0x530000 -> 0x550000, cc, 980
0x540000 -> 0x560000, cc, 980
0x550000 -> 0x570000, cc, 980
0x560000 -> 0x0, 0, 817
0x570000 -> 0x0, 0, 80f
0x580000 -> 0x5a0000, cc, 980
0x590000 -> 0x5b0000, cc, 980
0x5a0000 -> 0x5c0000, cc, 980
0x5b0000 -> 0x5d0000, cc, 980
0x5c0000 -> 0x5e0000, cc, 980
0x5d0000 -> 0x5f0000, cc, 980
0x5e0000 -> 0x0, 0, 80f
0x5f0000 -> 0x0, 0, 80f
0x600000 -> 0x620000, cc, 980
0x610000 -> 0x630000, cc, 980
0x620000 -> 0x640000, cc, 980
0x630000 -> 0x650000, cc, 980
0x640000 -> 0x660000, cc, 980
0x650000 -> 0x670000, cc, 980
0x660000 -> 0x0, 0, 817
0x670000 -> 0x0, 0, 80f
0x680000 -> 0x6a0000, cc, 980
0x690000 -> 0x6b0000, cc, 980
0x6a0000 -> 0x6c0000, cc, 980
0x6b0000 -> 0x6d0000, cc, 980
0x6c0000 -> 0x6e0000, cc, 980
0x6d0000 -> 0x6f0000, cc, 980
0x6e0000 -> 0x0, 0, 80f
0x6f0000 -> 0x0, 0, 80f
0x700000 -> 0x720000, cc, 980
0x710000 -> 0x730000, cc, 980
0x720000 -> 0x740000, cc, 980
0x730000 -> 0x750000, cc, 980
0x740000 -> 0x760000, cc, 980
0x750000 -> 0x770000, cc, 980
0x760000 -> 0x0, 0, 817
0x770000 -> 0x0, 0, 80f
0x780000 -> 0x7a0000, cc, 980
0x790000 -> 0x7b0000, cc, 980
0x7a0000 -> 0x7c0000, cc, 980
0x7b0000 -> 0x7d0000, cc, 980
0x7c0000 -> 0x7e0000, cc, 980
0x7d0000 -> 0x7f0000, cc, 980
0x7e0000 -> 0x0, 0, 80f
0x7f0000 -> 0x0, 0, 80f
0x800000 -> 0x820000, cc, 980
0x810000 -> 0x830000, cc, 980
0x820000 -> 0x840000, cc, 980
0x830000 -> 0x850000, cc, 980
0x840000 -> 0x860000, cc, 980
0x850000 -> 0x870000, cc, 980
0x860000 -> 0x0, 0, 817
0x870000 -> 0x0, 0, 80f
0x880000 -> 0x8a0000, cc, 980
0x890000 -> 0x8b0000, cc, 980
0x8a0000 -> 0x8c0000, cc, 980
0x8b0000 -> 0x8d0000, cc, 980
0x8c0000 -> 0x8e0000, cc, 980
0x8d0000 -> 0x8f0000, cc, 980
0x8e0000 -> 0x0, 0, 80f
0x8f0000 -> 0x0, 0, 80f
0x900000 -> 0x920000, cc, 980
0x910000 -> 0x930000, cc, 980
0x920000 -> 0x940000, cc, 980
0x930000 -> 0x950000, cc, 980
0x940000 -> 0x960000, cc, 980
0x950000 -> 0x970000, cc, 980
0x960000 -> 0x0, 0, 817
0x970000 -> 0x0, 0, 80f
0x980000 -> 0x9a0000, cc, 980
0x990000 -> 0x9b0000, cc, 980
0x9a0000 -> 0x9c0000, cc, 980
0x9b0000 -> 0x9d0000, cc, 980
0x9c0000 -> 0x9e0000, cc, 980
0x9d0000 -> 0x9f0000, cc, 980
0x9e0000 -> 0x0, 0, 80f
0x9f0000 -> 0x0, 0, 80f
0xa00000 -> 0xa20000, cc, 980
0xa10000 -> 0xa30000, cc, 980
0xa20000 -> 0xa40000, cc, 980
0xa30000 -> 0xa50000, cc, 980
0xa40000 -> 0xa60000, cc, 980
0xa50000 -> 0xa70000, cc, 980
0xa60000 -> 0x0, 0, 817
0xa70000 -> 0x0, 0, 80f
0xa80000 -> 0xaa0000, cc, 980
0xa90000 -> 0xab0000, cc, 980
0xaa0000 -> 0xac0000, cc, 980
0xab0000 -> 0xad0000, cc, 980
0xac0000 -> 0xae0000, cc, 980
0xad0000 -> 0xaf0000, cc, 980
0xae0000 -> 0x0, 0, 80f
0xaf0000 -> 0x0, 0, 80f
0xb00000 -> 0xb20000, cc, 980
0xb10000 -> 0xb30000, cc, 980
0xb20000 -> 0xb40000, cc, 980
0xb30000 -> 0xb50000, cc, 980
0xb40000 -> 0xb60000, cc, 980
0xb50000 -> 0xb70000, cc, 980
0xb60000 -> 0x0, 0, 817
0xb70000 -> 0x0, 0, 80f
0xb80000 -> 0xba0000, cc, 980
0xb90000 -> 0xbb0000, cc, 980
0xba0000 -> 0xbc0000, cc, 980
0xbb0000 -> 0xbd0000, cc, 980
0xbc0000 -> 0xbe0000, cc, 980
0xbd0000 -> 0xbf0000, cc, 980
0xbe0000 -> 0x0, 0, 80f
0xbf0000 -> 0x0, 0, 80f
0xc00000 -> 0xc20000, cc, 980
0xc10000 -> 0xc30000, cc, 980
0xc20000 -> 0xc40000, cc, 980
0xc30000 -> 0xc50000, cc, 980
0xc40000 -> 0xc60000, cc, 980
0xc50000 -> 0xc70000, cc, 980
0xc60000 -> 0x0, 0, 817
0xc70000 -> 0x0, 0, 80f
0xc80000 -> 0xca0000, cc, 980
0xc90000 -> 0xcb0000, cc, 980
0xca0000 -> 0xcc0000, cc, 980
0xcb0000 -> 0xcd0000, cc, 980
0xcc0000 -> 0xce0000, cc, 980
0xcd0000 -> 0xcf0000, cc, 980
0xce0000 -> 0x0, 0, 80f
0xcf0000 -> 0x0, 0, 80f
0xd00000 -> 0xd20000, cc, 980
0xd10000 -> 0xd30000, cc, 980
0xd20000 -> 0xd40000, cc, 980
0xd30000 -> 0xd50000, cc, 980
0xd40000 -> 0xd60000, cc, 980
0xd50000 -> 0xd70000, cc, 980
0xd60000 -> 0x0, 0, 817
0xd70000 -> 0x0, 0, 80f
0xd80000 -> 0xda0000, cc, 980
0xd90000 -> 0xdb0000, cc, 980
0xda0000 -> 0xdc0000, cc, 980
0xdb0000 -> 0xdd0000, cc, 980
0xdc0000 -> 0xde0000, cc, 980
0xdd0000 -> 0xdf0000, cc, 980
0xde0000 -> 0x0, 0, 80f
0xdf0000 -> 0x0, 0, 80f
0xe00000 -> 0xe20000, cc, 980
0xe10000 -> 0xe30000, cc, 980
0xe20000 -> 0xe40000, cc, 980
0xe30000 -> 0xe50000, cc, 980
0xe40000 -> 0xe60000, cc, 980
0xe50000 -> 0xe70000, cc, 980
0xe60000 -> 0x0, 0, 817
0xe70000 -> 0x0, 0, 80f
0xe80000 -> 0xea0000, cc, 980
0xe90000 -> 0xeb0000, cc, 980
0xea0000 -> 0xec0000, cc, 980
0xeb0000 -> 0xed0000, cc, 980
0xec0000 -> 0xee0000, cc, 980
0xed0000 -> 0xef0000, cc, 980
0xee0000 -> 0x0, 0, 80f
0xef0000 -> 0x0, 0, 80f
0xf00000 -> 0xf20000, cc, 980
0xf10000 -> 0xf30000, cc, 980
0xf20000 -> 0xf40000, cc, 980
0xf30000 -> 0xf50000, cc, 980
0xf40000 -> 0xf60000, cc, 980
0xf50000 -> 0xf70000, cc, 980
0xf60000 -> 0x0, 0, 817
0xf70000 -> 0x0, 0, 80f
0xf80000 -> 0xfa0000, cc, 980
0xf90000 -> 0xfb0000, cc, 980
0xfa0000 -> 0xfc0000, cc, 980
0xfb0000 -> 0xfd0000, cc, 980
0xfc0000 -> 0xfe0000, cc, 980
0xfd0000 -> 0xff0000, cc, 980
0xfe0000 -> 0x0, 0, 80f
0xff0000 -> 0x0, 0, 80f
0x1000000 -> 0x1020000, cc, 980
0x1010000 -> 0x1030000, cc, 980
0x1020000 -> 0x1040000, cc, 980
0x1030000 -> 0x1050000, cc, 980
0x1040000 -> 0x1060000, cc, 980
0x1050000 -> 0x1070000, cc, 980
0x1060000 -> 0x0, 0, 817
0x1070000 -> 0x0, 0, 80f
0x1080000 -> 0x10a0000, cc, 980
0x1090000 -> 0x10b0000, cc, 980
0x10a0000 -> 0x10c0000, cc, 980
0x10b0000 -> 0x10d0000, cc, 980
0x10c0000 -> 0x10e0000, cc, 980
0x10d0000 -> 0x10f0000, cc, 980
0x10e0000 -> 0x0, 0, 80f
0x10f0000 -> 0x0, 0, 80f
0x1100000 -> 0x1120000, cc, 980
0x1110000 -> 0x1130000, cc, 980
0x1120000 -> 0x1140000, cc, 980
0x1130000 -> 0x1150000, cc, 980
0x1140000 -> 0x1160000, cc, 980
0x1150000 -> 0x1170000, cc, 980
0x1160000 -> 0x0, 0, 817
0x1170000 -> 0x0, 0, 80f
0x1180000 -> 0x11a0000, cc, 980
0x1190000 -> 0x11b0000, cc, 980
0x11a0000 -> 0x11c0000, cc, 980
0x11b0000 -> 0x11d0000, cc, 980
0x11c0000 -> 0x11e0000, cc, 980
0x11d0000 -> 0x11f0000, cc, 980
0x11e0000 -> 0x0, 0, 80f
0x11f0000 -> 0x0, 0, 80f
0x1200000 -> 0x1220000, cc, 980
0x1210000 -> 0x1230000, cc, 980
0x1220000 -> 0x1240000, cc, 980
0x1230000 -> 0x1250000, cc, 980
0x1240000 -> 0x1260000, cc, 980
0x1250000 -> 0x1270000, cc, 980
0x1260000 -> 0x0, 0, 817
0x1270000 -> 0x0, 0, 80f
0x1280000 -> 0x12a0000, cc, 980
0x1290000 -> 0x12b0000, cc, 980
0x12a0000 -> 0x12c0000, cc, 980
0x12b0000 -> 0x12d0000, cc, 980
0x12c0000 -> 0x12e0000, cc, 980
0x12d0000 -> 0x12f0000, cc, 980
0x12e0000 -> 0x0, 0, 80f
0x12f0000 -> 0x0, 0, 80f
0x1300000 -> 0x1320000, cc, 980
0x1310000 -> 0x1330000, cc, 980
0x1320000 -> 0x1340000, cc, 980
0x1330000 -> 0x1350000, cc, 980
0x1340000 -> 0x1360000, cc, 980
0x1350000 -> 0x1370000, cc, 980
0x1360000 -> 0x0, 0, 817
0x1370000 -> 0x0, 0, 80f
0x1380000 -> 0x13a0000, cc, 980
0x1390000 -> 0x13b0000, cc, 980
0x13a0000 -> 0x13c0000, cc, 980
0x13b0000 -> 0x13d0000, cc, 980
0x13c0000 -> 0x13e0000, cc, 980
0x13d0000 -> 0x13f0000, cc, 980
0x13e0000 -> 0x0, 0, 80f
0x13f0000 -> 0x0, 0, 80f
0x1400000 -> 0x1420000, cc, 980
0x1410000 -> 0x1430000, cc, 980
0x1420000 -> 0x1440000, cc, 980
0x1430000 -> 0x1450000, cc, 980
0x1440000 -> 0x1460000, cc, 980
0x1450000 -> 0x1470000, cc, 980
0x1460000 -> 0x0, 0, 817
0x1470000 -> 0x0, 0, 80f
0x1480000 -> 0x14a0000, cc, 980
0x1490000 -> 0x14b0000, cc, 980
0x14a0000 -> 0x14c0000, cc, 980
0x14b0000 -> 0x14d0000, cc, 980
0x14c0000 -> 0x14e0000, cc, 980
0x14d0000 -> 0x14f0000, cc, 980
0x14e0000 -> 0x0, 0, 80f
0x14f0000 -> 0x0, 0, 80f
0x1500000 -> 0x1520000, cc, 980
0x1510000 -> 0x1530000, cc, 980
0x1520000 -> 0x1540000, cc, 980
0x1530000 -> 0x1550000, cc, 980
0x1540000 -> 0x1560000, cc, 980
0x1550000 -> 0x1570000, cc, 980
0x1560000 -> 0x0, 0, 817
0x1570000 -> 0x0, 0, 80f
0x1580000 -> 0x15a0000, cc, 980
0x1590000 -> 0x15b0000, cc, 980
0x15a0000 -> 0x15c0000, cc, 980
0x15b0000 -> 0x15d0000, cc, 980
0x15c0000 -> 0x15e0000, cc, 980
0x15d0000 -> 0x15f0000, cc, 980
0x15e0000 -> 0x0, 0, 80f
0x15f0000 -> 0x0, 0, 80f
0x1600000 -> 0x1620000, cc, 980
0x1610000 -> 0x1630000, cc, 980
0x1620000 -> 0x1640000, cc, 980
0x1630000 -> 0x1650000, cc, 980
0x1640000 -> 0x1660000, cc, 980
0x1650000 -> 0x1670000, cc, 980
0x1660000 -> 0x0, 0, 817
0x1670000 -> 0x0, 0, 80f
0x1680000 -> 0x16a0000, cc, 980
0x1690000 -> 0x16b0000, cc, 980
0x16a0000 -> 0x16c0000, cc, 980
0x16b0000 -> 0x16d0000, cc, 980
0x16c0000 -> 0x16e0000, cc, 980
0x16d0000 -> 0x16f0000, cc, 980
0x16e0000 -> 0x0, 0, 80f
0x16f0000 -> 0x0, 0, 80f
0x1700000 -> 0x1720000, cc, 980
0x1710000 -> 0x1730000, cc, 980
0x1720000 -> 0x1740000, cc, 980
0x1730000 -> 0x1750000, cc, 980
0x1740000 -> 0x1760000, cc, 980
0x1750000 -> 0x1770000, cc, 980
0x1760000 -> 0x0, 0, 817
0x1770000 -> 0x0, 0, 80f
0x1780000 -> 0x17a0000, cc, 980
0x1790000 -> 0x17b0000, cc, 980
0x17a0000 -> 0x17c0000, cc, 980
0x17b0000 -> 0x17d0000, cc, 980
0x17c0000 -> 0x17e0000, cc, 980
0x17d0000 -> 0x17f0000, cc, 980
0x17e0000 -> 0x0, 0, 80f
0x17f0000 -> 0x0, 0, 80f
0x1800000 -> 0x1820000, cc, 980
0x1810000 -> 0x1830000, cc, 980
0x1820000 -> 0x1840000, cc, 980
0x1830000 -> 0x1850000, cc, 980
0x1840000 -> 0x1860000, cc, 980
0x1850000 -> 0x1870000, cc, 980
0x1860000 -> 0x0, 0, 817
0x1870000 -> 0x0, 0, 80f
0x1880000 -> 0x18a0000, cc, 980
0x1890000 -> 0x18b0000, cc, 980
0x18a0000 -> 0x18c0000, cc, 980
0x18b0000 -> 0x18d0000, cc, 980
0x18c0000 -> 0x18e0000, cc, 980
0x18d0000 -> 0x18f0000, cc, 980
0x18e0000 -> 0x0, 0, 80f
0x18f0000 -> 0x0, 0, 80f
0x1900000 -> 0x1920000, cc, 980
0x1910000 -> 0x1930000, cc, 980
0x1920000 -> 0x1940000, cc, 980
0x1930000 -> 0x1950000, cc, 980
0x1940000 -> 0x1960000, cc, 980
0x1950000 -> 0x1970000, cc, 980
0x1960000 -> 0x0, 0, 817
0x1970000 -> 0x0, 0, 80f
0x1980000 -> 0x19a0000, cc, 980
0x1990000 -> 0x19b0000, cc, 980
0x19a0000 -> 0x19c0000, cc, 980
0x19b0000 -> 0x19d0000, cc, 980
0x19c0000 -> 0x19e0000, cc, 980
0x19d0000 -> 0x19f0000, cc, 980
0x19e0000 -> 0x0, 0, 80f
0x19f0000 -> 0x0, 0, 80f
0x1a00000 -> 0x1a20000, cc, 980
0x1a10000 -> 0x1a30000, cc, 980
0x1a20000 -> 0x1a40000, cc, 980
0x1a30000 -> 0x1a50000, cc, 980
0x1a40000 -> 0x1a60000, cc, 980
0x1a50000 -> 0x1a70000, cc, 980
0x1a60000 -> 0x0, 0, 817
0x1a70000 -> 0x0, 0, 80f
0x1a80000 -> 0x1aa0000, cc, 980
0x1a90000 -> 0x1ab0000, cc, 980
0x1aa0000 -> 0x1ac0000, cc, 980
0x1ab0000 -> 0x1ad0000, cc, 980
0x1ac0000 -> 0x1ae0000, cc, 980
0x1ad0000 -> 0x1af0000, cc, 980
0x1ae0000 -> 0x0, 0, 80f
0x1af0000 -> 0x0, 0, 80f
0x1b00000 -> 0x1b20000, cc, 980
0x1b10000 -> 0x1b30000, cc, 980
0x1b20000 -> 0x1b40000, cc, 980
0x1b30000 -> 0x1b50000, cc, 980
0x1b40000 -> 0x1b60000, cc, 980
0x1b50000 -> 0x1b70000, cc, 980
0x1b60000 -> 0x0, 0, 817
0x1b70000 -> 0x0, 0, 80f
0x1b80000 -> 0x1ba0000, cc, 980
0x1b90000 -> 0x1bb0000, cc, 980
0x1ba0000 -> 0x1bc0000, cc, 980
0x1bb0000 -> 0x1bd0000, cc, 980
0x1bc0000 -> 0x1be0000, cc, 980
0x1bd0000 -> 0x1bf0000, cc, 980
0x1be0000 -> 0x0, 0, 80f
0x1bf0000 -> 0x0, 0, 80f
0x1c00000 -> 0x1c20000, cc, 980
0x1c10000 -> 0x1c30000, cc, 980
0x1c20000 -> 0x1c40000, cc, 980
0x1c30000 -> 0x1c50000, cc, 980
0x1c40000 -> 0x1c60000, cc, 980
0x1c50000 -> 0x1c70000, cc, 980
0x1c60000 -> 0x0, 0, 817
0x1c70000 -> 0x0, 0, 80f
0x1c80000 -> 0x1ca0000, cc, 980
0x1c90000 -> 0x1cb0000, cc, 980
0x1ca0000 -> 0x1cc0000, cc, 980
0x1cb0000 -> 0x1cd0000, cc, 980
0x1cc0000 -> 0x1ce0000, cc, 980
0x1cd0000 -> 0x1cf0000, cc, 980
0x1ce0000 -> 0x0, 0, 80f
0x1cf0000 -> 0x0, 0, 80f
0x1d00000 -> 0x1d20000, cc, 980
0x1d10000 -> 0x1d30000, cc, 980
0x1d20000 -> 0x1d40000, cc, 980
0x1d30000 -> 0x1d50000, cc, 980
0x1d40000 -> 0x1d60000, cc, 980
0x1d50000 -> 0x1d70000, cc, 980
0x1d60000 -> 0x0, 0, 817
0x1d70000 -> 0x0, 0, 80f
0x1d80000 -> 0x1da0000, cc, 980
0x1d90000 -> 0x1db0000, cc, 980
0x1da0000 -> 0x1dc0000, cc, 980
0x1db0000 -> 0x1dd0000, cc, 980
0x1dc0000 -> 0x1de0000, cc, 980
0x1dd0000 -> 0x1df0000, cc, 980
0x1de0000 -> 0x0, 0, 80f
0x1df0000 -> 0x0, 0, 80f
0x1e00000 -> 0x1e20000, cc, 980
0x1e10000 -> 0x1e30000, cc, 980
0x1e20000 -> 0x1e40000, cc, 980
0x1e30000 -> 0x1e50000, cc, 980
0x1e40000 -> 0x1e60000, cc, 980
0x1e50000 -> 0x1e70000, cc, 980
0x1e60000 -> 0x0, 0, 817
0x1e70000 -> 0x0, 0, 80f
0x1e80000 -> 0x1ea0000, cc, 980
0x1e90000 -> 0x1eb0000, cc, 980
0x1ea0000 -> 0x1ec0000, cc, 980
0x1eb0000 -> 0x1ed0000, cc, 980
0x1ec0000 -> 0x1ee0000, cc, 980
0x1ed0000 -> 0x1ef0000, cc, 980
0x1ee0000 -> 0x0, 0, 80f
0x1ef0000 -> 0x0, 0, 80f
0x1f00000 -> 0x1f20000, cc, 980
0x1f10000 -> 0x1f30000, cc, 980
0x1f20000 -> 0x1f40000, cc, 980
0x1f30000 -> 0x1f50000, cc, 980
0x1f40000 -> 0x1f60000, cc, 980
0x1f50000 -> 0x1f70000, cc, 980
0x1f60000 -> 0x0, 0, 817
0x1f70000 -> 0x0, 0, 80f
0x1f80000 -> 0x1fa0000, cc, 980
0x1f90000 -> 0x1fb0000, cc, 980
0x1fa0000 -> 0x1fc0000, cc, 980
0x1fb0000 -> 0x1fd0000, cc, 980
0x1fc0000 -> 0x1fe0000, cc, 980
0x1fd0000 -> 0x1ff0000, cc, 980
0x1fe0000 -> 0x0, 0, 80f
0x1ff0000 -> 0x0, 0, 80f
0x2000000 -> 0x2020000, cc, 980
0x2010000 -> 0x2030000, cc, 980
0x2020000 -> 0x2040000, cc, 980
0x2030000 -> 0x2050000, cc, 980
0x2040000 -> 0x2060000, cc, 980
0x2050000 -> 0x2070000, cc, 980
0x2060000 -> 0x0, 0, 80f
0x2070000 -> 0x0, 0, 80f
0x2080000 -> 0x20a0000, cc, 980
0x2090000 -> 0x20b0000, cc, 980
0x20a0000 -> 0x20c0000, cc, 980
0x20b0000 -> 0x20d0000, cc, 980
0x20c0000 -> 0x20e0000, cc, 980
0x20d0000 -> 0x20f0000, cc, 980
0x20e0000 -> 0x0, 0, 817
0x20f0000 -> 0x0, 0, 80f
0x2100000 -> 0x2120000, cc, 980
0x2110000 -> 0x2130000, cc, 980
0x2120000 -> 0x2140000, cc, 980
0x2130000 -> 0x2150000, cc, 980
0x2140000 -> 0x2160000, cc, 980
0x2150000 -> 0x2170000, cc, 980
0x2160000 -> 0x0, 0, 80f
0x2170000 -> 0x0, 0, 80f
0x2180000 -> 0x21a0000, cc, 980
0x2190000 -> 0x21b0000, cc, 980
0x21a0000 -> 0x21c0000, cc, 980
0x21b0000 -> 0x21d0000, cc, 980
0x21c0000 -> 0x21e0000, cc, 980
0x21d0000 -> 0x21f0000, cc, 980
0x21e0000 -> 0x0, 0, 817
0x21f0000 -> 0x0, 0, 80f
0x2200000 -> 0x2220000, cc, 980
0x2210000 -> 0x2230000, cc, 980
0x2220000 -> 0x2240000, cc, 980
0x2230000 -> 0x2250000, cc, 980
0x2240000 -> 0x2260000, cc, 980
0x2250000 -> 0x2270000, cc, 980
0x2260000 -> 0x0, 0, 80f
0x2270000 -> 0x0, 0, 80f
0x2280000 -> 0x22a0000, cc, 980
0x2290000 -> 0x22b0000, cc, 980
0x22a0000 -> 0x22c0000, cc, 980
0x22b0000 -> 0x22d0000, cc, 980
0x22c0000 -> 0x22e0000, cc, 980
0x22d0000 -> 0x22f0000, cc, 980
0x22e0000 -> 0x0, 0, 817
0x22f0000 -> 0x0, 0, 80f
0x2300000 -> 0x2320000, cc, 980
0x2310000 -> 0x2330000, cc, 980
0x2320000 -> 0x2340000, cc, 980
0x2330000 -> 0x2350000, cc, 980
0x2340000 -> 0x2360000, cc, 980
0x2350000 -> 0x2370000, cc, 980
0x2360000 -> 0x0, 0, 80f
0x2370000 -> 0x0, 0, 80f
0x2380000 -> 0x23a0000, cc, 980
0x2390000 -> 0x23b0000, cc, 980
0x23a0000 -> 0x23c0000, cc, 980
0x23b0000 -> 0x23d0000, cc, 980
0x23c0000 -> 0x23e0000, cc, 980
0x23d0000 -> 0x23f0000, cc, 980
0x23e0000 -> 0x0, 0, 817
0x23f0000 -> 0x0, 0, 80f
0x2400000 -> 0x2420000, cc, 980
0x2410000 -> 0x2430000, cc, 980
0x2420000 -> 0x2440000, cc, 980
0x2430000 -> 0x2450000, cc, 980
0x2440000 -> 0x2460000, cc, 980
0x2450000 -> 0x2470000, cc, 980
0x2460000 -> 0x0, 0, 80f
0x2470000 -> 0x0, 0, 80f
0x2480000 -> 0x24a0000, cc, 980
0x2490000 -> 0x24b0000, cc, 980
0x24a0000 -> 0x24c0000, cc, 980
0x24b0000 -> 0x24d0000, cc, 980
0x24c0000 -> 0x24e0000, cc, 980
0x24d0000 -> 0x24f0000, cc, 980
0x24e0000 -> 0x0, 0, 817
0x24f0000 -> 0x0, 0, 80f
