I,J,CNT
50,50,2500
50,50,2500
50,50,2500
50,50,2500
50,50,2500
50,50,2500
50,50,2500
50,50,2500
50,50,2500
50,50,2500
50,50,2500
50,50,2500
50,50,2500
50,50,2500
50,50,2500
50,50,2500
50,50,2500
50,50,2500
50,50,2500
50,50,2500
50,50,2500
50,50,2500
50,50,2500
50,50,2500
50,50,2500
50,50,2500
50,50,2500
50,50,2500
50,50,2500
50,50,2500
50,50,2500
50,50,2500
50,50,2500
50,50,2500
50,50,2500
50,50,2500
50,50,2500
50,50,2500
50,50,2500
50,50,2500
50,50,2500
50,50,2500
50,50,2500
50,50,2500
50,50,2500
50,50,2500
50,50,2500
50,50,2500
50,50,2500
50,50,2500
50,50,2500
50,50,2500
50,50,2500
50,50,2500
50,50,2500
50,50,2500
50,50,2500
50,50,2500
50,50,2500
50,50,2500
50,50,2500
50,50,2500
50,50,2500
50,50,2500
50,50,2500
50,50,2500
50,50,2500
50,50,2500
50,50,2500
50,50,2500
50,50,2500
50,50,2500
50,50,2500
50,50,2500
50,50,2500
50,50,2500
50,50,2500
50,50,2500
50,50,2500
50,50,2500
50,50,2500
50,50,2500
50,50,2500
50,50,2500
50,50,2500
50,50,2500
50,50,2500
50,50,2500
50,50,2500
50,50,2500
50,50,2500
50,50,2500
50,50,2500
50,50,2500
50,50,2500
50,50,2500
50,50,2500
50,50,2500
50,50,2500
50,50,2500
50,50,2500
50,50,2500
50,50,2500
50,50,2500
50,50,2500
50,50,2500
50,50,2500
50,50,2500
50,50,2500
50,50,2500
50,50,2500
50,50,2500
50,50,2500
50,50,2500
50,50,2500
50,50,2500
50,50,2500
50,50,2500
50,50,2500
50,50,2500
50,50,2500
50,50,2500
50,50,2500
50,50,2500
50,50,2500
50,50,2500
50,50,2500
50,50,2500
50,50,2500
50,50,2500
50,50,2500
50,50,2500
50,50,2500
50,50,2500
50,50,2500
50,50,2500
50,50,2500
50,50,2500
50,50,2500
50,50,2500
50,50,2500
50,50,2500
50,50,2500
50,50,2500
50,50,2500
50,50,2500
50,50,2500
50,50,2500
50,50,2500
50,50,2500
50,50,2500
50,50,2500
50,50,2500
50,50,2500
50,50,2500
50,50,2500
50,50,2500
50,50,2500
50,50,2500
50,50,2500
50,50,2500
50,50,2500
50,50,2500
50,50,2500
50,50,2500
50,50,2500
50,50,2500
50,50,2500
50,50,2500
50,50,2500
50,50,2500
50,50,2500
50,50,2500
50,50,2500
50,50,2500
50,50,2500
50,50,2500
50,50,2500
50,50,2500
50,50,2500
50,50,2500
50,50,2500
50,50,2500
50,50,2500
50,50,2500
50,50,2500
50,50,2500
50,50,2500
50,50,2500
50,50,2500
50,50,2500
50,50,2500
50,50,2500
50,50,2500
50,50,2500
50,50,2500
50,50,2500
50,50,2500
50,50,2500
50,50,2500
50,50,2500
50,50,2500
50,50,2500
50,50,2500
50,50,2500
50,50,2500
50,50,2500
50,50,2500
50,50,2500
50,50,2500
50,50,2500
50,50,2500
50,50,2500
50,50,2500
50,50,2500
50,50,2500
50,50,2500
50,50,2500
50,50,2500
50,50,2500
50,50,2500
50,50,2500
50,50,2500
50,50,2500
50,50,2500
50,50,2500
50,50,2500
50,50,2500
50,50,2500
50,50,2500
50,50,2500
50,50,2500
50,50,2500
50,50,2500
50,50,2500
50,50,2500
50,50,2500
50,50,2500
50,50,2500
50,50,2500
50,50,2500
50,50,2500
50,50,2500
50,50,2500
50,50,2500
50,50,2500
50,50,2500
50,50,2500
50,50,2500
50,50,2500
50,50,2500
50,50,2500
50,50,2500
50,50,2500
50,50,2500
50,50,2500
50,50,2500
50,50,2500
50,50,2500
50,50,2500
50,50,2500
50,50,2500
50,50,2500
50,50,2500
50,50,2500
50,50,2500
50,50,2500
50,50,2500
50,50,2500
50,50,2500
50,50,2500
50,50,2500
50,50,2500
50,50,2500
50,50,2500
50,50,2500
50,50,2500
50,50,2500
50,50,2500
50,50,2500
50,50,2500
50,50,2500
50,50,2500
50,50,2500
50,50,2500
50,50,2500
50,50,2500
50,50,2500
50,50,2500
50,50,2500
50,50,2500
50,50,2500
50,50,2500
50,50,2500
50,50,2500
50,50,2500
50,50,2500
50,50,2500
50,50,2500
50,50,2500
50,50,2500
50,50,2500
50,50,2500
50,50,2500
50,50,2500
50,50,2500
50,50,2500
50,50,2500
50,50,2500
50,50,2500
50,50,2500
50,50,2500
50,50,2500
50,50,2500
50,50,2500
50,50,2500
50,50,2500
50,50,2500
50,50,2500
50,50,2500
50,50,2500
50,50,2500
50,50,2500
50,50,2500
50,50,2500
50,50,2500
50,50,2500
50,50,2500
50,50,2500
50,50,2500
50,50,2500
50,50,2500
50,50,2500
50,50,2500
50,50,2500
50,50,2500
50,50,2500
50,50,2500
50,50,2500
50,50,2500
50,50,2500
50,50,2500
50,50,2500
50,50,2500
50,50,2500
50,50,2500
50,50,2500
50,50,2500
50,50,2500
50,50,2500
50,50,2500
50,50,2500
50,50,2500
50,50,2500
50,50,2500
50,50,2500
50,50,2500
50,50,2500
50,50,2500
50,50,2500
50,50,2500
50,50,2500
50,50,2500
50,50,2500
50,50,2500
50,50,2500
50,50,2500
50,50,2500
50,50,2500
50,50,2500
50,50,2500
50,50,2500
50,50,2500
50,50,2500
50,50,2500
50,50,2500
50,50,2500
50,50,2500
50,50,2500
50,50,2500
50,50,2500
50,50,2500
50,50,2500
50,50,2500
50,50,2500
50,50,2500
50,50,2500
50,50,2500
50,50,2500
50,50,2500
50,50,2500
50,50,2500
50,50,2500
50,50,2500
50,50,2500
50,50,2500
50,50,2500
50,50,2500
50,50,2500
50,50,2500
50,50,2500
50,50,2500
50,50,2500
50,50,2500
50,50,2500
50,50,2500
50,50,2500
50,50,2500
50,50,2500
50,50,2500
50,50,2500
50,50,2500
50,50,2500
50,50,2500
50,50,2500
50,50,2500
50,50,2500
50,50,2500
50,50,2500
50,50,2500
50,50,2500
50,50,2500
50,50,2500
50,50,2500
50,50,2500
50,50,2500
50,50,2500
50,50,2500
50,50,2500
50,50,2500
50,50,2500
50,50,2500
50,50,2500
50,50,2500
50,50,2500
50,50,2500
50,50,2500
50,50,2500
50,50,2500
50,50,2500
50,50,2500
50,50,2500
50,50,2500
50,50,2500
50,50,2500
50,50,2500
50,50,2500
50,50,2500
50,50,2500
50,50,2500
50,50,2500
50,50,2500
50,50,2500
50,50,2500
50,50,2500
50,50,2500
50,50,2500
50,50,2500
50,50,2500
50,50,2500
50,50,2500
50,50,2500
50,50,2500
50,50,2500
50,50,2500
50,50,2500
50,50,2500
50,50,2500
50,50,2500
50,50,2500
50,50,2500
50,50,2500
50,50,2500
50,50,2500
50,50,2500
50,50,2500
50,50,2500
50,50,2500
50,50,2500
50,50,2500
50,50,2500
50,50,2500
50,50,2500
50,50,2500
50,50,2500
50,50,2500
50,50,2500
50,50,2500
50,50,2500
50,50,2500
50,50,2500
50,50,2500
50,50,2500
50,50,2500
50,50,2500
50,50,2500
50,50,2500
50,50,2500
50,50,2500
50,50,2500
50,50,2500
50,50,2500
50,50,2500
50,50,2500
50,50,2500
50,50,2500
50,50,2500
50,50,2500
50,50,2500
50,50,2500
50,50,2500
50,50,2500
50,50,2500
50,50,2500
50,50,2500
50,50,2500
50,50,2500
50,50,2500
50,50,2500
50,50,2500
50,50,2500
50,50,2500
50,50,2500
50,50,2500
50,50,2500
50,50,2500
50,50,2500
50,50,2500
50,50,2500
50,50,2500
50,50,2500
50,50,2500
50,50,2500
50,50,2500
50,50,2500
50,50,2500
50,50,2500
50,50,2500
50,50,2500
50,50,2500
50,50,2500
50,50,2500
50,50,2500
50,50,2500
50,50,2500
50,50,2500
50,50,2500
50,50,2500
50,50,2500
50,50,2500
50,50,2500
50,50,2500
50,50,2500
50,50,2500
50,50,2500
50,50,2500
50,50,2500
50,50,2500
50,50,2500
50,50,2500
50,50,2500
50,50,2500
50,50,2500
50,50,2500
50,50,2500
50,50,2500
50,50,2500
50,50,2500
50,50,2500
50,50,2500
50,50,2500
50,50,2500
50,50,2500
50,50,2500
50,50,2500
50,50,2500
50,50,2500
50,50,2500
50,50,2500
50,50,2500
50,50,2500
50,50,2500
50,50,2500
50,50,2500
50,50,2500
50,50,2500
50,50,2500
50,50,2500
50,50,2500
50,50,2500
50,50,2500
50,50,2500
50,50,2500
50,50,2500
50,50,2500
50,50,2500
50,50,2500
50,50,2500
50,50,2500
50,50,2500
50,50,2500
50,50,2500
50,50,2500
50,50,2500
50,50,2500
50,50,2500
50,50,2500
50,50,2500
50,50,2500
50,50,2500
50,50,2500
50,50,2500
50,50,2500
50,50,2500
50,50,2500
50,50,2500
50,50,2500
50,50,2500
50,50,2500
50,50,2500
50,50,2500
50,50,2500
50,50,2500
50,50,2500
50,50,2500
50,50,2500
50,50,2500
50,50,2500
50,50,2500
50,50,2500
50,50,2500
50,50,2500
50,50,2500
50,50,2500
50,50,2500
50,50,2500
50,50,2500
50,50,2500
50,50,2500
50,50,2500
50,50,2500
50,50,2500
50,50,2500
50,50,2500
50,50,2500
50,50,2500
50,50,2500
50,50,2500
50,50,2500
50,50,2500
50,50,2500
50,50,2500
50,50,2500
50,50,2500
50,50,2500
50,50,2500
50,50,2500
50,50,2500
50,50,2500
50,50,2500
50,50,2500
50,50,2500
50,50,2500
50,50,2500
50,50,2500
50,50,2500
50,50,2500
50,50,2500
50,50,2500
50,50,2500
50,50,2500
50,50,2500
50,50,2500
50,50,2500
50,50,2500
50,50,2500
50,50,2500
50,50,2500
50,50,2500
50,50,2500
50,50,2500
50,50,2500
50,50,2500
50,50,2500
50,50,2500
50,50,2500
50,50,2500
50,50,2500
50,50,2500
50,50,2500
50,50,2500
50,50,2500
50,50,2500
50,50,2500
50,50,2500
50,50,2500
50,50,2500
50,50,2500
50,50,2500
50,50,2500
50,50,2500
50,50,2500
50,50,2500
50,50,2500
50,50,2500
50,50,2500
50,50,2500
50,50,2500
50,50,2500
50,50,2500
50,50,2500
50,50,2500
50,50,2500
50,50,2500
50,50,2500
50,50,2500
50,50,2500
50,50,2500
50,50,2500
50,50,2500
50,50,2500
50,50,2500
50,50,2500
50,50,2500
50,50,2500
50,50,2500
50,50,2500
50,50,2500
50,50,2500
50,50,2500
50,50,2500
50,50,2500
50,50,2500
50,50,2500
50,50,2500
50,50,2500
50,50,2500
50,50,2500
50,50,2500
50,50,2500
50,50,2500
50,50,2500
50,50,2500
50,50,2500
50,50,2500
50,50,2500
50,50,2500
50,50,2500
50,50,2500
50,50,2500
50,50,2500
50,50,2500
50,50,2500
50,50,2500
50,50,2500
50,50,2500
50,50,2500
50,50,2500
50,50,2500
50,50,2500
50,50,2500
50,50,2500
50,50,2500
50,50,2500
50,50,2500
50,50,2500
50,50,2500
50,50,2500
50,50,2500
50,50,2500
50,50,2500
50,50,2500
50,50,2500
50,50,2500
50,50,2500
50,50,2500
50,50,2500
50,50,2500
50,50,2500
50,50,2500
50,50,2500
50,50,2500
50,50,2500
50,50,2500
50,50,2500
50,50,2500
50,50,2500
50,50,2500
50,50,2500
50,50,2500
50,50,2500
50,50,2500
50,50,2500
50,50,2500
50,50,2500
50,50,2500
50,50,2500
50,50,2500
50,50,2500
50,50,2500
50,50,2500
50,50,2500
50,50,2500
50,50,2500
50,50,2500
50,50,2500
50,50,2500
50,50,2500
50,50,2500
50,50,2500
50,50,2500
50,50,2500
50,50,2500
50,50,2500
50,50,2500
50,50,2500
50,50,2500
50,50,2500
50,50,2500
50,50,2500
50,50,2500
50,50,2500
50,50,2500
50,50,2500
50,50,2500
50,50,2500
50,50,2500
50,50,2500
50,50,2500
50,50,2500
50,50,2500
50,50,2500
50,50,2500
50,50,2500
50,50,2500
50,50,2500
50,50,2500
50,50,2500
50,50,2500
50,50,2500
50,50,2500
50,50,2500
50,50,2500
50,50,2500
50,50,2500
50,50,2500
50,50,2500
50,50,2500
50,50,2500
50,50,2500
50,50,2500
50,50,2500
50,50,2500
50,50,2500
50,50,2500
50,50,2500
50,50,2500
50,50,2500
50,50,2500
50,50,2500
50,50,2500
50,50,2500
50,50,2500
50,50,2500
50,50,2500
50,50,2500
50,50,2500
50,50,2500
50,50,2500
50,50,2500
50,50,2500
50,50,2500
50,50,2500
50,50,2500
50,50,2500
50,50,2500
50,50,2500
50,50,2500
50,50,2500
50,50,2500
50,50,2500
50,50,2500
50,50,2500
50,50,2500
50,50,2500
50,50,2500
50,50,2500
50,50,2500
50,50,2500
50,50,2500
50,50,2500
50,50,2500
50,50,2500
50,50,2500
50,50,2500
50,50,2500
50,50,2500
50,50,2500
50,50,2500
50,50,2500
50,50,2500
50,50,2500
50,50,2500
50,50,2500
50,50,2500
50,50,2500
50,50,2500
50,50,2500
50,50,2500
50,50,2500
50,50,2500
50,50,2500
50,50,2500
50,50,2500
50,50,2500
50,50,2500
50,50,2500
50,50,2500
50,50,2500
50,50,2500
50,50,2500
50,50,2500
50,50,2500
50,50,2500
50,50,2500
50,50,2500
50,50,2500
50,50,2500
50,50,2500
50,50,2500
50,50,2500
50,50,2500
50,50,2500
50,50,2500
50,50,2500
50,50,2500
50,50,2500
50,50,2500
50,50,2500
50,50,2500
50,50,2500
50,50,2500
50,50,2500
50,50,2500
50,50,2500
50,50,2500
50,50,2500
50,50,2500
50,50,2500
50,50,2500
50,50,2500
50,50,2500
50,50,2500
50,50,2500
50,50,2500
50,50,2500
50,50,2500
50,50,2500
50,50,2500
50,50,2500
50,50,2500
50,50,2500
50,50,2500
50,50,2500
50,50,2500
50,50,2500
50,50,2500
50,50,2500
50,50,2500
50,50,2500
50,50,2500
50,50,2500
50,50,2500
50,50,2500
50,50,2500
50,50,2500
50,50,2500
50,50,2500
50,50,2500
50,50,2500
50,50,2500
50,50,2500
50,50,2500
50,50,2500
50,50,2500
50,50,2500
50,50,2500
50,50,2500
50,50,2500
50,50,2500
50,50,2500
50,50,2500
50,50,2500
50,50,2500
50,50,2500
50,50,2500
50,50,2500
50,50,2500
50,50,2500
50,50,2500
50,50,2500
50,50,2500
50,50,2500
50,50,2500
50,50,2500
50,50,2500
50,50,2500
50,50,2500
50,50,2500
50,50,2500
50,50,2500
50,50,2500
50,50,2500
50,50,2500
50,50,2500
50,50,2500
50,50,2500
50,50,2500
50,50,2500
50,50,2500
50,50,2500
50,50,2500
50,50,2500
50,50,2500
50,50,2500
50,50,2500
50,50,2500
50,50,2500
50,50,2500
50,50,2500
50,50,2500
50,50,2500
50,50,2500
50,50,2500
50,50,2500
50,50,2500
50,50,2500
50,50,2500
50,50,2500
50,50,2500
50,50,2500
50,50,2500
50,50,2500
50,50,2500
50,50,2500
50,50,2500
50,50,2500
50,50,2500
50,50,2500
50,50,2500
50,50,2500
50,50,2500
50,50,2500
50,50,2500
50,50,2500
50,50,2500
50,50,2500
50,50,2500
50,50,2500
50,50,2500
50,50,2500
50,50,2500
50,50,2500
50,50,2500
50,50,2500
50,50,2500
50,50,2500
50,50,2500
50,50,2500
50,50,2500
50,50,2500
50,50,2500
50,50,2500
50,50,2500
50,50,2500
50,50,2500
50,50,2500
50,50,2500
50,50,2500
50,50,2500
50,50,2500
50,50,2500
50,50,2500
50,50,2500
50,50,2500
50,50,2500
50,50,2500
50,50,2500
50,50,2500
50,50,2500
50,50,2500
50,50,2500
50,50,2500
50,50,2500
50,50,2500
50,50,2500
50,50,2500
50,50,2500
50,50,2500
50,50,2500
50,50,2500
50,50,2500
50,50,2500
50,50,2500
50,50,2500
50,50,2500
50,50,2500
50,50,2500
50,50,2500
50,50,2500
50,50,2500
50,50,2500
50,50,2500
50,50,2500
50,50,2500
50,50,2500
50,50,2500
50,50,2500
50,50,2500
50,50,2500
50,50,2500
50,50,2500
50,50,2500
50,50,2500
50,50,2500
50,50,2500
50,50,2500
50,50,2500
50,50,2500
50,50,2500
50,50,2500
50,50,2500
50,50,2500
50,50,2500
50,50,2500
50,50,2500
50,50,2500
50,50,2500
50,50,2500
50,50,2500
50,50,2500
50,50,2500
50,50,2500
50,50,2500
50,50,2500
50,50,2500
50,50,2500
50,50,2500
50,50,2500
50,50,2500
50,50,2500
50,50,2500
50,50,2500
50,50,2500
50,50,2500
50,50,2500
50,50,2500
50,50,2500
50,50,2500
50,50,2500
50,50,2500
50,50,2500
50,50,2500
50,50,2500
50,50,2500
50,50,2500
50,50,2500
50,50,2500
50,50,2500
50,50,2500
50,50,2500
50,50,2500
50,50,2500
50,50,2500
50,50,2500
50,50,2500
50,50,2500
50,50,2500
50,50,2500
50,50,2500
50,50,2500
50,50,2500
50,50,2500
50,50,2500
50,50,2500
50,50,2500
50,50,2500
50,50,2500
50,50,2500
50,50,2500
50,50,2500
50,50,2500
50,50,2500
50,50,2500
50,50,2500
50,50,2500
50,50,2500
50,50,2500
50,50,2500
50,50,2500
50,50,2500
50,50,2500
50,50,2500
50,50,2500
50,50,2500
50,50,2500
50,50,2500
50,50,2500
50,50,2500
50,50,2500
50,50,2500
50,50,2500
50,50,2500
50,50,2500
50,50,2500
50,50,2500
50,50,2500
50,50,2500
50,50,2500
50,50,2500
50,50,2500
50,50,2500
50,50,2500
50,50,2500
50,50,2500
50,50,2500
50,50,2500
50,50,2500
50,50,2500
50,50,2500
50,50,2500
50,50,2500
50,50,2500
50,50,2500
50,50,2500
50,50,2500
50,50,2500
50,50,2500
50,50,2500
50,50,2500
50,50,2500
50,50,2500
50,50,2500
50,50,2500
50,50,2500
50,50,2500
50,50,2500
50,50,2500
50,50,2500
50,50,2500
50,50,2500
50,50,2500
50,50,2500
50,50,2500
50,50,2500
50,50,2500
50,50,2500
50,50,2500
50,50,2500
50,50,2500
50,50,2500
50,50,2500
50,50,2500
50,50,2500
50,50,2500
50,50,2500
50,50,2500
50,50,2500
50,50,2500
50,50,2500
50,50,2500
50,50,2500
50,50,2500
50,50,2500
50,50,2500
50,50,2500
50,50,2500
50,50,2500
50,50,2500
50,50,2500
50,50,2500
50,50,2500
50,50,2500
50,50,2500
50,50,2500
50,50,2500
50,50,2500
50,50,2500
50,50,2500
50,50,2500
50,50,2500
50,50,2500
50,50,2500
50,50,2500
50,50,2500
50,50,2500
50,50,2500
50,50,2500
50,50,2500
50,50,2500
50,50,2500
50,50,2500
50,50,2500
50,50,2500
50,50,2500
50,50,2500
50,50,2500
50,50,2500
50,50,2500
50,50,2500
50,50,2500
50,50,2500
50,50,2500
50,50,2500
50,50,2500
50,50,2500
50,50,2500
50,50,2500
50,50,2500
50,50,2500
50,50,2500
50,50,2500
50,50,2500
50,50,2500
50,50,2500
50,50,2500
50,50,2500
50,50,2500
50,50,2500
50,50,2500
50,50,2500
50,50,2500
50,50,2500
50,50,2500
50,50,2500
50,50,2500
50,50,2500
50,50,2500
50,50,2500
50,50,2500
50,50,2500
50,50,2500
50,50,2500
50,50,2500
50,50,2500
50,50,2500
50,50,2500
50,50,2500
50,50,2500
50,50,2500
50,50,2500
50,50,2500
50,50,2500
50,50,2500
50,50,2500
50,50,2500
50,50,2500
50,50,2500
50,50,2500
50,50,2500
50,50,2500
50,50,2500
50,50,2500
50,50,2500
50,50,2500
50,50,2500
50,50,2500
50,50,2500
50,50,2500
50,50,2500
50,50,2500
50,50,2500
50,50,2500
50,50,2500
50,50,2500
50,50,2500
50,50,2500
50,50,2500
50,50,2500
50,50,2500
50,50,2500
50,50,2500
50,50,2500
50,50,2500
50,50,2500
50,50,2500
50,50,2500
50,50,2500
50,50,2500
50,50,2500
50,50,2500
50,50,2500
50,50,2500
50,50,2500
50,50,2500
50,50,2500
50,50,2500
50,50,2500
50,50,2500
50,50,2500
50,50,2500
50,50,2500
50,50,2500
50,50,2500
50,50,2500
50,50,2500
50,50,2500
50,50,2500
50,50,2500
50,50,2500
50,50,2500
50,50,2500
50,50,2500
50,50,2500
50,50,2500
50,50,2500
50,50,2500
50,50,2500
50,50,2500
50,50,2500
50,50,2500
50,50,2500
50,50,2500
50,50,2500
50,50,2500
50,50,2500
50,50,2500
50,50,2500
50,50,2500
50,50,2500
50,50,2500
50,50,2500
50,50,2500
50,50,2500
50,50,2500
50,50,2500
50,50,2500
50,50,2500
50,50,2500
50,50,2500
50,50,2500
50,50,2500
50,50,2500
50,50,2500
50,50,2500
50,50,2500
50,50,2500
50,50,2500
50,50,2500
50,50,2500
50,50,2500
50,50,2500
50,50,2500
50,50,2500
50,50,2500
50,50,2500
50,50,2500
50,50,2500
50,50,2500
50,50,2500
50,50,2500
50,50,2500
50,50,2500
50,50,2500
50,50,2500
50,50,2500
50,50,2500
50,50,2500
50,50,2500
50,50,2500
50,50,2500
50,50,2500
50,50,2500
50,50,2500
50,50,2500
50,50,2500
50,50,2500
50,50,2500
50,50,2500
50,50,2500
50,50,2500
50,50,2500
50,50,2500
50,50,2500
50,50,2500
50,50,2500
50,50,2500
50,50,2500
50,50,2500
50,50,2500
50,50,2500
50,50,2500
50,50,2500
50,50,2500
50,50,2500
50,50,2500
50,50,2500
50,50,2500
50,50,2500
50,50,2500
50,50,2500
50,50,2500
50,50,2500
50,50,2500
50,50,2500
50,50,2500
50,50,2500
50,50,2500
50,50,2500
50,50,2500
50,50,2500
50,50,2500
50,50,2500
50,50,2500
50,50,2500
50,50,2500
50,50,2500
50,50,2500
50,50,2500
50,50,2500
50,50,2500
50,50,2500
50,50,2500
50,50,2500
50,50,2500
50,50,2500
50,50,2500
50,50,2500
50,50,2500
50,50,2500
50,50,2500
50,50,2500
50,50,2500
50,50,2500
50,50,2500
50,50,2500
50,50,2500
50,50,2500
50,50,2500
50,50,2500
50,50,2500
50,50,2500
50,50,2500
50,50,2500
50,50,2500
50,50,2500
50,50,2500
50,50,2500
50,50,2500
50,50,2500
50,50,2500
50,50,2500
50,50,2500
50,50,2500
50,50,2500
50,50,2500
50,50,2500
50,50,2500
50,50,2500
50,50,2500
50,50,2500
50,50,2500
50,50,2500
50,50,2500
50,50,2500
50,50,2500
50,50,2500
50,50,2500
50,50,2500
50,50,2500
50,50,2500
50,50,2500
50,50,2500
50,50,2500
50,50,2500
50,50,2500
50,50,2500
50,50,2500
50,50,2500
50,50,2500
50,50,2500
50,50,2500
50,50,2500
50,50,2500
50,50,2500
50,50,2500
50,50,2500
50,50,2500
50,50,2500
50,50,2500
50,50,2500
50,50,2500
50,50,2500
50,50,2500
50,50,2500
50,50,2500
50,50,2500
50,50,2500
50,50,2500
50,50,2500
50,50,2500
50,50,2500
50,50,2500
50,50,2500
50,50,2500
50,50,2500
50,50,2500
50,50,2500
50,50,2500
50,50,2500
50,50,2500
50,50,2500
50,50,2500
50,50,2500
50,50,2500
50,50,2500
50,50,2500
50,50,2500
50,50,2500
50,50,2500
50,50,2500
50,50,2500
50,50,2500
50,50,2500
50,50,2500
50,50,2500
50,50,2500
50,50,2500
50,50,2500
50,50,2500
50,50,2500
50,50,2500
50,50,2500
50,50,2500
50,50,2500
50,50,2500
50,50,2500
50,50,2500
50,50,2500
50,50,2500
50,50,2500
50,50,2500
50,50,2500
50,50,2500
50,50,2500
50,50,2500
50,50,2500
50,50,2500
50,50,2500
50,50,2500
50,50,2500
50,50,2500
50,50,2500
50,50,2500
50,50,2500
50,50,2500
50,50,2500
50,50,2500
50,50,2500
50,50,2500
50,50,2500
50,50,2500
50,50,2500
50,50,2500
50,50,2500
50,50,2500
50,50,2500
50,50,2500
50,50,2500
50,50,2500
50,50,2500
50,50,2500
50,50,2500
50,50,2500
50,50,2500
50,50,2500
50,50,2500
50,50,2500
50,50,2500
50,50,2500
50,50,2500
50,50,2500
50,50,2500
50,50,2500
50,50,2500
50,50,2500
50,50,2500
50,50,2500
50,50,2500
50,50,2500
50,50,2500
50,50,2500
50,50,2500
50,50,2500
50,50,2500
50,50,2500
50,50,2500
50,50,2500
50,50,2500
50,50,2500
50,50,2500
50,50,2500
50,50,2500
50,50,2500
50,50,2500
50,50,2500
50,50,2500
50,50,2500
50,50,2500
50,50,2500
50,50,2500
50,50,2500
50,50,2500
50,50,2500
50,50,2500
50,50,2500
50,50,2500
50,50,2500
50,50,2500
50,50,2500
50,50,2500
50,50,2500
50,50,2500
50,50,2500
50,50,2500
50,50,2500
50,50,2500
50,50,2500
50,50,2500
50,50,2500
50,50,2500
50,50,2500
50,50,2500
50,50,2500
50,50,2500
50,50,2500
50,50,2500
50,50,2500
50,50,2500
50,50,2500
50,50,2500
50,50,2500
50,50,2500
50,50,2500
50,50,2500
50,50,2500
50,50,2500
50,50,2500
50,50,2500
50,50,2500
50,50,2500
50,50,2500
50,50,2500
50,50,2500
50,50,2500
50,50,2500
50,50,2500
50,50,2500
50,50,2500
50,50,2500
50,50,2500
50,50,2500
50,50,2500
50,50,2500
50,50,2500
50,50,2500
50,50,2500
50,50,2500
50,50,2500
50,50,2500
50,50,2500
50,50,2500
50,50,2500
50,50,2500
50,50,2500
50,50,2500
50,50,2500
50,50,2500
50,50,2500
50,50,2500
50,50,2500
50,50,2500
50,50,2500
50,50,2500
50,50,2500
50,50,2500
50,50,2500
50,50,2500
50,50,2500
50,50,2500
50,50,2500
50,50,2500
50,50,2500
50,50,2500
50,50,2500
50,50,2500
50,50,2500
50,50,2500
50,50,2500
50,50,2500
50,50,2500
50,50,2500
50,50,2500
50,50,2500
50,50,2500
50,50,2500
50,50,2500
50,50,2500
50,50,2500
50,50,2500
50,50,2500
50,50,2500
50,50,2500
50,50,2500
50,50,2500
50,50,2500
50,50,2500
50,50,2500
50,50,2500
50,50,2500
50,50,2500
50,50,2500
50,50,2500
50,50,2500
50,50,2500
50,50,2500
50,50,2500
50,50,2500
50,50,2500
50,50,2500
50,50,2500
50,50,2500
50,50,2500
50,50,2500
50,50,2500
50,50,2500
50,50,2500
50,50,2500
50,50,2500
50,50,2500
50,50,2500
50,50,2500
50,50,2500
50,50,2500
50,50,2500
50,50,2500
50,50,2500
50,50,2500
50,50,2500
50,50,2500
50,50,2500
50,50,2500
50,50,2500
50,50,2500
50,50,2500
50,50,2500
50,50,2500
50,50,2500
50,50,2500
50,50,2500
50,50,2500
50,50,2500
50,50,2500
50,50,2500
50,50,2500
50,50,2500
50,50,2500
50,50,2500
50,50,2500
50,50,2500
50,50,2500
50,50,2500
50,50,2500
50,50,2500
50,50,2500
50,50,2500
50,50,2500
50,50,2500
50,50,2500
50,50,2500
50,50,2500
50,50,2500
50,50,2500
50,50,2500
50,50,2500
50,50,2500
50,50,2500
50,50,2500
50,50,2500
50,50,2500
50,50,2500
50,50,2500
50,50,2500
50,50,2500
50,50,2500
50,50,2500
50,50,2500
50,50,2500
50,50,2500
50,50,2500
50,50,2500
50,50,2500
50,50,2500
50,50,2500
50,50,2500
50,50,2500
50,50,2500
50,50,2500
50,50,2500
50,50,2500
50,50,2500
50,50,2500
50,50,2500
50,50,2500
50,50,2500
50,50,2500
50,50,2500
50,50,2500
50,50,2500
50,50,2500
50,50,2500
50,50,2500
50,50,2500
50,50,2500
50,50,2500
50,50,2500
50,50,2500
50,50,2500
50,50,2500
50,50,2500
50,50,2500
50,50,2500
50,50,2500
50,50,2500
50,50,2500
50,50,2500
50,50,2500
50,50,2500
50,50,2500
50,50,2500
50,50,2500
50,50,2500
50,50,2500
50,50,2500
50,50,2500
50,50,2500
50,50,2500
50,50,2500
50,50,2500
50,50,2500
50,50,2500
50,50,2500
50,50,2500
50,50,2500
50,50,2500
50,50,2500
50,50,2500
50,50,2500
50,50,2500
50,50,2500
50,50,2500
50,50,2500
50,50,2500
50,50,2500
50,50,2500
50,50,2500
50,50,2500
50,50,2500
50,50,2500
50,50,2500
50,50,2500
50,50,2500
50,50,2500
50,50,2500
50,50,2500
50,50,2500
50,50,2500
50,50,2500
50,50,2500
50,50,2500
50,50,2500
50,50,2500
50,50,2500
50,50,2500
50,50,2500
50,50,2500
50,50,2500
50,50,2500
50,50,2500
50,50,2500
50,50,2500
50,50,2500
50,50,2500
50,50,2500
50,50,2500
50,50,2500
50,50,2500
50,50,2500
50,50,2500
50,50,2501
50,50,2500
50,50,2500
50,50,2500
50,50,2500
50,50,2500
50,50,2500
50,50,2500
50,50,2500
50,50,2500
50,50,2500
50,50,2500
50,50,2500
50,50,2500
50,50,2500
50,50,2500
50,50,2500
50,50,2500
50,50,2500
50,50,2500
50,50,2500
50,50,2500
50,50,2500
50,50,2500
50,50,2500
50,50,2500
50,50,2500
50,50,2500
50,50,2500
50,50,2500
50,50,2500
50,50,2500
50,50,2500
50,50,2500
50,50,2500
50,50,2500
50,50,2500
50,50,2500
50,50,2500
50,50,2500
50,50,2500
50,50,2500
50,50,2500
50,50,2500
50,50,2500
50,50,2500
50,50,2500
50,50,2500
50,50,2500
50,50,2500
50,50,2500
50,50,2500
50,50,2500
50,50,2500
50,50,2500
50,50,2500
50,50,2500
50,50,2500
50,50,2500
50,50,2499
50,50,2500
50,50,2500
50,50,2500
50,50,2500
50,50,2500
50,50,2500
50,50,2500
50,50,2500
50,50,2500
50,50,2500
50,50,2500
50,50,2500
50,50,2500
50,50,2500
50,50,2500
50,50,2500
50,50,2500
50,50,2500
50,50,2500
50,50,2500
50,50,2500
50,50,2500
50,50,2500
50,50,2500
50,50,2500
50,50,2500
50,50,2500
50,50,2500
50,50,2500
50,50,2500
50,50,2500
50,50,2500
50,50,2500
50,50,2500
50,50,2500
50,50,2500
50,50,2500
50,50,2500
50,50,2500
50,50,2500
50,50,2500
50,50,2500
50,50,2500
50,50,2500
50,50,2500
50,50,2500
50,50,2500
50,50,2500
50,50,2500
50,50,2500
50,50,2500
50,50,2500
50,50,2500
50,50,2500
50,50,2500
50,50,2500
50,50,2500
50,50,2500
50,50,2500
50,50,2500
50,50,2500
50,50,2500
50,50,2500
50,50,2500
50,50,2500
50,50,2500
50,50,2500
50,50,2500
50,50,2500
50,50,2500
50,50,2500
50,50,2500
50,50,2500
50,50,2500
50,50,2500
50,50,2500
50,50,2500
50,50,2500
50,50,2500
50,50,2500
50,50,2500
50,50,2500
50,50,2500
50,50,2453
50,50,2500
50,50,2500
50,50,2500
50,50,2500
50,50,2500
50,50,2500
50,50,2500
50,50,2500
50,50,2500
50,50,2500
50,50,2500
50,50,2500
50,50,2500
50,50,2500
50,50,2500
50,50,2500
50,50,2500
50,50,2500
50,50,2500
50,50,2500
50,50,2500
50,50,2500
50,50,2500
50,50,2500
50,50,2500
50,50,2500
50,50,2500
50,50,2500
50,50,2500
50,50,2500
50,50,2500
50,50,2500
50,50,2500
50,50,2500
50,50,2500
50,50,2500
50,50,2500
50,50,2500
50,50,2500
50,50,2500
50,50,2500
50,50,2500
50,50,2500
50,50,2500
50,50,2500
50,50,2500
50,50,2500
50,50,2500
50,50,2500
50,50,2500
50,50,2500
50,50,2500
50,50,2500
50,50,2500
50,50,2500
50,50,2500
50,50,2500
50,50,2500
50,50,2500
50,50,2500
50,50,2500
50,50,2500
50,50,2500
50,50,2500
50,50,2500
50,50,2500
50,50,2500
50,50,2500
50,50,2500
50,50,2500
50,50,2500
50,50,2500
50,50,2500
50,50,2500
50,50,2500
50,50,2500
50,50,2500
50,50,2500
50,50,2500
50,50,2500
50,50,2500
50,50,2500
50,50,2500
50,50,2500
50,50,2500
50,50,2500
50,50,2500
50,50,2500
50,50,2500
50,50,2500
50,50,2500
50,50,2500
50,50,2500
50,50,2500
50,50,2500
50,50,2500
50,50,2500
50,50,2500
50,50,2500
50,50,2500
50,50,2500
50,50,2500
50,50,2500
50,50,2500
50,50,2500
50,50,2500
50,50,2500
50,50,2500
50,50,2500
50,50,2500
50,50,2500
50,50,2500
50,50,2500
50,50,2500
50,50,2500
50,50,2500
50,50,2500
50,50,2500
50,50,2500
50,50,2500
50,50,2500
50,50,2500
50,50,2500
50,50,2500
50,50,2500
50,50,2500
50,50,2500
50,50,2500
50,50,2500
50,50,2500
50,50,2500
50,50,2500
50,50,2500
50,50,2500
50,50,2500
50,50,2500
50,50,2500
50,50,2500
50,50,2500
50,50,2500
50,50,2500
50,50,2500
50,50,2500
50,50,2500
50,50,2500
50,50,2500
50,50,2500
50,50,2500
50,50,2500
50,50,2500
50,50,2500
50,50,2500
50,50,2500
50,50,2500
50,50,2500
50,50,2500
50,50,2500
50,50,2500
50,50,2500
50,50,2500
50,50,2500
50,50,2500
50,50,2500
50,50,2500
50,50,2500
50,50,2500
50,50,2500
50,50,2500
50,50,2500
50,50,2500
50,50,2500
50,50,2500
50,50,2500
50,50,2500
50,50,2500
50,50,2500
50,50,2500
50,50,2500
50,50,2500
50,50,2500
50,50,2500
50,50,2500
50,50,2500
50,50,2500
50,50,2500
50,50,2500
50,50,2500
50,50,2500
50,50,2500
50,50,2500
50,50,2500
50,50,2500
50,50,2500
50,50,2500
50,50,2500
50,50,2500
50,50,2500
50,50,2500
50,50,2500
50,50,2500
50,50,2500
50,50,2500
50,50,2500
50,50,2500
50,50,2500
50,50,2500
50,50,2500
50,50,2500
50,50,2500
50,50,2500
50,50,2500
50,50,2500
50,50,2500
50,50,2500
50,50,2500
50,50,2500
50,50,2500
50,50,2500
50,50,2500
50,50,2500
50,50,2500
50,50,2500
50,50,2500
50,50,2500
50,50,2500
50,50,2500
50,50,2500
50,50,2500
50,50,2500
50,50,2500
50,50,2500
50,50,2500
50,50,2500
50,50,2500
50,50,2500
50,50,2500
50,50,2500
50,50,2500
50,50,2500
50,50,2500
50,50,2500
50,50,2500
50,50,2500
50,50,2500
50,50,2500
50,50,2500
50,50,2500
50,50,2500
50,50,2500
50,50,2500
50,50,2500
50,50,2500
50,50,2500
50,50,2500
50,50,2500
50,50,2500
50,50,2500
50,50,2500
50,50,2500
50,50,2500
50,50,2500
50,50,2500
50,50,2500
50,50,2500
50,50,-16175313
50,50,2500
50,50,2500
50,50,2500
50,50,2500
50,50,2500
50,50,2500
50,50,2500
50,50,2500
50,50,2500
50,50,2500
50,50,2500
50,50,2500
50,50,2500
50,50,2500
50,50,2500
50,50,2500
50,50,2500
50,50,2500
50,50,2500
50,50,2500
50,50,2500
50,50,2500
50,50,2500
50,50,2500
50,50,2500
50,50,2500
50,50,2500
50,50,2500
50,50,2500
50,50,2500
50,50,2500
50,50,2500
50,50,2500
50,50,2500
50,50,2500
50,50,2500
50,50,2500
50,50,2500
50,50,2500
50,50,2500
50,50,2500
50,50,2500
50,50,2500
50,50,2500
50,50,2500
50,50,2500
50,50,2500
50,50,2500
50,50,2500
50,50,2500
50,50,2500
50,50,2500
50,50,2500
50,50,2500
50,50,2500
50,50,2500
50,50,2500
50,50,2500
50,50,2500
50,50,2500
50,50,2500
50,50,2500
50,50,2500
50,50,2500
50,50,2500
50,50,2500
50,50,2500
50,50,2500
50,50,2500
50,50,2500
50,50,2500
50,50,2500
50,50,2500
50,50,2500
50,50,2500
50,50,2500
50,50,2500
50,50,2500
50,50,2500
50,50,2500
50,50,2500
50,50,2500
50,50,2500
50,50,2500
50,50,2500
50,50,2500
50,50,2500
50,50,2500
50,50,2500
50,50,2500
50,50,2500
50,50,2500
50,50,2500
50,50,2500
50,50,2500
50,50,2500
50,50,2500
50,50,2500
50,50,2500
50,50,2500
50,50,2500
50,50,2500
50,50,2500
50,50,2500
50,50,2500
50,50,2500
50,50,2500
50,50,2500
50,50,2500
50,50,2500
50,50,2500
50,50,2500
50,50,2500
50,50,2500
50,50,2500
50,50,2500
50,50,2500
50,50,2500
50,50,2500
50,50,2500
50,50,50
50,50,2500
50,50,2500
50,50,2500
50,50,2500
50,50,2500
50,50,2500
50,50,2500
50,50,2500
50,50,2500
50,50,2500
50,50,2500
50,50,2500
50,50,2500
50,50,2500
50,50,2500
50,50,2500
50,50,2500
50,50,2500
50,50,2500
50,50,2500
50,50,2500
50,50,2500
50,50,2500
50,50,2500
50,50,2500
50,50,2500
50,50,2500
50,50,2500
50,50,2500
50,50,2500
50,50,2500
50,50,2500
50,50,2500
50,50,2500
50,50,2500
50,50,2500
50,50,2500
50,50,2500
50,50,2500
50,50,2500
50,50,2500
50,50,2500
50,50,2500
50,50,2500
50,50,2500
50,50,2500
50,50,2500
50,50,2500
50,50,2500
50,50,2500
50,50,2500
50,50,2500
50,50,2500
50,50,2500
50,50,2500
50,50,2500
50,50,2500
50,50,2500
50,50,2500
50,50,2500
50,50,2500
50,50,2500
50,50,2500
50,50,2500
50,50,2500
50,50,2500
50,50,2500
50,50,2500
50,50,2500
50,50,2500
50,50,2500
50,50,2500
50,50,2500
50,50,2500
50,50,2500
50,50,2500
50,50,2500
50,50,2500
50,50,2500
50,50,2500
50,50,2500
50,50,2500
50,50,2500
50,50,2500
50,50,2500
50,50,2500
50,50,2500
50,50,2500
50,50,2500
50,50,2500
50,50,2500
50,50,2500
50,50,2500
50,50,2500
50,50,2500
50,50,2500
50,50,2500
50,50,2500
50,50,2500
50,50,2500
50,50,2500
50,50,2500
50,50,2500
50,50,2500
50,50,2500
50,50,2500
50,50,2500
50,50,2500
50,50,2500
50,50,2500
50,50,2500
50,50,2500
50,50,2500
50,50,2500
50,50,2500
50,50,2500
50,50,2500
50,50,2500
50,50,2500
50,50,2500
50,50,2500
50,50,2500
50,50,2500
50,50,2500
50,50,2500
50,50,2500
50,50,2500
50,50,2501
50,50,2500
50,50,2500
50,50,2500
50,50,2500
50,50,2500
50,50,2500
50,50,2500
50,50,2500
50,50,2500
50,50,2500
50,50,2500
50,50,2500
50,50,2500
50,50,2500
50,50,2500
50,50,2500
50,50,2500
50,50,2500
50,50,2500
50,50,2
