<?xml version="1.0" encoding="UTF-8" standalone="no"?>
<!-- Created with Inkscape (http://www.inkscape.org/) -->

<svg
   xmlns:dc="http://purl.org/dc/elements/1.1/"
   xmlns:cc="http://creativecommons.org/ns#"
   xmlns:rdf="http://www.w3.org/1999/02/22-rdf-syntax-ns#"
   xmlns:svg="http://www.w3.org/2000/svg"
   xmlns="http://www.w3.org/2000/svg"
   xmlns:sodipodi="http://sodipodi.sourceforge.net/DTD/sodipodi-0.dtd"
   xmlns:inkscape="http://www.inkscape.org/namespaces/inkscape"
   width="150.54132mm"
   height="92.333565mm"
   viewBox="0 0 150.54132 92.333565"
   version="1.1"
   id="svg8"
   inkscape:version="0.92.3 (2405546, 2018-03-11)"
   sodipodi:docname="hs_interface.svg"
   inkscape:export-filename="/home/ronan/Documents/git-inria/secure_riscv/presentation_TechMeUp/Figures/ha_interface.png"
   inkscape:export-xdpi="500"
   inkscape:export-ydpi="500">
  <defs
     id="defs2" />
  <sodipodi:namedview
     id="base"
     pagecolor="#ffffff"
     bordercolor="#666666"
     borderopacity="1.0"
     inkscape:pageopacity="0.0"
     inkscape:pageshadow="2"
     inkscape:zoom="1.979899"
     inkscape:cx="352.22868"
     inkscape:cy="143.15996"
     inkscape:document-units="mm"
     inkscape:current-layer="layer1"
     showgrid="false"
     fit-margin-top="0"
     fit-margin-left="0"
     fit-margin-right="0"
     fit-margin-bottom="0"
     inkscape:window-width="2560"
     inkscape:window-height="1376"
     inkscape:window-x="0"
     inkscape:window-y="27"
     inkscape:window-maximized="1" />
  <metadata
     id="metadata5">
    <rdf:RDF>
      <cc:Work
         rdf:about="">
        <dc:format>image/svg+xml</dc:format>
        <dc:type
           rdf:resource="http://purl.org/dc/dcmitype/StillImage" />
        <dc:title></dc:title>
      </cc:Work>
    </rdf:RDF>
  </metadata>
  <g
     inkscape:label="Calque 1"
     inkscape:groupmode="layer"
     id="layer1"
     transform="translate(-25.054752,-48.042464)">
    <path
       style="fill:none;stroke:#000000;stroke-width:1.32291663;stroke-linecap:butt;stroke-linejoin:miter;stroke-miterlimit:4;stroke-dasharray:5.29166667, 1.32291667;stroke-dashoffset:0;stroke-opacity:1"
       d="M 47.039436,109.27917 H 175.59608"
       id="path815"
       inkscape:connector-curvature="0"
       sodipodi:nodetypes="cc" />
    <text
       xml:space="preserve"
       style="font-style:normal;font-weight:normal;font-size:11.28888893px;line-height:1.25;font-family:sans-serif;letter-spacing:0px;word-spacing:0px;fill:#000000;fill-opacity:1;stroke:none;stroke-width:0.26458332"
       x="23.94681"
       y="113.38848"
       id="text819"><tspan
         sodipodi:role="line"
         id="tspan817"
         x="23.94681"
         y="113.38848"
         style="stroke-width:0.26458332">ISA</tspan></text>
    <text
       xml:space="preserve"
       style="font-style:normal;font-weight:normal;font-size:8.46666622px;line-height:1.25;font-family:sans-serif;letter-spacing:0px;word-spacing:0px;fill:#000000;fill-opacity:1;stroke:none;stroke-width:0.26458332"
       x="48.731983"
       y="103.43758"
       id="text823"><tspan
         sodipodi:role="line"
         id="tspan821"
         x="48.731983"
         y="103.43758"
         style="stroke-width:0.26458332">Software</tspan></text>
    <text
       xml:space="preserve"
       style="font-style:normal;font-weight:normal;font-size:8.46666622px;line-height:1.25;font-family:sans-serif;letter-spacing:0px;word-spacing:0px;fill:#000000;fill-opacity:1;stroke:none;stroke-width:0.26458332"
       x="48.459133"
       y="121.43357"
       id="text827"><tspan
         sodipodi:role="line"
         id="tspan825"
         x="48.459133"
         y="121.43357"
         style="stroke-width:0.26458332">Hardware</tspan></text>
    <g
       id="g841"
       transform="translate(-15.367996,1.3363476)">
      <rect
         ry="3.0000045"
         rx="3.0000045"
         y="77.438087"
         x="112.2532"
         height="24.588797"
         width="68.821907"
         id="rect829"
         style="fill:none;fill-opacity:1;stroke:#000000;stroke-width:0.79374999;stroke-miterlimit:4;stroke-dasharray:none;stroke-dashoffset:0;stroke-opacity:1" />
      <text
         id="text833"
         y="86.776596"
         x="125.63598"
         style="font-style:normal;font-weight:normal;font-size:8.46666622px;line-height:1.25;font-family:sans-serif;letter-spacing:0px;word-spacing:0px;fill:#000000;fill-opacity:1;stroke:none;stroke-width:0.26458332"
         xml:space="preserve"><tspan
           style="stroke-width:0.26458332"
           y="86.776596"
           x="125.63598"
           id="tspan831"
           sodipodi:role="line">Operating</tspan><tspan
           id="tspan835"
           style="stroke-width:0.26458332"
           y="97.359932"
           x="125.63598"
           sodipodi:role="line">System</tspan></text>
    </g>
    <g
       id="g879">
      <rect
         ry="3.0000045"
         rx="3.0000045"
         y="48.439339"
         x="96.885201"
         height="24.588797"
         width="68.821907"
         id="rect829-6"
         style="fill:none;fill-opacity:1;stroke:#000000;stroke-width:0.79374999;stroke-miterlimit:4;stroke-dasharray:none;stroke-dashoffset:0;stroke-opacity:1" />
      <text
         id="text833-7"
         y="63.069511"
         x="105.60883"
         style="font-style:normal;font-weight:normal;font-size:8.46666622px;line-height:1.25;font-family:sans-serif;letter-spacing:0px;word-spacing:0px;fill:#000000;fill-opacity:1;stroke:none;stroke-width:0.26458332"
         xml:space="preserve"><tspan
           id="tspan835-3"
           style="stroke-width:0.26458332"
           y="63.069511"
           x="105.60883"
           sodipodi:role="line">Applications</tspan></text>
    </g>
    <g
       id="g911">
      <rect
         ry="3.0000045"
         rx="3.0000045"
         y="115.39036"
         x="96.885201"
         height="24.588797"
         width="68.821907"
         id="rect829-6-6"
         style="fill:none;fill-opacity:1;stroke:#000000;stroke-width:0.79374999;stroke-miterlimit:4;stroke-dasharray:none;stroke-dashoffset:0;stroke-opacity:1" />
      <text
         id="text833-7-2"
         y="130.31509"
         x="98.919144"
         style="font-style:normal;font-weight:normal;font-size:7.05555534px;line-height:1.25;font-family:sans-serif;letter-spacing:0px;word-spacing:0px;fill:#000000;fill-opacity:1;stroke:none;stroke-width:0.26458332"
         xml:space="preserve"><tspan
           id="tspan835-3-9"
           style="font-size:7.05555534px;stroke-width:0.26458332"
           y="130.31509"
           x="98.919144"
           sodipodi:role="line">Micro-architecture</tspan></text>
    </g>
  </g>
</svg>
